1461772273941;eduroam;04:bd:88:b7:5d:e0;-45
1461772273941;eduroam;84:d4:7e:c0:7b:a0;-59
1461772273942;eduroam;94:b4:0f:3a:8d:c0;-63
1461772273943;Xperia Z3 Compact_b345;84:8e:df:e7:3b:bd;-65
1461772273943;eduroam;40:e3:d6:7a:ea:a0;-67
1461772273944;eduroam;40:e3:d6:7a:d5:00;-75
1461772273944;eduroam;04:bd:88:b7:52:20;-76
1461772273946;eduroam;04:bd:88:b6:96:e0;-79
1461772273947;ApartmENT_54;00:22:07:33:b5:bf;-89
1461772273948;eduroam;40:e3:d6:7a:f7:c0;-90
1461772273949;RistoKukk;14:cc:20:b2:e6:3e;-92
1461772273950;Elion-49050D;00:22:07:49:05:0c;-93
1461772273950;campuswifi;04:bd:88:b7:5d:e1;-45
1461772273951;campuswifi;84:d4:7e:c0:7b:a1;-59
1461772273952;campuswifi;94:b4:0f:3a:8d:c1;-63
1461772273953;Portthru;ca:97:89:7d:68:22;-69
1461772273954;campuswifi;40:e3:d6:7a:d5:01;-75
1461772273956;campuswifi;04:bd:88:b6:96:e1;-76
1461772273957;campuswifi;04:bd:88:b7:52:21;-79
1461772274700;eduroam;04:bd:88:b7:5d:e0;-45
1461772274701;eduroam;84:d4:7e:c0:7b:a0;-57
1461772274701;eduroam;94:b4:0f:3a:8d:c0;-61
1461772274701;Xperia Z3 Compact_b345;84:8e:df:e7:3b:bd;-65
1461772274702;eduroam;40:e3:d6:7a:ea:a0;-66
1461772274702;eduroam;04:bd:88:b7:52:20;-80
1461772274702;eduroam;04:bd:88:b6:96:e0;-81
1461772274707;eduroam;04:bd:88:b7:55:a0;-85
1461772274709;campuswifi;04:bd:88:b7:5d:e1;-46
1461772274710;campuswifi;84:d4:7e:c0:7b:a1;-57
1461772274711;campuswifi;94:b4:0f:3a:8d:c1;-63
1461772274713;campuswifi;40:e3:d6:7a:ea:a1;-67
1461772274714;Portthru;ca:97:89:7d:68:22;-69
1461772274719;campuswifi;04:bd:88:b7:55:01;-71
1461772274719;campuswifi;40:e3:d6:7a:d5:01;-77
1461772274721;campuswifi;04:bd:88:b6:98:c1;-78
1461772274722;campuswifi;04:bd:88:b6:96:e1;-81
1461772274723;campuswifi;40:e3:d6:7a:ec:21;-83
1461772274724;campuswifi;04:bd:88:b7:55:a1;-86
1461772274725;campuswifi;40:e3:d6:7a:eb:e1;-88
1461772275524;eduroam;04:bd:88:b7:5d:e0;-48
1461772275525;eduroam;84:d4:7e:c0:7b:a0;-57
1461772275525;Xperia Z3 Compact_b345;84:8e:df:e7:3b:bd;-62
1461772275526;eduroam;94:b4:0f:3a:8d:c0;-63
1461772275526;HTC Portable Hotspot 483E;2c:8a:72:8f:6c:90;-65
1461772275526;eduroam;40:e3:d6:7a:ea:a0;-67
1461772275527;eduroam;04:bd:88:b7:55:00;-73
1461772275527;eduroam;04:bd:88:b7:cd:40;-76
1461772275527;campuswifi;04:bd:88:b7:5d:e1;-48
1461772275527;campuswifi;84:d4:7e:c0:7b:a1;-57
1461772275528;campuswifi;94:b4:0f:3a:8d:c1;-64
1461772275528;campuswifi;40:e3:d6:7a:ea:a1;-67
1461772275528;Portthru;ca:97:89:7d:68:22;-69
1461772275529;campuswifi;04:bd:88:b7:cd:41;-77
1461772275529;campuswifi;04:bd:88:b6:96:e1;-80
1461772276334;eduroam;04:bd:88:b7:5d:e0;-49
1461772276334;Xperia Z3 Compact_b345;84:8e:df:e7:3b:bd;-60
1461772276335;eduroam;84:d4:7e:c0:7b:a0;-60
1461772276335;eduroam;94:b4:0f:3a:8d:c0;-62
1461772276336;HTC Portable Hotspot 483E;2c:8a:72:8f:6c:90;-70
1461772276336;eduroam;40:e3:d6:7a:ea:a0;-71
1461772276336;eduroam;04:bd:88:b6:98:c0;-76
1461772276337;eduroam;40:e3:d6:7a:d5:00;-77
1461772276337;eduroam;04:bd:88:b6:96:e0;-82
1461772276343;eduroam;04:bd:88:b7:52:20;-83
1461772276353;eduroam;04:bd:88:b7:55:a0;-92
1461772276365;eduroam;84:d4:7e:c0:5c:40;-92
1461772276367;campuswifi;04:bd:88:b7:5d:e1;-49
1461772276369;campuswifi;84:d4:7e:c0:7b:a1;-60
1461772276373;campuswifi;94:b4:0f:3a:8d:c1;-62
1461772276375;Portthru;ca:97:89:7d:68:22;-72
1461772276375;campuswifi;40:e3:d6:7a:d5:01;-75
1461772276376;campuswifi;04:bd:88:b7:55:01;-75
1461772276377;campuswifi;04:bd:88:b6:96:e1;-81
1461772276378;campuswifi;04:bd:88:b7:52:21;-84
1461772276379;campuswifi;04:bd:88:b7:55:a1;-90
1461772276380;campuswifi;84:d4:7e:c0:5c:41;-93
1461772277090;eduroam;04:bd:88:b7:5d:e0;-49
1461772277090;eduroam;84:d4:7e:c0:7b:a0;-60
1461772277091;eduroam;94:b4:0f:3a:8d:c0;-63
1461772277091;Xperia Z3 Compact_b345;84:8e:df:e7:3b:bd;-66
1461772277092;HTC Portable Hotspot 483E;2c:8a:72:8f:6c:90;-70
1461772277092;eduroam;40:e3:d6:7a:d5:00;-72
1461772277092;eduroam;40:e3:d6:7a:ea:a0;-72
1461772277093;eduroam;04:bd:88:b7:52:20;-80
1461772277099;eduroam;04:bd:88:b6:96:e0;-80
1461772277099;eduroam;84:d4:7e:c0:78:e0;-90
1461772277099;campuswifi;04:bd:88:b7:5d:e1;-49
1461772277099;campuswifi;84:d4:7e:c0:7b:a1;-60
1461772277100;campuswifi;94:b4:0f:3a:8d:c1;-62
1461772277100;campuswifi;40:e3:d6:7a:ea:a1;-67
1461772277100;campuswifi;40:e3:d6:7a:d5:01;-71
1461772277101;Portthru;ca:97:89:7d:68:22;-72
1461772277101;campuswifi;04:bd:88:b6:96:e1;-79
1461772277101;campuswifi;04:bd:88:b7:52:21;-80
1461772277102;campuswifi;84:d4:7e:c0:5c:41;-91
1461772277872;eduroam;04:bd:88:b7:5d:e0;-49
1461772277872;eduroam;94:b4:0f:3a:8d:c0;-60
1461772277873;eduroam;84:d4:7e:c0:7b:a0;-63
1461772277873;Xperia Z3 Compact_b345;84:8e:df:e7:3b:bd;-68
1461772277873;HTC Portable Hotspot 483E;2c:8a:72:8f:6c:90;-70
1461772277873;eduroam;04:bd:88:b7:cd:40;-75
1461772277874;eduroam;04:bd:88:b6:96:e0;-78
1461772277874;eduroam;04:bd:88:b7:55:a0;-91
1461772277874;campuswifi;04:bd:88:b7:5d:e1;-49
1461772277874;campuswifi;94:b4:0f:3a:8d:c1;-62
1461772277876;campuswifi;84:d4:7e:c0:7b:a1;-63
1461772277876;Portthru;ca:97:89:7d:68:22;-71
1461772277877;campuswifi;04:bd:88:b7:cd:41;-75
1461772277877;campuswifi;04:bd:88:b6:96:e1;-78
1461772277877;campuswifi;04:bd:88:b7:52:21;-80
1461772277878;campuswifi;04:bd:88:b7:55:a1;-90
1461772278649;eduroam;04:bd:88:b7:5d:e0;-46
1461772278649;eduroam;94:b4:0f:3a:8d:c0;-61
1461772278650;Xperia Z3 Compact_b345;84:8e:df:e7:3b:bd;-66
1461772278650;HTC Portable Hotspot 483E;2c:8a:72:8f:6c:90;-68
1461772278650;eduroam;04:bd:88:b7:cd:40;-77
1461772278651;campuswifi;04:bd:88:b7:5d:e1;-46
1461772278651;campuswifi;94:b4:0f:3a:8d:c1;-59
1461772278651;campuswifi;40:e3:d6:7a:ea:a1;-68
1461772278651;Portthru;ca:97:89:7d:68:22;-73
1461772278652;campuswifi;04:bd:88:b7:cd:41;-78
1461772279256;eduroam;04:bd:88:b7:5d:e0;-47
1461772279257;eduroam;94:b4:0f:3a:8d:c0;-61
1461772279257;Xperia Z3 Compact_b345;84:8e:df:e7:3b:bd;-63
1461772279257;eduroam;84:d4:7e:c0:7b:a0;-70
1461772279258;eduroam;40:e3:d6:7a:d5:00;-71
1461772279258;campuswifi;04:bd:88:b7:5d:e1;-47
1461772279258;campuswifi;94:b4:0f:3a:8d:c1;-61
1461772279258;campuswifi;84:d4:7e:c0:7b:a1;-69
1461772279259;campuswifi;40:e3:d6:7a:d5:01;-71
1461772279259;Portthru;ca:97:89:7d:68:22;-73
1461772279259;campuswifi;04:bd:88:b7:cd:41;-75
1461772279991;eduroam;04:bd:88:b7:5d:e0;-49
1461772279992;eduroam;94:b4:0f:3a:8d:c0;-63
1461772280006;eduroam;84:d4:7e:c0:7b:a0;-65
1461772280006;Xperia Z3 Compact_b345;84:8e:df:e7:3b:bd;-67
1461772280007;eduroam;40:e3:d6:7a:d5:00;-69
1461772280007;eduroam;04:bd:88:b6:98:c0;-74
1461772280007;eduroam;04:bd:88:b7:52:20;-76
1461772280007;eduroam;04:bd:88:b6:96:e0;-77
1461772280008;HTC Portable Hotspot 483E;2c:8a:72:8f:6c:90;-80
1461772280008;campuswifi;04:bd:88:b7:5d:e1;-49
1461772280008;campuswifi;94:b4:0f:3a:8d:c1;-63
1461772280008;campuswifi;84:d4:7e:c0:7b:a1;-64
1461772280009;campuswifi;40:e3:d6:7a:d5:01;-68
1461772280009;Portthru;ca:97:89:7d:68:22;-72
1461772280014;campuswifi;04:bd:88:b6:98:c1;-74
1461772280014;campuswifi;04:bd:88:b6:96:e1;-77
1461772280848;eduroam;04:bd:88:b7:5d:e0;-48
1461772280848;eduroam;94:b4:0f:3a:8d:c0;-63
1461772280848;eduroam;84:d4:7e:c0:7b:a0;-64
1461772280849;Xperia Z3 Compact_b345;84:8e:df:e7:3b:bd;-73
1461772280849;eduroam;40:e3:d6:7a:d5:00;-75
1461772280849;eduroam;04:bd:88:b6:96:e0;-79
1461772280850;eduroam;04:bd:88:b7:52:20;-80
1461772280850;eduroam;40:e3:d6:7a:f7:c0;-89
1461772280850;Elion-44C2CF;00:22:07:44:c2:ce;-94
1461772280850;campuswifi;04:bd:88:b7:5d:e1;-49
1461772280851;campuswifi;94:b4:0f:3a:8d:c1;-61
1461772280851;campuswifi;40:e3:d6:7a:d5:01;-68
1461772280851;Portthru;ca:97:89:7d:68:22;-72
1461772280851;campuswifi;04:bd:88:b7:cd:41;-75
1461772280852;campuswifi;04:bd:88:b6:96:e1;-77
1461772280852;campuswifi;04:bd:88:b7:52:21;-80
1461772280852;campuswifi;40:e3:d6:7a:f7:c1;-88
1461772281653;eduroam;04:bd:88:b7:5d:e0;-49
1461772281653;eduroam;94:b4:0f:3a:8d:c0;-61
1461772281653;eduroam;84:d4:7e:c0:7b:a0;-64
1461772281653;Xperia Z3 Compact_b345;84:8e:df:e7:3b:bd;-65
1461772281654;eduroam;40:e3:d6:7a:ea:a0;-68
1461772281654;HTC Portable Hotspot 483E;2c:8a:72:8f:6c:90;-69
1461772281654;eduroam;04:bd:88:b7:cd:40;-74
1461772281654;eduroam;04:bd:88:b7:55:00;-75
1461772281655;eduroam;04:bd:88:b6:96:e0;-81
1461772281655;eduroam;04:bd:88:b7:52:20;-83
1461772281655;campuswifi;04:bd:88:b7:5d:e1;-48
1461772281656;campuswifi;94:b4:0f:3a:8d:c1;-61
1461772281656;campuswifi;84:d4:7e:c0:7b:a1;-62
1461772281656;campuswifi;40:e3:d6:7a:ea:a1;-66
1461772281656;Portthru;ca:97:89:7d:68:22;-71
1461772281657;campuswifi;04:bd:88:b6:98:c1;-73
1461772281657;campuswifi;04:bd:88:b7:cd:41;-75
1461772281657;campuswifi;04:bd:88:b6:96:e1;-81
1461772281658;campuswifi;04:bd:88:b7:52:21;-83
1461772282378;eduroam;04:bd:88:b7:5d:e0;-46
1461772282378;eduroam;94:b4:0f:3a:8d:c0;-61
1461772282379;Xperia Z3 Compact_b345;84:8e:df:e7:3b:bd;-62
1461772282379;eduroam;84:d4:7e:c0:7b:a0;-63
1461772282379;HTC Portable Hotspot 483E;2c:8a:72:8f:6c:90;-67
1461772282379;eduroam;04:bd:88:b7:cd:40;-78
1461772282380;eduroam;04:bd:88:b6:96:e0;-81
1461772282380;eduroam;04:bd:88:b7:52:20;-87
1461772282380;eduroam;04:bd:88:b7:55:a0;-91
1461772282380;Elion-44C2CF;00:22:07:44:c2:ce;-94
1461772282381;campuswifi;04:bd:88:b7:5d:e1;-46
1461772282381;campuswifi;94:b4:0f:3a:8d:c1;-59
1461772282381;campuswifi;84:d4:7e:c0:7b:a1;-63
1461772282381;campuswifi;40:e3:d6:7a:ea:a1;-69
1461772282382;Portthru;ca:97:89:7d:68:22;-71
1461772282396;campuswifi;04:bd:88:b7:cd:41;-78
1461772282396;campuswifi;04:bd:88:b6:96:e1;-82
1461772282396;campuswifi;04:bd:88:b7:55:a1;-90
1461772283198;eduroam;04:bd:88:b7:5d:e0;-47
1461772283199;eduroam;94:b4:0f:3a:8d:c0;-61
1461772283199;Xperia Z3 Compact_b345;84:8e:df:e7:3b:bd;-62
1461772283199;HTC Portable Hotspot 483E;2c:8a:72:8f:6c:90;-67
1461772283200;eduroam;40:e3:d6:7a:d5:00;-67
1461772283200;eduroam;40:e3:d6:7a:ea:a0;-74
1461772283200;eduroam;04:bd:88:b7:cd:40;-75
1461772283200;eduroam;04:bd:88:b6:96:e0;-82
1461772283201;ApartmENT_54;00:22:07:33:b5:bf;-89
1461772283201;campuswifi;04:bd:88:b7:5d:e1;-47
1461772283201;campuswifi;94:b4:0f:3a:8d:c1;-60
1461772283201;campuswifi;40:e3:d6:7a:d5:01;-67
1461772283202;Portthru;ca:97:89:7d:68:22;-76
1461772283202;campuswifi;04:bd:88:b6:96:e1;-81
1461772283894;eduroam;04:bd:88:b7:5d:e0;-51
1461772283895;eduroam;94:b4:0f:3a:8d:c0;-61
1461772283895;Xperia Z3 Compact_b345;84:8e:df:e7:3b:bd;-66
1461772283895;eduroam;40:e3:d6:7a:d5:00;-69
1461772283895;eduroam;04:bd:88:b7:cd:40;-74
1461772283896;eduroam;04:bd:88:b7:55:00;-74
1461772283896;eduroam;04:bd:88:b6:96:e0;-79
1461772283896;wololo;00:0c:f6:20:97:22;-83
1461772283896;eduroam;40:e3:d6:7a:eb:e0;-86
1461772283897;campuswifi;04:bd:88:b7:5d:e1;-51
1461772283897;campuswifi;94:b4:0f:3a:8d:c1;-60
1461772283897;campuswifi;84:d4:7e:c0:7b:a1;-65
1461772283897;campuswifi;40:e3:d6:7a:d5:01;-69
1461772283898;Portthru;ca:97:89:7d:68:22;-72
1461772283898;campuswifi;04:bd:88:b7:cd:41;-73
1461772283898;campuswifi;04:bd:88:b6:96:e1;-77
1461772284638;eduroam;04:bd:88:b7:5d:e0;-49
1461772284638;eduroam;94:b4:0f:3a:8d:c0;-61
1461772284638;eduroam;84:d4:7e:c0:7b:a0;-63
1461772284638;HTC Portable Hotspot 483E;2c:8a:72:8f:6c:90;-67
1461772284639;Xperia Z3 Compact_b345;84:8e:df:e7:3b:bd;-67
1461772284639;eduroam;04:bd:88:b6:96:e0;-80
1461772284639;eduroam;04:bd:88:b7:52:20;-82
1461772284640;wololo;00:0c:f6:20:97:22;-87
1461772284640;campuswifi;04:bd:88:b7:5d:e1;-49
1461772284640;campuswifi;94:b4:0f:3a:8d:c1;-60
1461772284640;campuswifi;84:d4:7e:c0:7b:a1;-63
1461772284641;Portthru;ca:97:89:7d:68:22;-71
1461772284641;campuswifi;04:bd:88:b6:96:e1;-80
1461772284641;campuswifi;04:bd:88:b7:52:21;-82
1461772285489;eduroam;04:bd:88:b7:5d:e0;-48
1461772285489;eduroam;94:b4:0f:3a:8d:c0;-61
1461772285490;Xperia Z3 Compact_b345;84:8e:df:e7:3b:bd;-63
1461772285490;eduroam;84:d4:7e:c0:7b:a0;-64
1461772285490;HTC Portable Hotspot 483E;2c:8a:72:8f:6c:90;-67
1461772285491;eduroam;04:bd:88:b6:96:e0;-82
1461772285491;eduroam;04:bd:88:b7:52:20;-84
1461772285491;campuswifi;04:bd:88:b7:5d:e1;-49
1461772285491;campuswifi;94:b4:0f:3a:8d:c1;-61
1461772285492;campuswifi;84:d4:7e:c0:7b:a1;-65
1461772285492;campuswifi;40:e3:d6:7a:d5:01;-69
1461772285493;Portthru;ca:97:89:7d:68:22;-72
1461772285493;campuswifi;04:bd:88:b7:52:21;-82
1461772285494;campuswifi;40:e3:d6:7a:f7:c1;-90
1461772286314;eduroam;04:bd:88:b7:5d:e0;-49
1461772286315;eduroam;94:b4:0f:3a:8d:c0;-61
1461772286315;Xperia Z3 Compact_b345;84:8e:df:e7:3b:bd;-65
1461772286315;eduroam;84:d4:7e:c0:7b:a0;-67
1461772286315;HTC Portable Hotspot 483E;2c:8a:72:8f:6c:90;-67
1461772286316;eduroam;40:e3:d6:7a:d5:00;-71
1461772286316;eduroam;04:bd:88:b7:cd:40;-76
1461772286316;eduroam;04:bd:88:b6:96:e0;-82
1461772286317;eduroam;04:bd:88:b7:52:20;-85
1461772286317;Elion-3A641A;00:22:07:3a:64:19;-93
1461772286317;campuswifi;04:bd:88:b7:5d:e1;-48
1461772286317;campuswifi;94:b4:0f:3a:8d:c1;-61
1461772286317;campuswifi;84:d4:7e:c0:7b:a1;-67
1461772286318;campuswifi;40:e3:d6:7a:d5:01;-71
1461772286318;campuswifi;04:bd:88:b7:cd:41;-73
1461772286318;Portthru;ca:97:89:7d:68:22;-73
1461772286318;campuswifi;04:bd:88:b6:96:e1;-81
1461772286319;campuswifi;04:bd:88:b7:52:21;-84
1461772287104;eduroam;04:bd:88:b7:5d:e0;-44
1461772287104;eduroam;94:b4:0f:3a:8d:c0;-61
1461772287104;eduroam;84:d4:7e:c0:7b:a0;-67
1461772287105;Xperia Z3 Compact_b345;84:8e:df:e7:3b:bd;-69
1461772287105;eduroam;04:bd:88:b6:98:c0;-74
1461772287105;eduroam;04:bd:88:b7:55:00;-75
1461772287105;eduroam;04:bd:88:b6:96:e0;-78
1461772287106;ApartmENT_54;00:22:07:33:b5:bf;-90
1461772287106;campuswifi;04:bd:88:b7:5d:e1;-44
1461772287106;campuswifi;84:d4:7e:c0:7b:a1;-66
1461772287106;campuswifi;40:e3:d6:7a:ea:a1;-66
1461772287107;Portthru;ca:97:89:7d:68:22;-69
1461772287107;campuswifi;40:e3:d6:7a:d5:01;-70
1461772287107;campuswifi;04:bd:88:b7:cd:41;-77
1461772287107;campuswifi;04:bd:88:b6:96:e1;-78
1461772287108;campuswifi;04:bd:88:b7:52:21;-78
1461772287916;eduroam;84:d4:7e:c0:7b:a0;-57
1461772287917;Xperia Z3 Compact_b345;84:8e:df:e7:3b:bd;-61
1461772287917;eduroam;94:b4:0f:3a:8d:c0;-61
1461772287917;HTC Portable Hotspot 483E;2c:8a:72:8f:6c:90;-67
1461772287917;eduroam;04:bd:88:b7:55:00;-72
1461772287918;eduroam;04:bd:88:b7:cd:40;-74
1461772287918;eduroam;04:bd:88:b7:52:20;-79
1461772287918;eduroam;04:bd:88:b6:96:e0;-82
1461772287918;Elion-44C2CF;00:22:07:44:c2:ce;-89
1461772287919;eduroam;84:d4:7e:c0:78:e0;-90
1461772287919;ApartmENT_54;00:22:07:33:b5:bf;-91
1461772287919;campuswifi;04:bd:88:b7:5d:e1;-46
1461772287919;campuswifi;84:d4:7e:c0:7b:a1;-57
1461772287920;campuswifi;94:b4:0f:3a:8d:c1;-61
1461772287920;campuswifi;40:e3:d6:7a:ea:a1;-66
1461772287920;Portthru;ca:97:89:7d:68:22;-69
1461772287920;campuswifi;04:bd:88:b7:55:01;-71
1461772287921;campuswifi;04:bd:88:b7:cd:41;-74
1461772287921;campuswifi;04:bd:88:b7:52:21;-77
1461772287921;campuswifi;04:bd:88:b6:96:e1;-82
1461772287921;campuswifi;84:d4:7e:c0:5c:41;-91
1461772288762;eduroam;04:bd:88:b7:5d:e0;-46
1461772288763;eduroam;84:d4:7e:c0:7b:a0;-57
1461772288763;Xperia Z3 Compact_b345;84:8e:df:e7:3b:bd;-62
1461772288763;eduroam;40:e3:d6:7a:ea:a0;-66
1461772288763;eduroam;94:b4:0f:3a:8d:c0;-68
1461772288764;HTC Portable Hotspot 483E;2c:8a:72:8f:6c:90;-74
1461772288764;eduroam;04:bd:88:b7:52:20;-77
1461772288764;eduroam;04:bd:88:b7:cd:40;-77
1461772288764;ApartmENT_54;00:22:07:33:b5:bf;-93
1461772288765;campuswifi;04:bd:88:b7:5d:e1;-46
1461772288765;campuswifi;84:d4:7e:c0:7b:a1;-57
1461772288765;campuswifi;40:e3:d6:7a:ea:a1;-64
1461772288765;campuswifi;94:b4:0f:3a:8d:c1;-68
1461772288766;Portthru;ca:97:89:7d:68:22;-71
1461772288766;campuswifi;04:bd:88:b7:52:21;-77
1461772288766;campuswifi;04:bd:88:b6:96:e1;-84
1461772289586;eduroam;04:bd:88:b7:5d:e0;-46
1461772289587;eduroam;84:d4:7e:c0:7b:a0;-58
1461772289587;Xperia Z3 Compact_b345;84:8e:df:e7:3b:bd;-61
1461772289587;eduroam;40:e3:d6:7a:ea:a0;-65
1461772289588;eduroam;94:b4:0f:3a:8d:c0;-68
1461772289588;eduroam;04:bd:88:b7:55:00;-73
1461772289588;HTC Portable Hotspot 483E;2c:8a:72:8f:6c:90;-73
1461772289588;eduroam;04:bd:88:b7:52:20;-80
1461772289589;ApartmENT_54;00:22:07:33:b5:bf;-84
1461772289589;S6gendonid;58:98:35:ba:cf:5d;-93
1461772289589;campuswifi;04:bd:88:b7:5d:e1;-46
1461772289589;campuswifi;84:d4:7e:c0:7b:a1;-59
1461772289590;campuswifi;40:e3:d6:7a:ea:a1;-65
1461772289590;campuswifi;94:b4:0f:3a:8d:c1;-66
1461772289590;Portthru;ca:97:89:7d:68:22;-69
1461772289590;campuswifi;40:e3:d6:7a:d5:01;-78
1461772289591;campuswifi;04:bd:88:b7:52:21;-80
1461772290378;eduroam;04:bd:88:b7:5d:e0;-46
1461772290378;eduroam;84:d4:7e:c0:7b:a0;-59
1461772290378;Xperia Z3 Compact_b345;84:8e:df:e7:3b:bd;-62
1461772290379;eduroam;40:e3:d6:7a:ea:a0;-66
1461772290379;eduroam;94:b4:0f:3a:8d:c0;-67
1461772290379;HTC Portable Hotspot 483E;2c:8a:72:8f:6c:90;-73
1461772290379;eduroam;04:bd:88:b7:55:00;-73
1461772290380;eduroam;04:bd:88:b7:cd:40;-76
1461772290380;eduroam;04:bd:88:b7:52:20;-80
1461772290380;eduroam;04:bd:88:b7:55:a0;-88
1461772290380;Elion-5314F4;00:22:07:53:14:f3;-93
1461772290381;campuswifi;04:bd:88:b7:5d:e1;-46
1461772290381;campuswifi;84:d4:7e:c0:7b:a1;-57
1461772290381;campuswifi;94:b4:0f:3a:8d:c1;-66
1461772290381;Portthru;ca:97:89:7d:68:22;-71
1461772290382;campuswifi;04:bd:88:b7:55:01;-73
1461772290382;campuswifi;04:bd:88:b7:cd:41;-76
1461772290398;campuswifi;04:bd:88:b7:52:21;-79
1461772290399;campuswifi;04:bd:88:b6:96:e1;-85
1461772290399;campuswifi;04:bd:88:b7:55:a1;-87
1461772291188;eduroam;04:bd:88:b7:5d:e0;-47
1461772291188;eduroam;84:d4:7e:c0:7b:a0;-58
1461772291189;Xperia Z3 Compact_b345;84:8e:df:e7:3b:bd;-63
1461772291189;eduroam;40:e3:d6:7a:ea:a0;-66
1461772291189;eduroam;94:b4:0f:3a:8d:c0;-67
1461772291190;HTC Portable Hotspot 483E;2c:8a:72:8f:6c:90;-72
1461772291190;eduroam;04:bd:88:b7:4c:c0;-74
1461772291190;eduroam;04:bd:88:b7:cd:40;-77
1461772291190;eduroam;04:bd:88:b7:52:20;-79
1461772291191;eduroam;04:bd:88:b7:55:a0;-85
1461772291191;eduroam;04:bd:88:b6:96:e0;-88
1461772291191;eduroam;84:d4:7e:c0:5c:40;-92
1461772291191;campuswifi;04:bd:88:b7:5d:e1;-47
1461772291192;campuswifi;84:d4:7e:c0:7b:a1;-58
1461772291192;campuswifi;40:e3:d6:7a:ea:a1;-66
1461772291192;Portthru;ca:97:89:7d:68:22;-70
1461772291196;campuswifi;04:bd:88:b7:52:21;-78
1461772291197;campuswifi;04:bd:88:b7:55:a1;-87
1461772291977;eduroam;04:bd:88:b7:5d:e0;-47
1461772291978;eduroam;84:d4:7e:c0:7b:a0;-58
1461772291978;Xperia Z3 Compact_b345;84:8e:df:e7:3b:bd;-61
1461772291978;eduroam;40:e3:d6:7a:ea:a0;-62
1461772291979;eduroam;94:b4:0f:3a:8d:c0;-67
1461772291979;eduroam;40:e3:d6:7a:d5:00;-75
1461772291979;eduroam;04:bd:88:b7:52:20;-76
1461772291980;eduroam;04:bd:88:b7:cd:40;-77
1461772291980;campuswifi;04:bd:88:b7:5d:e1;-47
1461772291980;campuswifi;84:d4:7e:c0:7b:a1;-57
1461772291980;campuswifi;40:e3:d6:7a:ea:a1;-65
1461772291981;Portthru;ca:97:89:7d:68:22;-69
1461772291981;campuswifi;94:b4:0f:3a:8d:c1;-69
1461772291981;campuswifi;40:e3:d6:7a:d5:01;-75
1461772291982;campuswifi;04:bd:88:b7:52:21;-77
1461772292824;eduroam;04:bd:88:b7:5d:e0;-47
1461772292825;eduroam;84:d4:7e:c0:7b:a0;-57
1461772292825;Xperia Z3 Compact_b345;84:8e:df:e7:3b:bd;-62
1461772292825;eduroam;40:e3:d6:7a:ea:a0;-65
1461772292825;eduroam;94:b4:0f:3a:8d:c0;-67
1461772292826;HTC Portable Hotspot 483E;2c:8a:72:8f:6c:90;-72
1461772292826;eduroam;04:bd:88:b7:52:20;-79
1461772292827;wololo;00:0c:f6:20:97:22;-85
1461772292827;campuswifi;04:bd:88:b7:5d:e1;-47
1461772292827;campuswifi;84:d4:7e:c0:7b:a1;-56
1461772292827;campuswifi;40:e3:d6:7a:ea:a1;-66
1461772292828;campuswifi;94:b4:0f:3a:8d:c1;-69
1461772292828;Portthru;ca:97:89:7d:68:22;-70
1461772293587;eduroam;04:bd:88:b7:5d:e0;-47
1461772293588;eduroam;84:d4:7e:c0:7b:a0;-58
1461772293588;Xperia Z3 Compact_b345;84:8e:df:e7:3b:bd;-61
1461772293588;eduroam;40:e3:d6:7a:ea:a0;-66
1461772293588;eduroam;94:b4:0f:3a:8d:c0;-67
1461772293589;eduroam;40:e3:d6:7a:d5:00;-76
1461772293589;eduroam;04:bd:88:b7:52:20;-78
1461772293589;eduroam;04:bd:88:b6:98:c0;-81
1461772293589;campuswifi;04:bd:88:b7:5d:e1;-47
1461772293590;campuswifi;40:e3:d6:7a:ea:a1;-67
1461772293590;Portthru;ca:97:89:7d:68:22;-70
1461772293590;campuswifi;04:bd:88:b7:52:21;-75
1461772293590;campuswifi;40:e3:d6:7a:d5:01;-77
1461772293591;campuswifi;04:bd:88:b6:96:e1;-88
1461772293591;campuswifi;04:bd:88:b7:55:a1;-88
1461772293591;campuswifi;84:d4:7e:c0:5c:41;-91
1461772294308;eduroam;04:bd:88:b7:5d:e0;-47
1461772294308;eduroam;84:d4:7e:c0:7b:a0;-59
1461772294309;Xperia Z3 Compact_b345;84:8e:df:e7:3b:bd;-62
1461772294309;eduroam;94:b4:0f:3a:8d:c0;-67
1461772294309;HTC Portable Hotspot 483E;2c:8a:72:8f:6c:90;-70
1461772294309;eduroam;04:bd:88:b7:55:00;-71
1461772294310;eduroam;04:bd:88:b7:52:20;-78
1461772294310;Elion-49050D;00:22:07:49:05:0c;-91
1461772294310;campuswifi;04:bd:88:b7:5d:e1;-47
1461772294310;campuswifi;84:d4:7e:c0:7b:a1;-59
1461772294311;campuswifi;40:e3:d6:7a:ea:a1;-66
1461772294311;Portthru;ca:97:89:7d:68:22;-70
1461772294311;campuswifi;94:b4:0f:3a:8d:c1;-70
1461772294311;campuswifi;04:bd:88:b7:52:21;-78
1461772295018;eduroam;04:bd:88:b7:5d:e0;-47
1461772295037;eduroam;84:d4:7e:c0:7b:a0;-57
1461772295037;Xperia Z3 Compact_b345;84:8e:df:e7:3b:bd;-62
1461772295037;eduroam;94:b4:0f:3a:8d:c0;-67
1461772295038;eduroam;04:bd:88:b7:52:20;-78
1461772295038;eduroam;04:bd:88:b7:a9:60;-89
1461772295038;campuswifi;04:bd:88:b7:5d:e1;-46
1461772295040;campuswifi;84:d4:7e:c0:7b:a1;-57
1461772295040;Portthru;ca:97:89:7d:68:22;-70
1461772295040;campuswifi;40:e3:d6:7a:ec:21;-90
1461772301178;eduroam;04:bd:88:b7:5d:e0;-45
1461772301178;eduroam;84:d4:7e:c0:7b:a0;-54
1461772301179;Xperia Z3 Compact_b345;84:8e:df:e7:3b:bd;-61
1461772301179;eduroam;40:e3:d6:7a:ea:a0;-66
1461772301179;eduroam;94:b4:0f:3a:8d:c0;-68
1461772301180;HTC Portable Hotspot 483E;2c:8a:72:8f:6c:90;-70
1461772301180;eduroam;04:bd:88:b7:52:20;-79
1461772301180;ApartmENT_54;00:22:07:33:b5:bf;-87
1461772301180;campuswifi;84:d4:7e:c0:7b:a1;-57
1461772301181;campuswifi;04:bd:88:b7:5d:e1;-59
1461772301181;campuswifi;40:e3:d6:7a:ea:a1;-65
1461772301181;Portthru;ca:97:89:7d:68:22;-70
1461772301181;campuswifi;04:bd:88:b7:52:21;-79
1461772302145;eduroam;04:bd:88:b7:5d:e0;-44
1461772302145;eduroam;84:d4:7e:c0:7b:a0;-57
1461772302145;Xperia Z3 Compact_b345;84:8e:df:e7:3b:bd;-61
1461772302146;eduroam;40:e3:d6:7a:ea:a0;-64
1461772302146;eduroam;04:bd:88:b7:55:00;-72
1461772302146;eduroam;04:bd:88:b7:cd:40;-75
1461772302146;eduroam;04:bd:88:b6:98:c0;-78
1461772302147;eduroam;04:bd:88:b7:52:20;-78
1461772302147;eduroam;04:bd:88:b6:96:e0;-83
1461772302147;campuswifi;04:bd:88:b7:5d:e1;-44
1461772302147;campuswifi;84:d4:7e:c0:7b:a1;-57
1461772302155;campuswifi;40:e3:d6:7a:ea:a1;-65
1461772302156;Portthru;ca:97:89:7d:68:22;-69
1461772302156;campuswifi;04:bd:88:b7:52:21;-77
1461772302156;campuswifi;04:bd:88:b6:96:e1;-84
1461772302157;campuswifi;04:bd:88:b7:55:a1;-89
1461772303166;eduroam;04:bd:88:b7:5d:e0;-44
1461772303166;eduroam;84:d4:7e:c0:7b:a0;-57
1461772303167;Xperia Z3 Compact_b345;84:8e:df:e7:3b:bd;-60
1461772303167;eduroam;94:b4:0f:3a:8d:c0;-72
1461772303167;eduroam;04:bd:88:b7:52:20;-78
1461772303167;eduroam;04:bd:88:b6:96:e0;-82
1461772303168;wololo;00:0c:f6:20:97:22;-85
1461772303168;eduroam;84:d4:7e:c0:5c:40;-88
1461772303168;S6gendonid;58:98:35:ba:cf:5d;-91
1461772303168;campuswifi;04:bd:88:b7:5d:e1;-44
1461772303169;campuswifi;84:d4:7e:c0:7b:a1;-58
1461772303169;campuswifi;40:e3:d6:7a:ea:a1;-65
1461772303169;campuswifi;94:b4:0f:3a:8d:c1;-67
1461772303169;campuswifi;04:bd:88:b7:55:01;-72
1461772303170;campuswifi;04:bd:88:b6:96:e1;-82
1461772303170;campuswifi;84:d4:7e:c0:5c:41;-90
1461772303170;campuswifi;84:d4:7e:c0:60:21;-93
1461772304128;eduroam;04:bd:88:b7:5d:e0;-44
1461772304128;eduroam;84:d4:7e:c0:7b:a0;-61
1461772304128;Xperia Z3 Compact_b345;84:8e:df:e7:3b:bd;-62
1461772304128;eduroam;40:e3:d6:7a:ea:a0;-65
1461772304129;HTC Portable Hotspot 483E;2c:8a:72:8f:6c:90;-69
1461772304129;ApartmENT_54;00:22:07:33:b5:bf;-80
1461772304130;Elion-4332BF;00:22:07:43:32:be;-95
1461772304130;campuswifi;04:bd:88:b7:5d:e1;-44
1461772304130;campuswifi;84:d4:7e:c0:7b:a1;-59
1461772304130;campuswifi;40:e3:d6:7a:ea:a1;-65
1461772304131;Portthru;ca:97:89:7d:68:22;-72
1461772304131;campuswifi;04:bd:88:b7:cd:41;-75
1461772304131;campuswifi;04:bd:88:b7:52:21;-77
1461772304131;campuswifi;04:bd:88:b6:96:e1;-81
1461772304945;eduroam;04:bd:88:b7:5d:e0;-44
1461772304945;eduroam;84:d4:7e:c0:7b:a0;-57
1461772304945;Xperia Z3 Compact_b345;84:8e:df:e7:3b:bd;-61
1461772304946;eduroam;40:e3:d6:7a:ea:a0;-65
1461772304946;HTC Portable Hotspot 483E;2c:8a:72:8f:6c:90;-70
1461772304946;eduroam;94:b4:0f:3a:8d:c0;-71
1461772304946;eduroam;04:bd:88:b7:55:00;-72
1461772304955;eduroam;04:bd:88:b7:cd:40;-77
1461772304956;eduroam;04:bd:88:b7:52:20;-80
1461772304956;eduroam;04:bd:88:b6:98:c0;-80
1461772304956;ApartmENT_54;00:22:07:33:b5:bf;-81
1461772304956;eduroam;04:bd:88:b6:96:e0;-83
1461772304957;eduroam;04:bd:88:b7:55:a0;-89
1461772304957;campuswifi;04:bd:88:b7:5d:e1;-45
1461772304957;campuswifi;84:d4:7e:c0:7b:a1;-57
1461772304957;campuswifi;40:e3:d6:7a:ea:a1;-63
1461772304958;Portthru;ca:97:89:7d:68:22;-70
1461772304958;campuswifi;04:bd:88:b7:55:01;-72
1461772304958;campuswifi;04:bd:88:b7:4c:c1;-76
1461772304958;campuswifi;40:e3:d6:7a:d5:01;-77
1461772304959;campuswifi;04:bd:88:b6:98:c1;-79
1461772304959;campuswifi;04:bd:88:b7:52:21;-79
1461772304959;campuswifi;04:bd:88:b6:96:e1;-83
1461772304959;campuswifi;04:bd:88:b7:55:a1;-91
1461772305637;eduroam;04:bd:88:b7:5d:e0;-44
1461772305637;eduroam;84:d4:7e:c0:7b:a0;-57
1461772305638;Xperia Z3 Compact_b345;84:8e:df:e7:3b:bd;-60
1461772305638;eduroam;40:e3:d6:7a:ea:a0;-64
1461772305638;eduroam;04:bd:88:b7:55:00;-72
1461772305638;eduroam;04:bd:88:b7:52:20;-79
1461772305639;eduroam;04:bd:88:b6:98:c0;-79
1461772305639;eduroam;04:bd:88:b6:96:e0;-84
1461772305639;ApartmENT_54;00:22:07:33:b5:bf;-87
1461772305639;campuswifi;04:bd:88:b7:5d:e1;-44
1461772305640;campuswifi;84:d4:7e:c0:7b:a1;-56
1461772305640;campuswifi;40:e3:d6:7a:ea:a1;-63
1461772305640;campuswifi;04:bd:88:b7:52:21;-78
1461772305640;campuswifi;04:bd:88:b6:98:c1;-81
1461772305641;campuswifi;04:bd:88:b7:55:a1;-89
1461772306516;eduroam;84:d4:7e:c0:7b:a0;-56
1461772306516;eduroam;04:bd:88:b7:5d:e0;-61
1461772306517;Xperia Z3 Compact_b345;84:8e:df:e7:3b:bd;-61
1461772306517;HTC Portable Hotspot 483E;2c:8a:72:8f:6c:90;-70
1461772306517;eduroam;04:bd:88:b7:4c:c0;-77
1461772306517;eduroam;04:bd:88:b6:98:c0;-79
1461772306518;eduroam;04:bd:88:b7:52:20;-81
1461772306518;eduroam;04:bd:88:b7:55:a0;-88
1461772306518;campuswifi;04:bd:88:b7:5d:e1;-45
1461772306518;campuswifi;84:d4:7e:c0:7b:a1;-56
1461772306519;campuswifi;40:e3:d6:7a:ea:a1;-66
1461772306519;Portthru;ca:97:89:7d:68:22;-69
1461772306519;campuswifi;04:bd:88:b7:55:01;-71
1461772306519;campuswifi;04:bd:88:b7:52:21;-77
1461772306520;campuswifi;04:bd:88:b6:98:c1;-79
1461772307232;eduroam;84:d4:7e:c0:7b:a0;-57
1461772307232;Xperia Z3 Compact_b345;84:8e:df:e7:3b:bd;-60
1461772307232;eduroam;04:bd:88:b7:5d:e0;-61
1461772307233;eduroam;40:e3:d6:7a:ea:a0;-64
1461772307233;HTC Portable Hotspot 483E;2c:8a:72:8f:6c:90;-69
1461772307233;eduroam;94:b4:0f:3a:8d:c0;-70
1461772307233;eduroam;04:bd:88:b7:cd:40;-77
1461772307234;wololo;00:0c:f6:20:97:22;-85
1461772307234;campuswifi;04:bd:88:b7:5d:e1;-44
1461772307234;campuswifi;84:d4:7e:c0:7b:a1;-56
1461772307234;Portthru;ca:97:89:7d:68:22;-67
1461772307235;campuswifi;94:b4:0f:3a:8d:c1;-69
1461772307235;campuswifi;04:bd:88:b7:cd:41;-75
1461772308109;eduroam;04:bd:88:b7:5d:e0;-44
1461772308109;eduroam;84:d4:7e:c0:7b:a0;-57
1461772308109;Xperia Z3 Compact_b345;84:8e:df:e7:3b:bd;-61
1461772308110;eduroam;40:e3:d6:7a:ea:a0;-65
1461772308110;HTC Portable Hotspot 483E;2c:8a:72:8f:6c:90;-69
1461772308110;eduroam;94:b4:0f:3a:8d:c0;-70
1461772308110;eduroam;04:bd:88:b7:cd:40;-76
1461772308111;eduroam;04:bd:88:b7:52:20;-78
1461772308111;eduroam;04:bd:88:b7:55:a0;-92
1461772308111;campuswifi;04:bd:88:b7:5d:e1;-44
1461772308111;campuswifi;84:d4:7e:c0:7b:a1;-57
1461772308112;campuswifi;40:e3:d6:7a:ea:a1;-66
1461772308112;Portthru;ca:97:89:7d:68:22;-67
1461772308113;campuswifi;04:bd:88:b7:cd:41;-76
1461772308113;campuswifi;04:bd:88:b7:52:21;-78
1461772308113;campuswifi;04:bd:88:b6:98:c1;-80
1461772308916;eduroam;04:bd:88:b7:5d:e0;-44
1461772308916;eduroam;84:d4:7e:c0:7b:a0;-57
1461772308916;Xperia Z3 Compact_b345;84:8e:df:e7:3b:bd;-61
1461772308917;HTC Portable Hotspot 483E;2c:8a:72:8f:6c:90;-66
1461772308917;eduroam;94:b4:0f:3a:8d:c0;-71
1461772308917;eduroam;04:bd:88:b7:55:00;-73
1461772308917;eduroam;04:bd:88:b7:52:20;-80
1461772308918;eduroam;04:bd:88:b6:96:e0;-85
1461772308918;eduroam;04:bd:88:b7:55:a0;-90
1461772308918;campuswifi;04:bd:88:b7:5d:e1;-45
1461772308918;campuswifi;84:d4:7e:c0:7b:a1;-57
1461772308919;campuswifi;40:e3:d6:7a:ea:a1;-64
1461772308919;Portthru;ca:97:89:7d:68:22;-67
1461772308919;campuswifi;04:bd:88:b7:55:01;-68
1461772308919;campuswifi;04:bd:88:b7:4c:c1;-75
1461772308920;campuswifi;04:bd:88:b7:52:21;-78
1461772308920;campuswifi;04:bd:88:b6:96:e1;-86
1461772309550;eduroam;04:bd:88:b7:5d:e0;-44
1461772309550;eduroam;84:d4:7e:c0:7b:a0;-56
1461772309551;Xperia Z3 Compact_b345;84:8e:df:e7:3b:bd;-61
1461772309551;eduroam;94:b4:0f:3a:8d:c0;-67
1461772309551;HTC Portable Hotspot 483E;2c:8a:72:8f:6c:90;-69
1461772309552;eduroam;04:bd:88:b7:52:20;-80
1461772309552;eduroam;04:bd:88:b6:96:e0;-87
1461772309552;Elion-44C2CF;00:22:07:44:c2:ce;-89
1461772309553;eduroam;84:d4:7e:c0:5c:40;-92
1461772309553;campuswifi;84:d4:7e:c0:7b:a1;-57
1461772309553;campuswifi;04:bd:88:b7:5d:e1;-63
1461772309553;Portthru;ca:97:89:7d:68:22;-67
1461772309554;campuswifi;94:b4:0f:3a:8d:c1;-67
1461772309554;campuswifi;04:bd:88:b7:55:01;-70
1461772309554;campuswifi;04:bd:88:b6:96:e1;-86
1461772310269;eduroam;04:bd:88:b7:5d:e0;-44
1461772310269;eduroam;84:d4:7e:c0:7b:a0;-56
1461772310269;Xperia Z3 Compact_b345;84:8e:df:e7:3b:bd;-61
1461772310270;eduroam;40:e3:d6:7a:ea:a0;-65
1461772310270;eduroam;04:bd:88:b7:52:20;-78
1461772310270;eduroam;40:e3:d6:7a:d5:00;-85
1461772310270;campuswifi;04:bd:88:b7:5d:e1;-44
1461772310271;campuswifi;84:d4:7e:c0:7b:a1;-55
1461772310271;campuswifi;40:e3:d6:7a:ea:a1;-65
1461772310271;Portthru;ca:97:89:7d:68:22;-67
1461772310272;campuswifi;04:bd:88:b7:55:01;-70
1461772310272;campuswifi;40:e3:d6:7a:d5:01;-82
1461772310272;campuswifi;04:bd:88:b7:59:c1;-90
1461772311198;eduroam;04:bd:88:b7:5d:e0;-44
1461772311198;eduroam;84:d4:7e:c0:7b:a0;-56
1461772311199;Xperia Z3 Compact_b345;84:8e:df:e7:3b:bd;-62
1461772311199;eduroam;40:e3:d6:7a:ea:a0;-63
1461772311199;HTC Portable Hotspot 483E;2c:8a:72:8f:6c:90;-70
1461772311200;eduroam;04:bd:88:b7:55:00;-71
1461772311200;eduroam;04:bd:88:b7:4c:c0;-74
1461772311200;eduroam;04:bd:88:b7:52:20;-76
1461772311200;eduroam;04:bd:88:b7:cd:40;-77
1461772311201;campuswifi;04:bd:88:b7:5d:e1;-44
1461772311201;campuswifi;84:d4:7e:c0:7b:a1;-55
1461772311201;campuswifi;40:e3:d6:7a:ea:a1;-63
1461772311201;Portthru;ca:97:89:7d:68:22;-69
1461772311202;campuswifi;04:bd:88:b7:4c:c1;-74
1461772311202;campuswifi;04:bd:88:b7:cd:41;-76
1461772311204;campuswifi;04:bd:88:b7:52:21;-78
1461772311204;campuswifi;04:bd:88:b7:55:a1;-90
1461772311917;eduroam;04:bd:88:b7:5d:e0;-44
1461772311918;eduroam;84:d4:7e:c0:7b:a0;-56
1461772311919;Xperia Z3 Compact_b345;84:8e:df:e7:3b:bd;-61
1461772311920;eduroam;40:e3:d6:7a:ea:a0;-63
1461772311921;eduroam;04:bd:88:b7:cd:40;-75
1461772311923;eduroam;04:bd:88:b7:52:20;-78
1461772311924;eduroam;04:bd:88:b6:96:e0;-82
1461772311925;Elion-44C2CF;00:22:07:44:c2:ce;-89
1461772311926;campuswifi;04:bd:88:b7:5d:e1;-44
1461772311927;campuswifi;40:e3:d6:7a:ea:a1;-61
1461772311928;campuswifi;04:bd:88:b7:52:21;-80
1461772311929;campuswifi;04:bd:88:b6:96:e1;-82
1461772312765;eduroam;04:bd:88:b7:5d:e0;-44
1461772312765;eduroam;84:d4:7e:c0:7b:a0;-57
1461772312765;Xperia Z3 Compact_b345;84:8e:df:e7:3b:bd;-61
1461772312766;eduroam;40:e3:d6:7a:ea:a0;-66
1461772312766;eduroam;04:bd:88:b7:55:00;-72
1461772312766;eduroam;04:bd:88:b7:cd:40;-75
1461772312766;eduroam;04:bd:88:b7:4c:c0;-77
1461772312767;eduroam;04:bd:88:b7:52:20;-78
1461772312767;eduroam;04:bd:88:b6:96:e0;-81
1461772312767;Elion-44C2CF;00:22:07:44:c2:ce;-89
1461772312767;campuswifi;04:bd:88:b7:5d:e1;-44
1461772312768;campuswifi;84:d4:7e:c0:7b:a1;-57
1461772312768;campuswifi;40:e3:d6:7a:ea:a1;-67
1461772312768;campuswifi;04:bd:88:b7:55:01;-70
1461772312768;campuswifi;94:b4:0f:3a:8d:c1;-72
1461772312769;campuswifi;04:bd:88:b7:4c:c1;-74
1461772312769;campuswifi;04:bd:88:b7:cd:41;-75
1461772312769;campuswifi;04:bd:88:b7:52:21;-78
1461772312769;campuswifi;04:bd:88:b6:96:e1;-81
1461772312770;campuswifi;40:e3:d6:7a:ec:21;-90
1461772313487;eduroam;04:bd:88:b7:5d:e0;-44
1461772313488;eduroam;84:d4:7e:c0:7b:a0;-57
1461772313488;Xperia Z3 Compact_b345;84:8e:df:e7:3b:bd;-62
1461772313488;eduroam;40:e3:d6:7a:ea:a0;-67
1461772313488;eduroam;04:bd:88:b7:55:00;-72
1461772313489;eduroam;04:bd:88:b7:cd:40;-75
1461772313489;eduroam;04:bd:88:b7:52:20;-77
1461772313489;eduroam;04:bd:88:b6:98:c0;-80
1461772313490;eduroam;04:bd:88:b6:96:e0;-81
1461772313490;Elion-44C2CF;00:22:07:44:c2:ce;-90
1461772313490;campuswifi;04:bd:88:b7:5d:e1;-53
1461772313490;campuswifi;84:d4:7e:c0:7b:a1;-57
1461772313491;campuswifi;40:e3:d6:7a:ea:a1;-65
1461772313491;Portthru;ca:97:89:7d:68:22;-69
1461772313491;campuswifi;40:e3:d6:7a:d5:01;-73
1461772313491;campuswifi;04:bd:88:b7:cd:41;-75
1461772313492;campuswifi;04:bd:88:b7:52:21;-77
1461772313492;campuswifi;04:bd:88:b6:98:c1;-79
1461772313492;campuswifi;04:bd:88:b6:96:e1;-80
1461772313499;campuswifi;04:bd:88:b7:55:a1;-90
1461772314274;eduroam;04:bd:88:b7:5d:e0;-44
1461772314274;eduroam;84:d4:7e:c0:7b:a0;-57
1461772314275;Xperia Z3 Compact_b345;84:8e:df:e7:3b:bd;-62
1461772314275;eduroam;40:e3:d6:7a:ea:a0;-65
1461772314275;eduroam;40:e3:d6:7a:d5:00;-66
1461772314275;HTC Portable Hotspot 483E;2c:8a:72:8f:6c:90;-69
1461772314276;eduroam;04:bd:88:b7:55:00;-73
1461772314276;eduroam;04:bd:88:b6:96:e0;-79
1461772314276;Elion-44C2CF;00:22:07:44:c2:ce;-87
1461772314276;campuswifi;04:bd:88:b7:5d:e1;-44
1461772314277;campuswifi;84:d4:7e:c0:7b:a1;-57
1461772314277;campuswifi;40:e3:d6:7a:d5:01;-66
1461772314277;campuswifi;94:b4:0f:3a:8d:c1;-72
1461772314277;campuswifi;04:bd:88:b6:96:e1;-77
1461772314995;eduroam;04:bd:88:b7:5d:e0;-44
1461772314996;Xperia Z3 Compact_b345;84:8e:df:e7:3b:bd;-61
1461772314996;eduroam;84:d4:7e:c0:7b:a0;-63
1461772314996;eduroam;40:e3:d6:7a:ea:a0;-66
1461772314996;HTC Portable Hotspot 483E;2c:8a:72:8f:6c:90;-69
1461772314997;eduroam;04:bd:88:b7:55:00;-71
1461772314997;eduroam;04:bd:88:b7:cd:40;-77
1461772314997;eduroam;04:bd:88:b6:96:e0;-77
1461772314997;campuswifi;04:bd:88:b7:5d:e1;-44
1461772314998;campuswifi;84:d4:7e:c0:7b:a1;-62
1461772314998;campuswifi;40:e3:d6:7a:d5:01;-66
1461772314998;campuswifi;40:e3:d6:7a:ea:a1;-66
1461772314998;campuswifi;94:b4:0f:3a:8d:c1;-69
1461772314999;campuswifi;04:bd:88:b7:55:01;-73
1461772314999;Portthru;ca:97:89:7d:68:22;-73
1461772314999;campuswifi;04:bd:88:b7:cd:41;-75
1461772314999;campuswifi;04:bd:88:b7:4c:c1;-82
1461772315714;eduroam;04:bd:88:b7:5d:e0;-44
1461772315714;Xperia Z3 Compact_b345;84:8e:df:e7:3b:bd;-62
1461772315714;eduroam;94:b4:0f:3a:8d:c0;-68
1461772315715;eduroam;84:d4:7e:c0:7b:a0;-68
1461772315715;eduroam;40:e3:d6:7a:d5:00;-69
1461772315715;eduroam;04:bd:88:b7:55:00;-72
1461772315716;eduroam;04:bd:88:b7:cd:40;-76
1461772315716;eduroam;04:bd:88:b6:96:e0;-78
1461772315716;campuswifi;04:bd:88:b7:5d:e1;-44
1461772315716;campuswifi;84:d4:7e:c0:7b:a1;-62
1461772315717;campuswifi;40:e3:d6:7a:ea:a1;-63
1461772315717;campuswifi;94:b4:0f:3a:8d:c1;-67
1461772315717;campuswifi;40:e3:d6:7a:d5:01;-69
1461772315717;Portthru;ca:97:89:7d:68:22;-71
1461772315718;campuswifi;04:bd:88:b7:55:01;-72
1461772315718;campuswifi;04:bd:88:b7:cd:41;-75
1461772315718;campuswifi;04:bd:88:b6:96:e1;-80
1461772315718;campuswifi;04:bd:88:b7:55:a1;-90
1461772316534;eduroam;04:bd:88:b7:5d:e0;-44
1461772316534;eduroam;84:d4:7e:c0:7b:a0;-57
1461772316535;Xperia Z3 Compact_b345;84:8e:df:e7:3b:bd;-61
1461772316535;eduroam;40:e3:d6:7a:ea:a0;-65
1461772316535;eduroam;94:b4:0f:3a:8d:c0;-66
1461772316535;HTC Portable Hotspot 483E;2c:8a:72:8f:6c:90;-68
1461772316536;eduroam;04:bd:88:b7:cd:40;-76
1461772316536;ApartmENT_54;00:22:07:33:b5:bf;-93
1461772316549;campuswifi;04:bd:88:b7:5d:e1;-46
1461772316551;campuswifi;84:d4:7e:c0:7b:a1;-57
1461772316553;campuswifi;94:b4:0f:3a:8d:c1;-64
1461772316554;Portthru;ca:97:89:7d:68:22;-71
1461772316554;campuswifi;04:bd:88:b7:cd:41;-75
1461772316554;campuswifi;04:bd:88:b6:96:e1;-80
1461772316554;campuswifi;04:bd:88:b7:55:a1;-89
1461772317258;eduroam;04:bd:88:b7:5d:e0;-44
1461772317258;eduroam;84:d4:7e:c0:7b:a0;-56
1461772317258;Xperia Z3 Compact_b345;84:8e:df:e7:3b:bd;-61
1461772317258;eduroam;94:b4:0f:3a:8d:c0;-66
1461772317259;HTC Portable Hotspot 483E;2c:8a:72:8f:6c:90;-69
1461772317259;eduroam;04:bd:88:b7:52:20;-84
1461772317259;Elion-44C2CF;00:22:07:44:c2:ce;-89
1461772317260;eduroam;04:bd:88:b7:55:a0;-89
1461772317260;campuswifi;84:d4:7e:c0:7b:a1;-56
1461772317260;campuswifi;40:e3:d6:7a:ea:a1;-64
1461772317260;campuswifi;94:b4:0f:3a:8d:c1;-65
1461772317260;Portthru;ca:97:89:7d:68:22;-71
1461772317261;campuswifi;40:e3:d6:7a:d5:01;-74
1461772317261;campuswifi;04:bd:88:b6:96:e1;-84
1461772317261;campuswifi;04:bd:88:b7:55:a1;-89
1461772318025;eduroam;04:bd:88:b7:5d:e0;-44
1461772318025;eduroam;84:d4:7e:c0:7b:a0;-56
1461772318025;Xperia Z3 Compact_b345;84:8e:df:e7:3b:bd;-61
1461772318026;eduroam;40:e3:d6:7a:ea:a0;-66
1461772318026;eduroam;04:bd:88:b6:96:e0;-81
1461772318026;campuswifi;04:bd:88:b7:5d:e1;-45
1461772318026;campuswifi;84:d4:7e:c0:7b:a1;-56
1461772318027;campuswifi;94:b4:0f:3a:8d:c1;-66
1461772318027;campuswifi;40:e3:d6:7a:ea:a1;-66
1461772318027;Portthru;ca:97:89:7d:68:22;-70
1461772318027;campuswifi;04:bd:88:b6:96:e1;-81
1461772318880;eduroam;04:bd:88:b7:5d:e0;-44
1461772318881;eduroam;84:d4:7e:c0:7b:a0;-58
1461772318881;Xperia Z3 Compact_b345;84:8e:df:e7:3b:bd;-60
1461772318881;HTC Portable Hotspot 483E;2c:8a:72:8f:6c:90;-66
1461772318881;eduroam;40:e3:d6:7a:d5:00;-69
1461772318882;eduroam;04:bd:88:b7:52:20;-81
1461772318882;eduroam;04:bd:88:b6:96:e0;-82
1461772318882;campuswifi;84:d4:7e:c0:7b:a1;-57
1461772318886;campuswifi;04:bd:88:b7:5d:e1;-63
1461772318887;campuswifi;40:e3:d6:7a:ea:a1;-65
1461772318887;Portthru;ca:97:89:7d:68:22;-70
1461772318887;campuswifi;04:bd:88:b7:cd:41;-73
1461772318887;campuswifi;04:bd:88:b6:96:e1;-80
1461772318888;campuswifi;04:bd:88:b7:52:21;-81
1461772319645;eduroam;04:bd:88:b7:5d:e0;-44
1461772319645;eduroam;84:d4:7e:c0:7b:a0;-57
1461772319645;Xperia Z3 Compact_b345;84:8e:df:e7:3b:bd;-59
1461772319646;eduroam;94:b4:0f:3a:8d:c0;-65
1461772319647;eduroam;04:bd:88:b7:55:00;-71
1461772319647;eduroam;04:bd:88:b6:96:e0;-81
1461772319647;eduroam;04:bd:88:b7:52:20;-82
1461772319647;eduroam;04:bd:88:b7:55:a0;-89
1461772319648;campuswifi;04:bd:88:b7:5d:e1;-45
1461772319648;campuswifi;84:d4:7e:c0:7b:a1;-57
1461772319648;Portthru;ca:97:89:7d:68:22;-64
1461772319648;campuswifi;04:bd:88:b7:55:01;-71
1461772319649;campuswifi;04:bd:88:b6:96:e1;-80
1461772319649;campuswifi;04:bd:88:b7:4c:c1;-80
1461772319649;campuswifi;04:bd:88:b7:52:21;-84
1461772319649;campuswifi;04:bd:88:b7:55:a1;-88
