1461772337003;eduroam;04:bd:88:b7:5d:e0;-45
1461772337003;eduroam;94:b4:0f:3a:8d:c0;-58
1461772337004;eduroam;84:d4:7e:c0:7b:a0;-58
1461772337006;Xperia Z3 Compact_b345;84:8e:df:e7:3b:bd;-64
1461772337006;eduroam;40:e3:d6:7a:ea:a0;-74
1461772337007;eduroam;04:bd:88:b7:52:20;-75
1461772337008;eduroam;40:e3:d6:7a:f2:00;-94
1461772337008;campuswifi;04:bd:88:b7:5d:e1;-58
1461772337009;campuswifi;84:d4:7e:c0:7b:a1;-58
1461772337010;campuswifi;94:b4:0f:3a:8d:c1;-58
1461772337012;campuswifi;04:bd:88:b6:98:c1;-72
1461772337012;Portthru;ca:97:89:7d:68:22;-72
1461772337013;campuswifi;04:bd:88:b7:52:21;-74
1461772337014;campuswifi;04:bd:88:b6:96:e1;-83
1461772337689;Xperia Z3 Compact_b345;84:8e:df:e7:3b:bd;-55
1461772337689;eduroam;04:bd:88:b7:5d:e0;-57
1461772337689;eduroam;94:b4:0f:3a:8d:c0;-61
1461772337690;eduroam;84:d4:7e:c0:7b:a0;-64
1461772337690;eduroam;40:e3:d6:7a:ea:a0;-70
1461772337690;eduroam;04:bd:88:b7:52:20;-81
1461772337691;eduroam;04:bd:88:b6:96:e0;-83
1461772337691;campuswifi;04:bd:88:b7:5d:e1;-60
1461772337691;campuswifi;94:b4:0f:3a:8d:c1;-61
1461772337692;campuswifi;84:d4:7e:c0:7b:a1;-64
1461772337692;Portthru;ca:97:89:7d:68:22;-72
1461772337696;campuswifi;04:bd:88:b7:52:21;-80
1461772337697;campuswifi;04:bd:88:b6:96:e1;-83
1461772338310;eduroam;04:bd:88:b7:5d:e0;-51
1461772338311;Xperia Z3 Compact_b345;84:8e:df:e7:3b:bd;-55
1461772338311;eduroam;94:b4:0f:3a:8d:c0;-59
1461772338311;eduroam;84:d4:7e:c0:7b:a0;-63
1461772338312;eduroam;40:e3:d6:7a:ea:a0;-68
1461772338312;eduroam;04:bd:88:b7:4c:c0;-72
1461772338326;eduroam;40:e3:d6:7a:d5:00;-75
1461772338327;campuswifi;04:bd:88:b7:5d:e1;-51
1461772338327;campuswifi;94:b4:0f:3a:8d:c1;-59
1461772338328;campuswifi;84:d4:7e:c0:7b:a1;-63
1461772338328;campuswifi;40:e3:d6:7a:ea:a1;-65
1461772338328;Portthru;ca:97:89:7d:68:22;-72
1461772338328;campuswifi;04:bd:88:b7:4c:c1;-72
1461772338329;campuswifi;04:bd:88:b7:cd:41;-73
1461772339196;eduroam;04:bd:88:b7:5d:e0;-44
1461772339196;Xperia Z3 Compact_b345;84:8e:df:e7:3b:bd;-57
1461772339196;eduroam;94:b4:0f:3a:8d:c0;-58
1461772339197;eduroam;40:e3:d6:7a:ea:a0;-64
1461772339197;eduroam;84:d4:7e:c0:7b:a0;-65
1461772339197;eduroam;40:e3:d6:7a:d5:00;-68
1461772339198;eduroam;04:bd:88:b7:cd:40;-70
1461772339198;eduroam;04:bd:88:b6:98:c0;-78
1461772339198;S6gendonid;58:98:35:ba:cf:5d;-89
1461772339199;campuswifi;04:bd:88:b7:5d:e1;-45
1461772339199;campuswifi;94:b4:0f:3a:8d:c1;-60
1461772339199;campuswifi;40:e3:d6:7a:ea:a1;-62
1461772339199;campuswifi;84:d4:7e:c0:7b:a1;-64
1461772339200;campuswifi;40:e3:d6:7a:d5:01;-67
1461772339200;campuswifi;04:bd:88:b7:cd:41;-71
1461772339200;Portthru;ca:97:89:7d:68:22;-72
1461772339201;campuswifi;04:bd:88:b6:98:c1;-72
1461772339201;campuswifi;04:bd:88:b6:96:e1;-83
1461772339971;eduroam;94:b4:0f:3a:8d:c0;-55
1461772339974;Xperia Z3 Compact_b345;84:8e:df:e7:3b:bd;-57
1461772339976;eduroam;04:bd:88:b7:5d:e0;-57
1461772339978;eduroam;84:d4:7e:c0:7b:a0;-66
1461772339980;HTC Portable Hotspot 483E;2c:8a:72:8f:6c:90;-68
1461772339981;eduroam;40:e3:d6:7a:d5:00;-70
1461772339982;eduroam;04:bd:88:b7:4c:c0;-71
1461772339982;eduroam;04:bd:88:b7:52:20;-79
1461772339983;eduroam;04:bd:88:b7:56:00;-89
1461772339984;campuswifi;94:b4:0f:3a:8d:c1;-52
1461772339984;campuswifi;04:bd:88:b7:5d:e1;-56
1461772339985;Portthru;ca:97:89:7d:68:22;-67
1461772339985;campuswifi;84:d4:7e:c0:7b:a1;-67
1461772339986;campuswifi;40:e3:d6:7a:d5:01;-70
1461772339986;campuswifi;04:bd:88:b7:52:21;-77
1461772340713;eduroam;04:bd:88:b7:5d:e0;-49
1461772340714;eduroam;94:b4:0f:3a:8d:c0;-56
1461772340714;eduroam;84:d4:7e:c0:7b:a0;-61
1461772340714;Xperia Z3 Compact_b345;84:8e:df:e7:3b:bd;-63
1461772340715;HTC Portable Hotspot 483E;2c:8a:72:8f:6c:90;-69
1461772340715;eduroam;04:bd:88:b7:4c:c0;-72
1461772340715;eduroam;40:e3:d6:7a:d5:00;-74
1461772340716;eduroam;04:bd:88:b7:cd:40;-74
1461772340716;eduroam;04:bd:88:b7:52:20;-77
1461772340716;eduroam;04:bd:88:b6:96:e0;-80
1461772340716;S6gendonid;58:98:35:ba:cf:5d;-93
1461772340717;campuswifi;04:bd:88:b7:5d:e1;-49
1461772340717;campuswifi;94:b4:0f:3a:8d:c1;-57
1461772340717;campuswifi;84:d4:7e:c0:7b:a1;-61
1461772340717;campuswifi;40:e3:d6:7a:ea:a1;-62
1461772340718;Portthru;ca:97:89:7d:68:22;-71
1461772340718;campuswifi;04:bd:88:b7:4c:c1;-72
1461772340718;campuswifi;04:bd:88:b7:52:21;-77
1461772341523;eduroam;04:bd:88:b7:5d:e0;-49
1461772341523;Xperia Z3 Compact_b345;84:8e:df:e7:3b:bd;-57
1461772341524;eduroam;94:b4:0f:3a:8d:c0;-59
1461772341524;eduroam;84:d4:7e:c0:7b:a0;-62
1461772341524;eduroam;40:e3:d6:7a:ea:a0;-65
1461772341525;eduroam;04:bd:88:b7:52:20;-77
1461772341525;eduroam;84:d4:7e:c0:78:e0;-87
1461772341525;campuswifi;94:b4:0f:3a:8d:c1;-59
1461772341525;campuswifi;84:d4:7e:c0:7b:a1;-61
1461772341526;campuswifi;40:e3:d6:7a:ea:a1;-62
1461772341526;campuswifi;40:e3:d6:7a:d5:01;-67
1461772341526;Portthru;ca:97:89:7d:68:22;-71
1461772341526;campuswifi;04:bd:88:b7:4c:c1;-72
1461772341530;campuswifi;04:bd:88:b7:52:21;-76
1461772341530;campuswifi;04:bd:88:b6:96:e1;-81
1461772341530;campuswifi;84:d4:7e:c0:5c:41;-89
1461772342348;eduroam;04:bd:88:b7:5d:e0;-54
1461772342348;eduroam;94:b4:0f:3a:8d:c0;-57
1461772342348;Xperia Z3 Compact_b345;84:8e:df:e7:3b:bd;-58
1461772342349;HTC Portable Hotspot 483E;2c:8a:72:8f:6c:90;-69
1461772342349;eduroam;04:bd:88:b7:cd:40;-73
1461772342349;eduroam;04:bd:88:b7:52:20;-79
1461772342349;eduroam;40:e3:d6:7a:f7:c0;-88
1461772342350;campuswifi;04:bd:88:b7:5d:e1;-55
1461772342350;campuswifi;94:b4:0f:3a:8d:c1;-57
1461772342352;campuswifi;84:d4:7e:c0:7b:a1;-61
1461772342353;campuswifi;40:e3:d6:7a:ea:a1;-66
1461772342353;Portthru;ca:97:89:7d:68:22;-71
1461772342353;campuswifi;04:bd:88:b6:98:c1;-72
1461772342354;campuswifi;04:bd:88:b7:52:21;-79
1461772342354;campuswifi;40:e3:d6:7a:f7:c1;-88
1461772342354;campuswifi;84:d4:7e:c0:5c:41;-89
1461772343038;eduroam;04:bd:88:b7:5d:e0;-54
1461772343038;eduroam;94:b4:0f:3a:8d:c0;-57
1461772343039;Xperia Z3 Compact_b345;84:8e:df:e7:3b:bd;-57
1461772343039;eduroam;84:d4:7e:c0:7b:a0;-64
1461772343039;eduroam;40:e3:d6:7a:d5:00;-69
1461772343039;eduroam;04:bd:88:b7:52:20;-79
1461772343040;eduroam;04:bd:88:b6:96:e0;-81
1461772343040;eduroam;84:d4:7e:c0:5c:40;-89
1461772343040;Elion-44C2CF;00:22:07:44:c2:ce;-93
1461772343040;campuswifi;94:b4:0f:3a:8d:c1;-57
1461772343041;campuswifi;04:bd:88:b7:5d:e1;-57
1461772343041;campuswifi;84:d4:7e:c0:7b:a1;-65
1461772343041;campuswifi;40:e3:d6:7a:d5:01;-69
1461772343041;Portthru;ca:97:89:7d:68:22;-71
1461772343042;campuswifi;04:bd:88:b7:cd:41;-72
1461772343055;campuswifi;04:bd:88:b7:52:21;-79
1461772343058;campuswifi;04:bd:88:b6:96:e1;-80
1461772343059;campuswifi;84:d4:7e:c0:5c:41;-89
1461772343911;eduroam;04:bd:88:b7:5d:e0;-54
1461772343911;eduroam;94:b4:0f:3a:8d:c0;-57
1461772343911;Xperia Z3 Compact_b345;84:8e:df:e7:3b:bd;-59
1461772343912;eduroam;84:d4:7e:c0:7b:a0;-69
1461772343912;eduroam;04:bd:88:b7:4c:c0;-70
1461772343912;eduroam;04:bd:88:b7:52:20;-78
1461772343918;eduroam;04:bd:88:b6:98:c0;-80
1461772343918;eduroam;04:bd:88:b6:96:e0;-81
1461772343919;eduroam;40:e3:d6:7a:f7:c0;-87
1461772343919;eduroam;04:bd:88:b7:a7:e0;-92
1461772343919;campuswifi;94:b4:0f:3a:8d:c1;-56
1461772343920;campuswifi;04:bd:88:b7:5d:e1;-57
1461772343920;campuswifi;84:d4:7e:c0:7b:a1;-68
1461772343920;campuswifi;04:bd:88:b7:4c:c1;-70
1461772343921;campuswifi;40:e3:d6:7a:ea:a1;-70
1461772343921;campuswifi;04:bd:88:b7:52:21;-78
1461772344684;eduroam;04:bd:88:b7:5d:e0;-54
1461772344685;Xperia Z3 Compact_b345;84:8e:df:e7:3b:bd;-57
1461772344685;eduroam;84:d4:7e:c0:7b:a0;-68
1461772344685;eduroam;04:bd:88:b7:4c:c0;-71
1461772344686;eduroam;04:bd:88:b7:52:20;-79
1461772344686;eduroam;04:bd:88:b6:98:c0;-80
1461772344686;eduroam;04:bd:88:b6:96:e0;-83
1461772344686;campuswifi;94:b4:0f:3a:8d:c1;-56
1461772344687;campuswifi;04:bd:88:b7:5d:e1;-57
1461772344687;campuswifi;84:d4:7e:c0:7b:a1;-67
1461772344687;Portthru;ca:97:89:7d:68:22;-71
1461772344687;campuswifi;04:bd:88:b7:cd:41;-72
1461772344688;campuswifi;04:bd:88:b7:52:21;-79
1461772344688;campuswifi;04:bd:88:b6:96:e1;-82
1461772345529;Xperia Z3 Compact_b345;84:8e:df:e7:3b:bd;-57
1461772345529;eduroam;94:b4:0f:3a:8d:c0;-57
1461772345529;eduroam;04:bd:88:b7:5d:e0;-57
1461772345530;eduroam;40:e3:d6:7a:ea:a0;-64
1461772345530;eduroam;84:d4:7e:c0:7b:a0;-68
1461772345530;eduroam;04:bd:88:b7:4c:c0;-71
1461772345531;eduroam;04:bd:88:b7:cd:40;-74
1461772345531;eduroam;04:bd:88:b7:52:20;-79
1461772345531;campuswifi;94:b4:0f:3a:8d:c1;-57
1461772345531;campuswifi;04:bd:88:b7:5d:e1;-57
1461772345532;campuswifi;40:e3:d6:7a:ea:a1;-66
1461772345532;campuswifi;84:d4:7e:c0:7b:a1;-67
1461772345532;campuswifi;04:bd:88:b6:98:c1;-72
1461772345536;campuswifi;04:bd:88:b7:52:21;-79
1461772346215;eduroam;04:bd:88:b7:5d:e0;-55
1461772346215;eduroam;94:b4:0f:3a:8d:c0;-56
1461772346216;Xperia Z3 Compact_b345;84:8e:df:e7:3b:bd;-56
1461772346216;wololo;00:0c:f6:20:97:22;-82
1461772346216;eduroam;84:d4:7e:c0:5c:40;-87
1461772346217;campuswifi;04:bd:88:b7:5d:e1;-55
1461772346217;campuswifi;94:b4:0f:3a:8d:c1;-57
1461772346217;campuswifi;40:e3:d6:7a:d5:01;-69
1461772346217;campuswifi;40:e3:d6:7a:ea:a1;-70
1461772346218;campuswifi;04:bd:88:b7:cd:41;-73
1461772346218;campuswifi;04:bd:88:b7:52:21;-78
1461772346218;campuswifi;84:d4:7e:c0:5c:41;-88
1461772346985;eduroam;04:bd:88:b7:5d:e0;-55
1461772346986;eduroam;94:b4:0f:3a:8d:c0;-56
1461772346986;Xperia Z3 Compact_b345;84:8e:df:e7:3b:bd;-61
1461772346986;eduroam;84:d4:7e:c0:7b:a0;-67
1461772346986;eduroam;04:bd:88:b7:4c:c0;-70
1461772346987;eduroam;40:e3:d6:7a:d5:00;-75
1461772346987;eduroam;04:bd:88:b6:98:c0;-77
1461772346987;HTC Portable Hotspot 483E;2c:8a:72:8f:6c:90;-77
1461772346987;eduroam;04:bd:88:b7:52:20;-80
1461772346988;S6gendonid;58:98:35:ba:cf:5d;-91
1461772346988;eduroam;40:e3:d6:7a:f7:c0;-91
1461772346988;campuswifi;94:b4:0f:3a:8d:c1;-56
1461772346988;campuswifi;04:bd:88:b7:5d:e1;-57
1461772346989;campuswifi;84:d4:7e:c0:7b:a1;-65
1461772346989;Portthru;ca:97:89:7d:68:22;-70
1461772346989;campuswifi;04:bd:88:b7:4c:c1;-70
1461772346989;campuswifi;04:bd:88:b7:52:21;-80
1461772346990;campuswifi;84:d4:7e:c0:5c:41;-89
1461772347695;eduroam;04:bd:88:b7:5d:e0;-55
1461772347696;Xperia Z3 Compact_b345;84:8e:df:e7:3b:bd;-58
1461772347697;eduroam;84:d4:7e:c0:7b:a0;-67
1461772347698;eduroam;40:e3:d6:7a:ea:a0;-69
1461772347710;eduroam;04:bd:88:b7:cd:40;-73
1461772347710;eduroam;04:bd:88:b7:52:20;-77
1461772347710;eduroam;84:d4:7e:c0:5c:40;-88
1461772347710;eduroam;84:d4:7e:c0:78:e0;-89
1461772347711;campuswifi;94:b4:0f:3a:8d:c1;-57
1461772347711;campuswifi;04:bd:88:b7:5d:e1;-60
1461772347711;campuswifi;84:d4:7e:c0:7b:a1;-66
1461772347712;campuswifi;40:e3:d6:7a:ea:a1;-67
1461772347740;campuswifi;04:bd:88:b7:4c:c1;-70
1461772347740;Portthru;ca:97:89:7d:68:22;-72
1461772347741;campuswifi;04:bd:88:b7:cd:41;-73
1461772347741;campuswifi;04:bd:88:b7:52:21;-78
1461772347741;campuswifi;84:d4:7e:c0:5c:41;-88
1461772347741;campuswifi;84:d4:7e:c0:78:e1;-88
1461772348487;eduroam;04:bd:88:b7:5d:e0;-52
1461772348488;eduroam;94:b4:0f:3a:8d:c0;-56
1461772348488;Xperia Z3 Compact_b345;84:8e:df:e7:3b:bd;-57
1461772348488;eduroam;84:d4:7e:c0:7b:a0;-68
1461772348488;eduroam;04:bd:88:b7:cd:40;-72
1461772348489;HTC Portable Hotspot 483E;2c:8a:72:8f:6c:90;-74
1461772348489;eduroam;04:bd:88:b7:52:20;-77
1461772348489;campuswifi;04:bd:88:b7:5d:e1;-52
1461772348489;campuswifi;94:b4:0f:3a:8d:c1;-57
1461772348490;campuswifi;40:e3:d6:7a:ea:a1;-67
1461772348490;campuswifi;84:d4:7e:c0:7b:a1;-68
1461772348490;Portthru;ca:97:89:7d:68:22;-72
1461772348490;campuswifi;04:bd:88:b7:52:21;-76
1461772349266;eduroam;04:bd:88:b7:5d:e0;-49
1461772349266;Xperia Z3 Compact_b345;84:8e:df:e7:3b:bd;-57
1461772349266;eduroam;94:b4:0f:3a:8d:c0;-57
1461772349266;eduroam;84:d4:7e:c0:7b:a0;-68
1461772349267;eduroam;40:e3:d6:7a:ea:a0;-69
1461772349267;eduroam;04:bd:88:b7:4c:c0;-71
1461772349268;HTC Portable Hotspot 483E;2c:8a:72:8f:6c:90;-74
1461772349268;eduroam;04:bd:88:b7:52:20;-78
1461772349268;eduroam;04:bd:88:b6:98:c0;-79
1461772349268;eduroam;04:bd:88:b7:55:00;-83
1461772349269;campuswifi;04:bd:88:b7:5d:e1;-50
1461772349269;campuswifi;94:b4:0f:3a:8d:c1;-57
1461772349269;campuswifi;40:e3:d6:7a:ea:a1;-64
1461772349269;campuswifi;84:d4:7e:c0:7b:a1;-67
1461772349270;campuswifi;40:e3:d6:7a:d5:01;-69
1461772349270;campuswifi;04:bd:88:b7:4c:c1;-70
1461772349270;Portthru;ca:97:89:7d:68:22;-72
1461772349270;campuswifi;04:bd:88:b7:52:21;-77
1461772349271;campuswifi;04:bd:88:b7:55:01;-82
1461772350140;eduroam;04:bd:88:b7:5d:e0;-49
1461772350140;Xperia Z3 Compact_b345;84:8e:df:e7:3b:bd;-56
1461772350140;eduroam;94:b4:0f:3a:8d:c0;-56
1461772350140;eduroam;84:d4:7e:c0:7b:a0;-67
1461772350141;eduroam;40:e3:d6:7a:ea:a0;-68
1461772350141;eduroam;04:bd:88:b7:4c:c0;-71
1461772350141;eduroam;40:e3:d6:7a:d5:00;-73
1461772350142;HTC Portable Hotspot 483E;2c:8a:72:8f:6c:90;-74
1461772350143;eduroam;04:bd:88:b7:52:20;-78
1461772350143;eduroam;04:bd:88:b6:98:c0;-79
1461772350143;campuswifi;04:bd:88:b7:5d:e1;-54
1461772350144;campuswifi;94:b4:0f:3a:8d:c1;-56
1461772350144;campuswifi;40:e3:d6:7a:ea:a1;-67
1461772350144;campuswifi;84:d4:7e:c0:7b:a1;-70
1461772350144;campuswifi;04:bd:88:b7:cd:41;-73
1461772350145;campuswifi;04:bd:88:b6:98:c1;-78
1461772350958;eduroam;94:b4:0f:3a:8d:c0;-57
1461772350958;Xperia Z3 Compact_b345;84:8e:df:e7:3b:bd;-57
1461772350958;eduroam;04:bd:88:b7:5d:e0;-61
1461772350958;eduroam;04:bd:88:b7:4c:c0;-70
1461772350959;HTC Portable Hotspot 483E;2c:8a:72:8f:6c:90;-71
1461772350959;eduroam;04:bd:88:b7:cd:40;-73
1461772350959;eduroam;04:bd:88:b7:52:20;-79
1461772350960;campuswifi;94:b4:0f:3a:8d:c1;-56
1461772350960;campuswifi;04:bd:88:b7:5d:e1;-60
1461772350960;campuswifi;04:bd:88:b7:4c:c1;-70
1461772350960;Portthru;ca:97:89:7d:68:22;-72
1461772350961;campuswifi;04:bd:88:b7:cd:41;-72
1461772350961;campuswifi;04:bd:88:b7:52:21;-79
1461772350961;campuswifi;04:bd:88:b6:96:e1;-83
1461772350961;campuswifi;84:d4:7e:c0:5c:41;-85
1461772351736;eduroam;94:b4:0f:3a:8d:c0;-56
1461772351737;Xperia Z3 Compact_b345;84:8e:df:e7:3b:bd;-58
1461772351737;eduroam;04:bd:88:b7:5d:e0;-59
1461772351737;eduroam;84:d4:7e:c0:7b:a0;-67
1461772351737;HTC Portable Hotspot 483E;2c:8a:72:8f:6c:90;-69
1461772351738;eduroam;04:bd:88:b7:52:20;-79
1461772351738;eduroam;40:e3:d6:7a:f2:00;-93
1461772351738;campuswifi;94:b4:0f:3a:8d:c1;-55
1461772351738;campuswifi;04:bd:88:b7:5d:e1;-59
1461772351739;Portthru;ca:97:89:7d:68:22;-70
1461772351739;campuswifi;04:bd:88:b7:cd:41;-72
1461772351740;campuswifi;04:bd:88:b6:96:e1;-82
1461772352484;eduroam;04:bd:88:b7:5d:e0;-54
1461772352484;eduroam;94:b4:0f:3a:8d:c0;-56
1461772352485;Xperia Z3 Compact_b345;84:8e:df:e7:3b:bd;-58
1461772352485;HTC Portable Hotspot 483E;2c:8a:72:8f:6c:90;-71
1461772352485;eduroam;04:bd:88:b7:52:20;-79
1461772352485;wololo;00:0c:f6:20:97:22;-84
1461772352486;campuswifi;04:bd:88:b7:5d:e1;-54
1461772352486;campuswifi;94:b4:0f:3a:8d:c1;-55
1461772352486;campuswifi;04:bd:88:b6:98:c1;-79
1461772353239;eduroam;04:bd:88:b7:5d:e0;-47
1461772353240;Xperia Z3 Compact_b345;84:8e:df:e7:3b:bd;-58
1461772353240;eduroam;94:b4:0f:3a:8d:c0;-59
1461772353240;eduroam;84:d4:7e:c0:7b:a0;-67
1461772353240;eduroam;40:e3:d6:7a:d5:00;-70
1461772353241;eduroam;04:bd:88:b7:52:20;-78
1461772353241;eduroam;84:d4:7e:c0:5c:40;-88
1461772353241;campuswifi;04:bd:88:b7:5d:e1;-48
1461772353242;campuswifi;94:b4:0f:3a:8d:c1;-59
1461772353242;campuswifi;84:d4:7e:c0:7b:a1;-67
1461772353242;campuswifi;40:e3:d6:7a:d5:01;-69
1461772353254;campuswifi;04:bd:88:b7:52:21;-77
1461772353255;campuswifi;84:d4:7e:c0:5c:41;-89
1461772354076;eduroam;04:bd:88:b7:5d:e0;-46
1461772354076;Xperia Z3 Compact_b345;84:8e:df:e7:3b:bd;-56
1461772354076;eduroam;94:b4:0f:3a:8d:c0;-65
1461772354077;eduroam;84:d4:7e:c0:7b:a0;-66
1461772354077;eduroam;40:e3:d6:7a:d5:00;-67
1461772354077;eduroam;04:bd:88:b7:4c:c0;-71
1461772354077;eduroam;04:bd:88:b7:cd:40;-72
1461772354078;eduroam;04:bd:88:b6:98:c0;-75
1461772354078;HTC Portable Hotspot 483E;2c:8a:72:8f:6c:90;-75
1461772354078;eduroam;04:bd:88:b7:52:20;-80
1461772354078;eduroam;04:bd:88:b7:55:a0;-94
1461772354079;campuswifi;04:bd:88:b7:5d:e1;-46
1461772354079;campuswifi;94:b4:0f:3a:8d:c1;-65
1461772354079;campuswifi;84:d4:7e:c0:7b:a1;-66
1461772354079;campuswifi;04:bd:88:b6:98:c1;-69
1461772354080;campuswifi;04:bd:88:b7:4c:c1;-71
1461772354081;campuswifi;04:bd:88:b7:cd:41;-72
1461772354081;Portthru;ca:97:89:7d:68:22;-73
1461772354083;campuswifi;04:bd:88:b7:52:21;-80
1461772354946;eduroam;04:bd:88:b7:5d:e0;-50
1461772354946;Xperia Z3 Compact_b345;84:8e:df:e7:3b:bd;-57
1461772354947;eduroam;94:b4:0f:3a:8d:c0;-58
1461772354947;eduroam;84:d4:7e:c0:7b:a0;-66
1461772354947;eduroam;04:bd:88:b7:4c:c0;-71
1461772354947;eduroam;04:bd:88:b6:98:c0;-74
1461772354948;eduroam;04:bd:88:b7:52:20;-78
1461772354948;eduroam;84:d4:7e:c0:5c:40;-89
1461772354948;campuswifi;04:bd:88:b7:5d:e1;-51
1461772354948;campuswifi;94:b4:0f:3a:8d:c1;-57
1461772354949;campuswifi;84:d4:7e:c0:7b:a1;-67
1461772354949;campuswifi;04:bd:88:b7:4c:c1;-68
1461772354949;campuswifi;40:e3:d6:7a:d5:01;-69
1461772354949;campuswifi;04:bd:88:b6:98:c1;-75
1461772354950;campuswifi;04:bd:88:b7:52:21;-79
1461772354950;Portthru;ca:97:89:7d:68:22;-81
1461772354950;campuswifi;84:d4:7e:c0:5c:41;-89
1461772355778;eduroam;04:bd:88:b7:5d:e0;-43
1461772355778;eduroam;94:b4:0f:3a:8d:c0;-57
1461772355778;Xperia Z3 Compact_b345;84:8e:df:e7:3b:bd;-58
1461772355779;eduroam;84:d4:7e:c0:7b:a0;-61
1461772355779;HTC Portable Hotspot 483E;2c:8a:72:8f:6c:90;-70
1461772355779;eduroam;40:e3:d6:7a:d5:00;-71
1461772355779;eduroam;04:bd:88:b7:cd:40;-72
1461772355780;eduroam;04:bd:88:b6:98:c0;-74
1461772355780;eduroam;04:bd:88:b7:52:20;-76
1461772355780;Elion-49050D;00:22:07:49:05:0c;-91
1461772355797;campuswifi;04:bd:88:b7:5d:e1;-43
1461772355798;campuswifi;94:b4:0f:3a:8d:c1;-57
1461772355798;campuswifi;84:d4:7e:c0:7b:a1;-61
1461772355798;Portthru;ca:97:89:7d:68:22;-65
1461772355799;campuswifi;04:bd:88:b7:cd:41;-72
1461772355799;campuswifi;40:e3:d6:7a:d5:01;-72
1461772355799;campuswifi;04:bd:88:b6:98:c1;-75
1461772355799;campuswifi;04:bd:88:b7:52:21;-76
1461772356575;eduroam;04:bd:88:b7:5d:e0;-48
1461772356576;eduroam;94:b4:0f:3a:8d:c0;-56
1461772356576;eduroam;84:d4:7e:c0:7b:a0;-59
1461772356576;Xperia Z3 Compact_b345;84:8e:df:e7:3b:bd;-62
1461772356577;eduroam;40:e3:d6:7a:d5:00;-72
1461772356577;eduroam;04:bd:88:b7:52:20;-77
1461772356577;eduroam;40:e3:d6:7a:ea:a0;-77
1461772356603;campuswifi;04:bd:88:b7:5d:e1;-48
1461772356604;campuswifi;94:b4:0f:3a:8d:c1;-57
1461772356604;campuswifi;84:d4:7e:c0:7b:a1;-59
1461772356604;Portthru;ca:97:89:7d:68:22;-67
1461772356605;campuswifi;40:e3:d6:7a:d5:01;-76
1461772356605;campuswifi;04:bd:88:b7:52:21;-77
1461772356605;campuswifi;40:e3:d6:7a:ec:21;-85
1461772357433;eduroam;04:bd:88:b7:5d:e0;-55
1461772357433;eduroam;94:b4:0f:3a:8d:c0;-55
1461772357434;Xperia Z3 Compact_b345;84:8e:df:e7:3b:bd;-59
1461772357434;HTC Portable Hotspot 483E;2c:8a:72:8f:6c:90;-70
1461772357434;eduroam;40:e3:d6:7a:ea:a0;-70
1461772357435;eduroam;04:bd:88:b6:98:c0;-74
1461772357435;eduroam;04:bd:88:b7:cd:40;-77
1461772357435;eduroam;40:e3:d6:7a:d5:00;-78
1461772357435;eduroam;04:bd:88:b7:52:20;-78
1461772357436;eduroam;84:d4:7e:c0:5c:40;-88
1461772357436;eduroam;84:d4:7e:c0:78:e0;-88
1461772357436;eduroam;04:bd:88:b7:a9:60;-88
1461772357437;eduroam;04:bd:88:b7:55:a0;-90
1461772357437;eduroam;40:e3:d6:7a:f7:c0;-91
1461772357437;S6gendonid;58:98:35:ba:cf:5d;-91
1461772357437;campuswifi;04:bd:88:b7:5d:e1;-55
1461772357438;campuswifi;94:b4:0f:3a:8d:c1;-57
1461772357438;campuswifi;84:d4:7e:c0:7b:a1;-65
1461772357438;Portthru;ca:97:89:7d:68:22;-67
1461772357438;campuswifi;04:bd:88:b7:4c:c1;-69
1461772357439;campuswifi;40:e3:d6:7a:d5:01;-76
1461772357439;campuswifi;04:bd:88:b7:52:21;-78
1461772357439;campuswifi;84:d4:7e:c0:78:e1;-88
1461772358189;eduroam;94:b4:0f:3a:8d:c0;-55
1461772358190;eduroam;04:bd:88:b7:5d:e0;-55
1461772358190;Xperia Z3 Compact_b345;84:8e:df:e7:3b:bd;-57
1461772358190;eduroam;84:d4:7e:c0:7b:a0;-66
1461772358190;eduroam;04:bd:88:b7:4c:c0;-71
1461772358191;eduroam;04:bd:88:b6:98:c0;-75
1461772358191;eduroam;04:bd:88:b7:52:20;-77
1461772358191;eduroam;04:bd:88:b7:55:00;-84
1461772358192;campuswifi;94:b4:0f:3a:8d:c1;-57
1461772358192;campuswifi;84:d4:7e:c0:7b:a1;-65
1461772358193;campuswifi;04:bd:88:b7:4c:c1;-69
1461772358193;Portthru;ca:97:89:7d:68:22;-75
1461772358193;campuswifi;04:bd:88:b7:52:21;-77
1461772358194;campuswifi;04:bd:88:b7:55:01;-84
1461772358194;campuswifi;04:bd:88:b6:96:e1;-85
1461772358964;Xperia Z3 Compact_b345;84:8e:df:e7:3b:bd;-56
1461772358965;eduroam;94:b4:0f:3a:8d:c0;-57
1461772358965;eduroam;04:bd:88:b7:5d:e0;-61
1461772358965;eduroam;40:e3:d6:7a:ea:a0;-71
1461772358965;eduroam;04:bd:88:b7:cd:40;-73
1461772358966;HTC Portable Hotspot 483E;2c:8a:72:8f:6c:90;-74
1461772358966;eduroam;04:bd:88:b7:4c:c0;-74
1461772358966;eduroam;04:bd:88:b6:98:c0;-75
1461772358966;eduroam;04:bd:88:b7:52:20;-77
1461772358967;eduroam;40:e3:d6:7a:f2:00;-93
1461772358967;RistoKukk;14:cc:20:b2:e6:3e;-93
1461772358967;campuswifi;94:b4:0f:3a:8d:c1;-57
1461772358967;campuswifi;04:bd:88:b7:5d:e1;-62
1461772358968;campuswifi;04:bd:88:b7:cd:41;-73
1461772358968;campuswifi;04:bd:88:b6:98:c1;-75
1461772358968;Portthru;ca:97:89:7d:68:22;-75
1461772358968;campuswifi;04:bd:88:b7:52:21;-76
1461772359726;eduroam;94:b4:0f:3a:8d:c0;-57
1461772359726;Xperia Z3 Compact_b345;84:8e:df:e7:3b:bd;-57
1461772359726;eduroam;04:bd:88:b7:5d:e0;-61
1461772359727;eduroam;84:d4:7e:c0:7b:a0;-66
1461772359727;HTC Portable Hotspot 483E;2c:8a:72:8f:6c:90;-77
1461772359727;eduroam;04:bd:88:b7:52:20;-78
1461772359727;wololo;00:0c:f6:20:97:22;-85
1461772359728;campuswifi;84:d4:7e:c0:7b:a1;-64
1461772359728;campuswifi;04:bd:88:b7:4c:c1;-70
1461772359728;Portthru;ca:97:89:7d:68:22;-72
1461772359728;campuswifi;04:bd:88:b7:52:21;-79
1461772360480;eduroam;94:b4:0f:3a:8d:c0;-57
1461772360481;eduroam;04:bd:88:b7:5d:e0;-58
1461772360481;Xperia Z3 Compact_b345;84:8e:df:e7:3b:bd;-58
1461772360481;eduroam;84:d4:7e:c0:7b:a0;-67
1461772360482;eduroam;40:e3:d6:7a:ea:a0;-71
1461772360482;eduroam;04:bd:88:b7:cd:40;-75
1461772360482;HTC Portable Hotspot 483E;2c:8a:72:8f:6c:90;-75
1461772360484;eduroam;04:bd:88:b6:98:c0;-75
1461772360484;eduroam;04:bd:88:b7:52:20;-78
1461772360484;eduroam;40:e3:d6:7a:d5:00;-80
1461772360484;eduroam;84:d4:7e:c0:5c:40;-90
1461772360485;S6gendonid;58:98:35:ba:cf:5d;-91
1461772360485;eduroam;04:bd:88:b7:55:a0;-91
1461772360485;campuswifi;94:b4:0f:3a:8d:c1;-57
1461772360486;campuswifi;04:bd:88:b7:5d:e1;-59
1461772360486;campuswifi;84:d4:7e:c0:7b:a1;-64
1461772360486;Portthru;ca:97:89:7d:68:22;-66
1461772360486;campuswifi;04:bd:88:b7:cd:41;-73
1461772360487;campuswifi;04:bd:88:b6:98:c1;-75
1461772360487;campuswifi;40:e3:d6:7a:d5:01;-76
1461772360487;campuswifi;04:bd:88:b7:52:21;-77
1461772360487;campuswifi;84:d4:7e:c0:5c:41;-90
1461772361127;eduroam;04:bd:88:b7:5d:e0;-55
1461772361128;eduroam;94:b4:0f:3a:8d:c0;-57
1461772361130;Xperia Z3 Compact_b345;84:8e:df:e7:3b:bd;-58
1461772361131;eduroam;04:bd:88:b7:4c:c0;-70
1461772361132;eduroam;40:e3:d6:7a:ea:a0;-71
1461772361151;HTC Portable Hotspot 483E;2c:8a:72:8f:6c:90;-74
1461772361151;eduroam;04:bd:88:b7:52:20;-77
1461772361151;campuswifi;94:b4:0f:3a:8d:c1;-57
1461772361151;campuswifi;04:bd:88:b7:5d:e1;-58
1461772361152;campuswifi;40:e3:d6:7a:ea:a1;-67
1461772361152;Portthru;ca:97:89:7d:68:22;-74
1461772361153;campuswifi;40:e3:d6:7a:d5:01;-76
1461772361153;campuswifi;04:bd:88:b7:52:21;-77
1461772361945;eduroam;04:bd:88:b7:5d:e0;-53
1461772361945;eduroam;94:b4:0f:3a:8d:c0;-57
1461772361945;Xperia Z3 Compact_b345;84:8e:df:e7:3b:bd;-59
1461772361945;eduroam;84:d4:7e:c0:7b:a0;-67
1461772361946;eduroam;40:e3:d6:7a:ea:a0;-70
1461772361946;HTC Portable Hotspot 483E;2c:8a:72:8f:6c:90;-73
1461772361946;eduroam;04:bd:88:b6:98:c0;-77
1461772361946;eduroam;04:bd:88:b7:52:20;-79
1461772361947;S6gendonid;58:98:35:ba:cf:5d;-91
1461772361947;campuswifi;04:bd:88:b7:5d:e1;-53
1461772361947;campuswifi;94:b4:0f:3a:8d:c1;-57
1461772361947;campuswifi;84:d4:7e:c0:7b:a1;-67
1461772361948;campuswifi;40:e3:d6:7a:ea:a1;-70
1461772361948;campuswifi;04:bd:88:b7:cd:41;-74
1461772361948;Portthru;ca:97:89:7d:68:22;-74
1461772361948;campuswifi;04:bd:88:b6:98:c1;-76
1461772361949;campuswifi;04:bd:88:b7:52:21;-79
1461772361949;campuswifi;04:bd:88:b7:a9:61;-89
1461772361949;campuswifi;84:d4:7e:c0:5c:41;-89
1461772361949;campuswifi;40:e3:d6:7a:f2:01;-94
1461772362715;eduroam;04:bd:88:b7:5d:e0;-53
1461772362715;eduroam;94:b4:0f:3a:8d:c0;-57
1461772362716;Xperia Z3 Compact_b345;84:8e:df:e7:3b:bd;-57
1461772362716;eduroam;84:d4:7e:c0:7b:a0;-66
1461772362716;eduroam;40:e3:d6:7a:ea:a0;-69
1461772362716;HTC Portable Hotspot 483E;2c:8a:72:8f:6c:90;-73
1461772362717;eduroam;40:e3:d6:7a:d5:00;-78
1461772362717;eduroam;04:bd:88:b7:52:20;-79
1461772362717;eduroam;04:bd:88:b7:a9:60;-89
1461772362718;campuswifi;04:bd:88:b7:5d:e1;-53
1461772362718;campuswifi;94:b4:0f:3a:8d:c1;-57
1461772362718;campuswifi;04:bd:88:b7:cd:41;-73
1461772362718;Portthru;ca:97:89:7d:68:22;-74
1461772362718;campuswifi;04:bd:88:b7:52:21;-80
1461772363501;eduroam;04:bd:88:b7:5d:e0;-53
1461772363508;Xperia Z3 Compact_b345;84:8e:df:e7:3b:bd;-57
1461772363508;eduroam;04:bd:88:b7:4c:c0;-71
1461772363508;HTC Portable Hotspot 483E;2c:8a:72:8f:6c:90;-73
1461772363509;eduroam;04:bd:88:b7:52:20;-77
1461772363509;eduroam;04:bd:88:b6:98:c0;-77
1461772363509;Prii38;00:26:44:04:bd:3f;-91
1461772363510;S6gendonid;58:98:35:ba:cf:5d;-92
1461772363510;campuswifi;84:d4:7e:c0:7b:a1;-66
1461772363510;campuswifi;04:bd:88:b7:4c:c1;-70
1461772363511;Portthru;ca:97:89:7d:68:22;-75
1461772363511;campuswifi;04:bd:88:b7:52:21;-77
1461772363511;campuswifi;04:bd:88:b6:96:e1;-85
1461772364324;eduroam;04:bd:88:b7:5d:e0;-55
1461772364325;eduroam;94:b4:0f:3a:8d:c0;-57
1461772364325;Xperia Z3 Compact_b345;84:8e:df:e7:3b:bd;-58
1461772364325;eduroam;04:bd:88:b7:4c:c0;-68
1461772364325;eduroam;84:d4:7e:c0:7b:a0;-69
1461772364326;eduroam;40:e3:d6:7a:ea:a0;-71
1461772364326;eduroam;40:e3:d6:7a:d5:00;-74
1461772364326;eduroam;04:bd:88:b7:52:20;-79
1461772364326;wololo;00:0c:f6:20:97:22;-84
1461772364327;eduroam;84:d4:7e:c0:5c:40;-90
1461772364327;campuswifi;04:bd:88:b7:5d:e1;-55
1461772364327;campuswifi;94:b4:0f:3a:8d:c1;-57
1461772364327;Portthru;ca:97:89:7d:68:22;-68
1461772364328;campuswifi;84:d4:7e:c0:7b:a1;-69
1461772364328;campuswifi;04:bd:88:b7:4c:c1;-69
1461772364328;campuswifi;04:bd:88:b7:cd:41;-73
1461772364328;campuswifi;40:e3:d6:7a:d5:01;-77
1461772364329;campuswifi;04:bd:88:b7:52:21;-78
1461772365146;eduroam;04:bd:88:b7:5d:e0;-52
1461772365147;eduroam;94:b4:0f:3a:8d:c0;-57
1461772365147;Xperia Z3 Compact_b345;84:8e:df:e7:3b:bd;-58
1461772365147;eduroam;84:d4:7e:c0:7b:a0;-65
1461772365148;eduroam;40:e3:d6:7a:d5:00;-73
1461772365148;eduroam;04:bd:88:b7:cd:40;-75
1461772365148;eduroam;04:bd:88:b7:52:20;-77
1461772365148;wololo;00:0c:f6:20:97:22;-83
1461772365149;eduroam;84:d4:7e:c0:5c:40;-88
1461772365149;eduroam;40:e3:d6:7a:f7:c0;-90
1461772365149;Elion-44C2CF;00:22:07:44:c2:ce;-93
1461772365149;Elion-4332BF;00:22:07:43:32:be;-95
1461772365153;campuswifi;04:bd:88:b7:5d:e1;-49
1461772365153;campuswifi;94:b4:0f:3a:8d:c1;-57
1461772365154;campuswifi;84:d4:7e:c0:7b:a1;-63
1461772365154;Portthru;ca:97:89:7d:68:22;-68
1461772365154;campuswifi;40:e3:d6:7a:d5:01;-73
1461772365155;campuswifi;04:bd:88:b7:cd:41;-75
1461772365155;campuswifi;04:bd:88:b7:52:21;-78
1461772365155;campuswifi;84:d4:7e:c0:5c:41;-88
1461772365937;eduroam;04:bd:88:b7:5d:e0;-50
1461772365937;eduroam;94:b4:0f:3a:8d:c0;-57
1461772365937;Xperia Z3 Compact_b345;84:8e:df:e7:3b:bd;-58
1461772365938;eduroam;84:d4:7e:c0:7b:a0;-64
1461772365938;eduroam;40:e3:d6:7a:ea:a0;-72
1461772365938;HTC Portable Hotspot 483E;2c:8a:72:8f:6c:90;-72
1461772365938;eduroam;04:bd:88:b7:52:20;-77
1461772365939;eduroam;04:bd:88:b6:96:e0;-82
1461772365939;eduroam;40:e3:d6:7a:f2:00;-90
1461772365939;campuswifi;04:bd:88:b7:5d:e1;-49
1461772365939;campuswifi;94:b4:0f:3a:8d:c1;-57
1461772365940;campuswifi;84:d4:7e:c0:7b:a1;-65
1461772365940;Portthru;ca:97:89:7d:68:22;-68
1461772365940;campuswifi;04:bd:88:b7:4c:c1;-71
1461772365940;campuswifi;40:e3:d6:7a:d5:01;-72
1461772365941;campuswifi;04:bd:88:b7:cd:41;-74
1461772365941;campuswifi;04:bd:88:b6:98:c1;-77
1461772365941;campuswifi;04:bd:88:b7:52:21;-78
1461772365941;campuswifi;04:bd:88:b6:96:e1;-82
1461772365942;campuswifi;40:e3:d6:7a:f7:c1;-87
1461772365942;campuswifi;40:e3:d6:7a:ec:41;-95
1461772366671;eduroam;04:bd:88:b7:5d:e0;-49
1461772366672;eduroam;94:b4:0f:3a:8d:c0;-56
1461772366672;Xperia Z3 Compact_b345;84:8e:df:e7:3b:bd;-58
1461772366672;HTC Portable Hotspot 483E;2c:8a:72:8f:6c:90;-73
1461772366673;eduroam;04:bd:88:b7:cd:40;-74
1461772366673;eduroam;04:bd:88:b7:52:20;-79
1461772366673;eduroam;04:bd:88:b6:98:c0;-79
1461772366673;eduroam;40:e3:d6:7a:f7:c0;-90
1461772366674;campuswifi;04:bd:88:b7:5d:e1;-50
1461772366674;campuswifi;94:b4:0f:3a:8d:c1;-55
1461772366674;Portthru;ca:97:89:7d:68:22;-70
1461772366674;campuswifi;04:bd:88:b7:cd:41;-74
1461772366675;campuswifi;04:bd:88:b6:98:c1;-78
1461772366675;campuswifi;04:bd:88:b7:52:21;-79
1461772367281;eduroam;04:bd:88:b7:5d:e0;-48
1461772367281;eduroam;94:b4:0f:3a:8d:c0;-56
1461772367282;HTC Portable Hotspot 483E;2c:8a:72:8f:6c:90;-72
1461772367282;eduroam;40:e3:d6:7a:ea:a0;-74
1461772367282;eduroam;04:bd:88:b6:98:c0;-76
1461772367282;eduroam;04:bd:88:b7:52:20;-77
1461772367283;eduroam;40:e3:d6:7a:f7:c0;-90
1461772367283;Elion-44C2CF;00:22:07:44:c2:ce;-94
1461772367283;campuswifi;04:bd:88:b7:5d:e1;-49
1461772367283;campuswifi;94:b4:0f:3a:8d:c1;-56
1461772367284;Portthru;ca:97:89:7d:68:22;-71
1461772367284;campuswifi;04:bd:88:b6:98:c1;-75
1461772367284;campuswifi;04:bd:88:b7:52:21;-76
1461772367284;campuswifi;84:d4:7e:c0:5c:41;-87
1461772368045;eduroam;04:bd:88:b7:5d:e0;-48
1461772368045;eduroam;94:b4:0f:3a:8d:c0;-56
1461772368046;Xperia Z3 Compact_b345;84:8e:df:e7:3b:bd;-63
1461772368046;eduroam;84:d4:7e:c0:7b:a0;-64
1461772368046;eduroam;04:bd:88:b7:4c:c0;-68
1461772368046;HTC Portable Hotspot 483E;2c:8a:72:8f:6c:90;-71
1461772368047;eduroam;04:bd:88:b7:cd:40;-73
1461772368047;eduroam;40:e3:d6:7a:ea:a0;-79
1461772368047;eduroam;04:bd:88:b7:52:20;-79
1461772368047;eduroam;84:d4:7e:c0:5c:40;-87
1461772368048;Elion-44C2CF;00:22:07:44:c2:ce;-95
1461772368048;campuswifi;04:bd:88:b7:5d:e1;-49
1461772368048;campuswifi;40:e3:d6:7a:d5:01;-70
1461772368048;Portthru;ca:97:89:7d:68:22;-73
1461772368049;campuswifi;04:bd:88:b7:52:21;-78
1461772368049;campuswifi;40:e3:d6:7a:ea:a1;-78
1461772368049;campuswifi;84:d4:7e:c0:5c:41;-86
1461772368049;campuswifi;40:e3:d6:7a:f7:c1;-89
1461772368946;eduroam;04:bd:88:b7:5d:e0;-48
1461772368946;eduroam;94:b4:0f:3a:8d:c0;-56
1461772368947;Xperia Z3 Compact_b345;84:8e:df:e7:3b:bd;-64
1461772368947;eduroam;84:d4:7e:c0:7b:a0;-66
1461772368947;eduroam;04:bd:88:b7:4c:c0;-69
1461772368948;eduroam;40:e3:d6:7a:d5:00;-75
1461772368948;eduroam;04:bd:88:b7:cd:40;-75
1461772368948;eduroam;04:bd:88:b7:52:20;-79
1461772368948;eduroam;04:bd:88:b6:96:e0;-82
1461772368949;eduroam;84:d4:7e:c0:5c:40;-89
1461772368949;eduroam;40:e3:d6:7a:f2:00;-94
1461772368949;campuswifi;04:bd:88:b7:5d:e1;-52
1461772368949;campuswifi;94:b4:0f:3a:8d:c1;-56
1461772368950;campuswifi;84:d4:7e:c0:7b:a1;-66
1461772368950;Portthru;ca:97:89:7d:68:22;-72
1461772368950;campuswifi;40:e3:d6:7a:d5:01;-73
1461772368950;campuswifi;04:bd:88:b6:98:c1;-76
1461772368951;campuswifi;04:bd:88:b7:52:21;-78
1461772368951;campuswifi;84:d4:7e:c0:5c:41;-89
1461772369652;eduroam;04:bd:88:b7:5d:e0;-52
1461772369665;eduroam;94:b4:0f:3a:8d:c0;-56
1461772369665;Xperia Z3 Compact_b345;84:8e:df:e7:3b:bd;-61
1461772369666;eduroam;84:d4:7e:c0:7b:a0;-65
1461772369666;eduroam;04:bd:88:b7:4c:c0;-70
1461772369666;HTC Portable Hotspot 483E;2c:8a:72:8f:6c:90;-73
1461772369666;eduroam;40:e3:d6:7a:d5:00;-75
1461772369667;eduroam;04:bd:88:b7:52:20;-78
1461772369669;eduroam;84:d4:7e:c0:5c:40;-89
1461772369669;campuswifi;04:bd:88:b7:5d:e1;-51
1461772369669;campuswifi;94:b4:0f:3a:8d:c1;-56
1461772369669;campuswifi;84:d4:7e:c0:7b:a1;-64
1461772369670;campuswifi;04:bd:88:b7:4c:c1;-70
1461772369670;campuswifi;04:bd:88:b7:52:21;-77
1461772369670;Portthru;ca:97:89:7d:68:22;-80
1461772370543;eduroam;04:bd:88:b7:5d:e0;-52
1461772370543;eduroam;94:b4:0f:3a:8d:c0;-57
1461772370544;Xperia Z3 Compact_b345;84:8e:df:e7:3b:bd;-58
1461772370544;eduroam;84:d4:7e:c0:7b:a0;-63
1461772370544;eduroam;04:bd:88:b7:cd:40;-74
1461772370544;HTC Portable Hotspot 483E;2c:8a:72:8f:6c:90;-76
1461772370545;eduroam;04:bd:88:b7:52:20;-78
1461772370545;wololo;00:0c:f6:20:97:22;-83
1461772370545;eduroam;84:d4:7e:c0:5c:40;-86
1461772370545;eduroam;40:e3:d6:7a:f7:c0;-89
1461772370546;eduroam;04:bd:88:b7:55:a0;-90
1461772370546;campuswifi;04:bd:88:b7:5d:e1;-52
1461772370546;campuswifi;94:b4:0f:3a:8d:c1;-56
1461772370547;campuswifi;84:d4:7e:c0:7b:a1;-63
1461772370547;campuswifi;04:bd:88:b7:52:21;-76
1461772370547;Portthru;ca:97:89:7d:68:22;-82
1461772370547;campuswifi;04:bd:88:b7:55:a1;-89
1461772370548;campuswifi;84:d4:7e:c0:5c:41;-89
1461772371477;eduroam;04:bd:88:b7:5d:e0;-48
1461772371478;Xperia Z3 Compact_b345;84:8e:df:e7:3b:bd;-56
1461772371479;eduroam;94:b4:0f:3a:8d:c0;-57
1461772371480;HTC Portable Hotspot 483E;2c:8a:72:8f:6c:90;-72
1461772371481;eduroam;04:bd:88:b7:52:20;-79
1461772371500;eduroam;40:e3:d6:7a:d5:00;-79
1461772371500;eduroam;04:bd:88:b6:96:e0;-88
1461772371501;eduroam;84:d4:7e:c0:5c:40;-89
1461772371501;ENT;00:11:f5:ea:17:4f;-93
1461772371501;campuswifi;04:bd:88:b7:5d:e1;-49
1461772371501;campuswifi;94:b4:0f:3a:8d:c1;-57
1461772371502;campuswifi;84:d4:7e:c0:7b:a1;-68
1461772371502;campuswifi;04:bd:88:b7:4c:c1;-70
1461772371502;campuswifi;04:bd:88:b7:52:21;-79
1461772371503;campuswifi;04:bd:88:b6:96:e1;-85
1461772371503;campuswifi;84:d4:7e:c0:5c:41;-88
1461772372463;eduroam;04:bd:88:b7:5d:e0;-48
1461772372463;eduroam;94:b4:0f:3a:8d:c0;-55
1461772372464;Xperia Z3 Compact_b345;84:8e:df:e7:3b:bd;-57
1461772372464;eduroam;84:d4:7e:c0:7b:a0;-70
1461772372464;HTC Portable Hotspot 483E;2c:8a:72:8f:6c:90;-72
1461772372464;eduroam;40:e3:d6:7a:ea:a0;-74
1461772372465;eduroam;84:d4:7e:c0:5c:40;-92
1461772372465;campuswifi;04:bd:88:b7:5d:e1;-49
1461772372465;campuswifi;94:b4:0f:3a:8d:c1;-56
1461772372465;campuswifi;84:d4:7e:c0:7b:a1;-67
1461772372466;campuswifi;04:bd:88:b7:4c:c1;-70
1461772372466;campuswifi;40:e3:d6:7a:ea:a1;-74
1461772372466;Portthru;ca:97:89:7d:68:22;-76
1461772372466;campuswifi;04:bd:88:b7:52:21;-83
1461772372467;campuswifi;84:d4:7e:c0:5c:41;-91
1461772372467;campuswifi;04:bd:88:b7:55:a1;-91
1461772373356;eduroam;94:b4:0f:3a:8d:c0;-57
1461772373356;eduroam;04:bd:88:b7:5d:e0;-58
1461772373356;Xperia Z3 Compact_b345;84:8e:df:e7:3b:bd;-59
1461772373357;eduroam;84:d4:7e:c0:7b:a0;-69
1461772373357;eduroam;04:bd:88:b7:4c:c0;-73
1461772373357;eduroam;04:bd:88:b6:98:c0;-78
1461772373358;eduroam;04:bd:88:b7:52:20;-80
1461772373358;eduroam;84:d4:7e:c0:5c:40;-89
1461772373358;eduroam;04:bd:88:b7:55:a0;-91
1461772373358;campuswifi;04:bd:88:b7:5d:e1;-57
1461772373359;campuswifi;94:b4:0f:3a:8d:c1;-57
1461772373359;campuswifi;84:d4:7e:c0:7b:a1;-69
1461772373359;Portthru;ca:97:89:7d:68:22;-73
1461772373359;campuswifi;04:bd:88:b7:52:21;-79
1461772373360;campuswifi;04:bd:88:b7:55:a1;-92
1461772374252;eduroam;94:b4:0f:3a:8d:c0;-56
1461772374253;eduroam;04:bd:88:b7:5d:e0;-58
1461772374253;Xperia Z3 Compact_b345;84:8e:df:e7:3b:bd;-61
1461772374253;eduroam;84:d4:7e:c0:7b:a0;-69
1461772374253;eduroam;04:bd:88:b7:4c:c0;-70
1461772374254;HTC Portable Hotspot 483E;2c:8a:72:8f:6c:90;-80
1461772374254;eduroam;04:bd:88:b7:52:20;-81
1461772374254;wololo;00:0c:f6:20:97:22;-84
1461772374254;eduroam;84:d4:7e:c0:78:e0;-87
1461772374255;eduroam;84:d4:7e:c0:5c:40;-89
1461772374255;campuswifi;94:b4:0f:3a:8d:c1;-56
1461772374255;campuswifi;04:bd:88:b7:5d:e1;-58
1461772374255;campuswifi;84:d4:7e:c0:7b:a1;-69
1461772374256;Portthru;ca:97:89:7d:68:22;-72
1461772374256;campuswifi;40:e3:d6:7a:ea:a1;-74
1461772374256;campuswifi;04:bd:88:b7:52:21;-79
1461772374256;campuswifi;84:d4:7e:c0:5c:41;-90
1461772374257;campuswifi;04:bd:88:b7:55:a1;-91
1461772374257;campuswifi;40:e3:d6:7a:f2:01;-93
1461772375097;eduroam;04:bd:88:b7:5d:e0;-52
1461772375097;eduroam;94:b4:0f:3a:8d:c0;-57
1461772375098;Xperia Z3 Compact_b345;84:8e:df:e7:3b:bd;-59
1461772375098;eduroam;84:d4:7e:c0:7b:a0;-70
1461772375098;eduroam;04:bd:88:b7:4c:c0;-71
1461772375098;eduroam;04:bd:88:b7:52:20;-80
1461772375099;wololo;00:0c:f6:20:97:22;-85
1461772375099;eduroam;84:d4:7e:c0:5c:40;-89
1461772375099;eduroam;04:bd:88:b7:56:00;-89
1461772375099;campuswifi;04:bd:88:b7:5d:e1;-53
1461772375100;campuswifi;94:b4:0f:3a:8d:c1;-57
1461772375100;campuswifi;84:d4:7e:c0:7b:a1;-70
1461772375100;Portthru;ca:97:89:7d:68:22;-72
1461772375100;campuswifi;04:bd:88:b7:52:21;-79
1461772375101;campuswifi;84:d4:7e:c0:5c:41;-89
1461772375101;campuswifi;04:bd:88:b7:a9:61;-90
1461772376045;eduroam;04:bd:88:b7:5d:e0;-52
1461772376046;eduroam;94:b4:0f:3a:8d:c0;-57
1461772376047;Xperia Z3 Compact_b345;84:8e:df:e7:3b:bd;-60
1461772376048;eduroam;04:bd:88:b7:cd:40;-75
1461772376049;eduroam;40:e3:d6:7a:ea:a0;-75
1461772376050;eduroam;04:bd:88:b7:52:20;-80
1461772376051;eduroam;04:bd:88:b7:55:00;-83
1461772376052;eduroam;84:d4:7e:c0:78:e0;-89
1461772376061;campuswifi;04:bd:88:b7:5d:e1;-54
1461772376061;campuswifi;94:b4:0f:3a:8d:c1;-57
1461772376062;campuswifi;04:bd:88:b7:4c:c1;-70
1461772376062;campuswifi;84:d4:7e:c0:7b:a1;-70
1461772376062;campuswifi;40:e3:d6:7a:d5:01;-73
1461772376062;Portthru;ca:97:89:7d:68:22;-74
1461772376063;campuswifi;40:e3:d6:7a:ea:a1;-74
1461772376063;campuswifi;04:bd:88:b7:cd:41;-75
1461772376063;campuswifi;04:bd:88:b6:98:c1;-76
1461772376064;campuswifi;04:bd:88:b7:52:21;-81
1461772376701;eduroam;04:bd:88:b7:5d:e0;-50
1461772376701;eduroam;94:b4:0f:3a:8d:c0;-59
1461772376701;Xperia Z3 Compact_b345;84:8e:df:e7:3b:bd;-63
1461772376702;eduroam;84:d4:7e:c0:7b:a0;-69
1461772376702;eduroam;04:bd:88:b7:cd:40;-75
1461772376703;eduroam;04:bd:88:b6:98:c0;-76
1461772376704;HTC Portable Hotspot 483E;2c:8a:72:8f:6c:90;-78
1461772376708;eduroam;04:bd:88:b7:52:20;-83
1461772376708;campuswifi;04:bd:88:b7:5d:e1;-49
1461772376709;campuswifi;94:b4:0f:3a:8d:c1;-59
1461772376709;campuswifi;84:d4:7e:c0:7b:a1;-67
1461772376709;campuswifi;04:bd:88:b7:4c:c1;-71
1461772376709;campuswifi;40:e3:d6:7a:d5:01;-72
1461772376710;campuswifi;40:e3:d6:7a:ea:a1;-74
1461772376710;campuswifi;04:bd:88:b7:cd:41;-75
1461772376711;Portthru;ca:97:89:7d:68:22;-75
