1463166808772;eduroam;40:e3:d6:7a:eb:e0;-59
1463166808773;eduroam;04:bd:88:b7:5f:40;-66
1463166808773;eduroam;04:bd:88:b7:59:c0;-67
1463166808774;eduroam;04:bd:88:b7:c7:c0;-68
1463166808774;eduroam;04:bd:88:b7:a7:e0;-70
1463166808775;eduroam;94:b4:0f:3a:8d:c0;-70
1463166808775;eduroam;40:e3:d6:7a:f2:c0;-75
1463166808775;eduroam;84:d4:7e:c0:61:e0;-80
1463166808776;eduroam;04:bd:88:b7:ca:00;-85
1463166808776;eduroam;84:d4:7e:c0:60:20;-85
1463166808776;eduroam;40:e3:d6:7a:ea:a0;-85
1463166808776;eduroam;40:e3:d6:7a:f2:60;-86
1463166808777;eduroam;04:bd:88:5f:65:e0;-89
1463166808777;eduroam;04:bd:88:b7:5d:e0;-91
1463166808777;Elion-4332BF;00:22:07:43:32:be;-95
1463166808777;eduroam mar;42:b8:37:df:ed:5f;-57
1463166808778;campuswifi;40:e3:d6:7a:eb:e1;-59
1463166808778;campuswifi;04:bd:88:b7:5f:41;-65
1463166808778;campuswifi;04:bd:88:b7:59:c1;-66
1463166808778;campuswifi;04:bd:88:b7:a7:e1;-69
1463166808779;campuswifi;04:bd:88:b7:c7:c1;-69
1463166808779;campuswifi;40:e3:d6:7a:f2:c1;-77
1463166808779;campuswifi;84:d4:7e:c0:61:e1;-80
1463166808779;campuswifi;40:e3:d6:7a:ea:a1;-84
1463166808780;campuswifi;84:d4:7e:c0:60:21;-84
1463166808780;campuswifi;04:bd:88:b7:ca:01;-85
1463166808780;campuswifi;40:e3:d6:7a:f2:61;-86
1463166808780;campuswifi;04:bd:88:b7:5d:e1;-89
1463166808793;campuswifi;04:bd:88:5f:65:e1;-90
1463166809365;eduroam;40:e3:d6:7a:eb:e0;-59
1463166809365;eduroam;04:bd:88:b7:5f:40;-67
1463166809366;eduroam;04:bd:88:b7:59:c0;-67
1463166809366;eduroam;04:bd:88:b7:c7:c0;-68
1463166809366;eduroam;04:bd:88:b7:a7:e0;-69
1463166809374;eduroam;94:b4:0f:3a:8d:c0;-70
1463166809374;eduroam mar;42:b8:37:df:ed:5f;-58
1463166809374;campuswifi;40:e3:d6:7a:eb:e1;-59
1463166809374;campuswifi;04:bd:88:b7:5f:41;-67
1463166809375;campuswifi;04:bd:88:b7:59:c1;-68
1463166809375;campuswifi;04:bd:88:b7:c7:c1;-68
1463166809375;campuswifi;04:bd:88:b7:a7:e1;-69
1463166809376;campuswifi;40:e3:d6:7a:f1:21;-90
1463166810217;eduroam;40:e3:d6:7a:eb:e0;-58
1463166810219;eduroam;04:bd:88:b7:5f:40;-66
1463166810220;eduroam;04:bd:88:b7:c7:c0;-68
1463166810221;eduroam;04:bd:88:b7:a7:e0;-69
1463166810222;eduroam;94:b4:0f:3a:8d:c0;-70
1463166810232;eduroam;40:e3:d6:7a:ec:40;-75
1463166810234;eduroam;84:d4:7e:c0:60:20;-84
1463166810234;campuswifi;40:e3:d6:7a:eb:e1;-59
1463166810234;eduroam mar;42:b8:37:df:ed:5f;-59
1463166810235;campuswifi;04:bd:88:b7:c7:c1;-67
1463166810235;campuswifi;04:bd:88:b7:5f:41;-67
1463166810235;campuswifi;04:bd:88:b7:59:c1;-68
1463166810236;campuswifi;04:bd:88:b7:a7:e1;-69
1463166810236;campuswifi;40:e3:d6:7a:ec:41;-75
1463166811032;eduroam;40:e3:d6:7a:eb:e0;-59
1463166811032;eduroam;04:bd:88:b7:5f:40;-67
1463166811033;eduroam;04:bd:88:b7:a7:e0;-69
1463166811033;eduroam;04:bd:88:b7:c7:c0;-69
1463166811033;eduroam;94:b4:0f:3a:8d:c0;-70
1463166811033;eduroam;04:bd:88:b7:59:c0;-70
1463166811034;eduroam;84:d4:7e:c0:61:e0;-80
1463166811034;eduroam;84:d4:7e:c0:60:20;-84
1463166811055;eduroam;40:e3:d6:7a:f2:60;-84
1463166811055;eduroam;04:bd:88:b7:5d:e0;-90
1463166811056;campuswifi;40:e3:d6:7a:eb:e1;-59
1463166811056;eduroam mar;42:b8:37:df:ed:5f;-59
1463166811056;campuswifi;04:bd:88:b7:59:c1;-68
1463166811056;campuswifi;04:bd:88:b7:c7:c1;-69
1463166811057;campuswifi;04:bd:88:b7:a7:e1;-69
1463166811057;campuswifi;40:e3:d6:7a:ea:a1;-81
1463166811057;campuswifi;84:d4:7e:c0:60:21;-83
1463166811057;campuswifi;40:e3:d6:7a:f2:61;-85
1463166811058;campuswifi;04:bd:88:b7:5d:e1;-89
1463166811058;campuswifi;04:bd:88:b6:96:e1;-89
1463166811058;campuswifi;40:e3:d6:7a:d3:c1;-91
1463166811825;eduroam;40:e3:d6:7a:eb:e0;-58
1463166811825;eduroam;04:bd:88:b7:5f:40;-67
1463166811826;eduroam;04:bd:88:b7:c7:c0;-67
1463166811826;eduroam;04:bd:88:b7:a7:e0;-68
1463166811826;eduroam;94:b4:0f:3a:8d:c0;-70
1463166811826;eduroam;40:e3:d6:7a:f2:c0;-75
1463166811827;eduroam;40:e3:d6:7a:ec:40;-76
1463166811827;eduroam;84:d4:7e:c0:61:e0;-80
1463166811827;eduroam;40:e3:d6:7a:ea:a0;-82
1463166811827;eduroam;40:e3:d6:7a:f2:60;-87
1463166811828;eduroam;04:bd:88:b7:d0:60;-88
1463166811828;RistoKukk;14:cc:20:b2:e6:3e;-89
1463166811828;eduroam mar;42:b8:37:df:ed:5f;-58
1463166811828;campuswifi;40:e3:d6:7a:eb:e1;-58
1463166811829;campuswifi;04:bd:88:b7:5f:41;-67
1463166811829;campuswifi;04:bd:88:b7:c7:c1;-68
1463166811829;campuswifi;04:bd:88:b7:a7:e1;-69
1463166811829;campuswifi;40:e3:d6:7a:ec:41;-75
1463166811830;campuswifi;40:e3:d6:7a:f2:c1;-75
1463166811830;campuswifi;40:e3:d6:7a:f2:61;-87
1463166812608;eduroam;40:e3:d6:7a:eb:e0;-58
1463166812608;eduroam;04:bd:88:b7:c7:c0;-67
1463166812608;eduroam;04:bd:88:b7:5f:40;-68
1463166812609;eduroam;04:bd:88:b7:a7:e0;-69
1463166812609;eduroam;94:b4:0f:3a:8d:c0;-70
1463166812609;eduroam;04:bd:88:b7:59:c0;-71
1463166812610;eduroam;40:e3:d6:7a:f2:c0;-74
1463166812610;eduroam;40:e3:d6:7a:ea:a0;-82
1463166812610;eduroam;04:bd:88:b7:d0:60;-87
1463166812610;eduroam;40:e3:d6:7a:f2:60;-88
1463166812611;HUAWEI_Y560-L01_K13O;00:f8:1c:34:ce:3c;-89
1463166812611;campuswifi;40:e3:d6:7a:eb:e1;-58
1463166812611;eduroam mar;42:b8:37:df:ed:5f;-60
1463166812611;campuswifi;04:bd:88:b7:5f:41;-67
1463166812612;campuswifi;04:bd:88:b7:a7:e1;-68
1463166812612;campuswifi;04:bd:88:b7:59:c1;-68
1463166812612;campuswifi;04:bd:88:b7:c7:c1;-69
1463166812612;campuswifi;40:e3:d6:7a:f2:c1;-74
1463166812613;campuswifi;40:e3:d6:7a:ea:a1;-80
1463166812620;campuswifi;04:bd:88:b7:d0:61;-87
1463166812621;campuswifi;40:e3:d6:7a:f2:61;-88
1463166813374;eduroam;40:e3:d6:7a:eb:e0;-58
1463166813374;eduroam;04:bd:88:b7:5f:40;-67
1463166813374;eduroam;04:bd:88:b7:c7:c0;-68
1463166813375;eduroam;04:bd:88:b7:a7:e0;-70
1463166813375;eduroam;94:b4:0f:3a:8d:c0;-70
1463166813375;eduroam;84:d4:7e:c0:61:e0;-81
1463166813376;eduroam;40:e3:d6:7a:ea:a0;-82
1463166813376;eduroam;04:bd:88:b7:ca:00;-87
1463166813376;eduroam;04:bd:88:b6:f5:e0;-87
1463166813376;eduroam;40:e3:d6:7a:f1:20;-90
1463166813377;eduroam;04:bd:88:5f:65:e0;-90
1463166813377;campuswifi;40:e3:d6:7a:eb:e1;-57
1463166813377;eduroam mar;42:b8:37:df:ed:5f;-59
1463166813377;campuswifi;04:bd:88:b7:c7:c1;-68
1463166813378;campuswifi;04:bd:88:b7:5f:41;-68
1463166813378;campuswifi;04:bd:88:b7:a7:e1;-69
1463166813378;campuswifi;04:bd:88:b7:59:c1;-73
1463166813378;campuswifi;40:e3:d6:7a:f2:c1;-74
1463166813379;campuswifi;84:d4:7e:c0:61:e1;-81
1463166813379;campuswifi;40:e3:d6:7a:ea:a1;-82
1463166813379;campuswifi;04:bd:88:5f:65:e1;-89
1463166814169;eduroam;40:e3:d6:7a:eb:e0;-58
1463166814170;eduroam;04:bd:88:b7:a7:e0;-68
1463166814170;eduroam;04:bd:88:b7:c7:c0;-68
1463166814170;eduroam;04:bd:88:b7:5f:40;-70
1463166814171;eduroam;94:b4:0f:3a:8d:c0;-70
1463166814171;eduroam;40:e3:d6:7a:ec:40;-75
1463166814171;eduroam;40:e3:d6:7a:ea:a0;-80
1463166814171;eduroam;84:d4:7e:c0:60:20;-86
1463166814172;eduroam;04:bd:88:b7:ca:00;-87
1463166814172;eduroam;04:bd:88:5f:65:e0;-89
1463166814172;RistoKukk;14:cc:20:b2:e6:3e;-90
1463166814172;HUAWEI_Y560-L01_K13O;00:f8:1c:34:ce:3c;-91
1463166814173;eduroam;40:e3:d6:7a:d3:c0;-91
1463166814194;campuswifi;40:e3:d6:7a:eb:e1;-58
1463166814194;eduroam mar;42:b8:37:df:ed:5f;-61
1463166814194;campuswifi;04:bd:88:b7:a7:e1;-68
1463166814194;campuswifi;04:bd:88:b7:c7:c1;-68
1463166814195;campuswifi;04:bd:88:b7:5f:41;-70
1463166814195;campuswifi;40:e3:d6:7a:f2:c1;-73
1463166814195;campuswifi;40:e3:d6:7a:ec:41;-75
1463166814200;campuswifi;04:bd:88:b6:f5:e1;-86
1463166814201;campuswifi;40:e3:d6:7a:f1:21;-90
1463166814201;campuswifi;40:e3:d6:7a:d3:c1;-91
1463166814201;campuswifi;04:bd:88:b7:49:a1;-93
1463166815003;eduroam;40:e3:d6:7a:eb:e0;-58
1463166815003;eduroam;04:bd:88:b7:a7:e0;-68
1463166815003;eduroam;04:bd:88:b7:c7:c0;-68
1463166815004;eduroam;94:b4:0f:3a:8d:c0;-70
1463166815004;eduroam;04:bd:88:b7:5f:40;-70
1463166815004;eduroam;40:e3:d6:7a:f2:c0;-74
1463166815004;eduroam;04:bd:88:b7:59:c0;-75
1463166815005;eduroam;40:e3:d6:7a:ec:40;-75
1463166815005;eduroam;84:d4:7e:c0:61:e0;-82
1463166815005;eduroam;04:bd:88:b7:d0:60;-87
1463166815005;eduroam;40:e3:d6:7a:f2:60;-87
1463166815006;eduroam;04:bd:88:b7:5d:e0;-90
1463166815006;eduroam;40:e3:d6:7a:d3:c0;-90
1463166815006;HUAWEI_Y560-L01_K13O;00:f8:1c:34:ce:3c;-91
1463166815006;campuswifi;40:e3:d6:7a:eb:e1;-57
1463166815007;eduroam mar;42:b8:37:df:ed:5f;-61
1463166815013;campuswifi;04:bd:88:b7:a7:e1;-68
1463166815014;campuswifi;04:bd:88:b7:c7:c1;-68
1463166815015;campuswifi;04:bd:88:b7:5f:41;-70
1463166815015;campuswifi;04:bd:88:b7:59:c1;-73
1463166815015;campuswifi;40:e3:d6:7a:ec:41;-74
1463166815015;campuswifi;40:e3:d6:7a:f2:c1;-74
1463166815016;campuswifi;40:e3:d6:7a:ea:a1;-81
1463166815016;campuswifi;84:d4:7e:c0:60:21;-83
1463166815016;campuswifi;84:d4:7e:c0:61:e1;-83
1463166815016;campuswifi;40:e3:d6:7a:f2:61;-87
1463166815024;campuswifi;04:bd:88:b7:d0:61;-88
1463166815024;campuswifi;04:bd:88:b6:f5:e1;-88
1463166815025;campuswifi;04:bd:88:b7:5d:e1;-89
1463166815025;campuswifi;40:e3:d6:7a:d3:c1;-90
1463166815764;eduroam;40:e3:d6:7a:eb:e0;-58
1463166815764;eduroam;04:bd:88:b7:a7:e0;-68
1463166815765;eduroam;04:bd:88:b7:c7:c0;-69
1463166815765;eduroam;04:bd:88:b7:5f:40;-69
1463166815765;eduroam;94:b4:0f:3a:8d:c0;-70
1463166815765;eduroam;40:e3:d6:7a:f2:c0;-75
1463166815766;eduroam;84:d4:7e:c0:61:e0;-81
1463166815766;eduroam;04:bd:88:b7:d0:60;-83
1463166815766;eduroam;40:e3:d6:7a:ea:a0;-83
1463166815767;eduroam;04:bd:88:b7:ca:00;-85
1463166815767;eduroam;04:bd:88:b7:5d:e0;-90
1463166815767;eduroam mar;42:b8:37:df:ed:5f;-58
1463166815767;campuswifi;40:e3:d6:7a:eb:e1;-58
1463166815768;campuswifi;04:bd:88:b7:a7:e1;-68
1463166815768;campuswifi;04:bd:88:b7:5f:41;-68
1463166815768;campuswifi;04:bd:88:b7:c7:c1;-69
1463166815768;campuswifi;40:e3:d6:7a:f2:c1;-74
1463166815769;campuswifi;84:d4:7e:c0:61:e1;-81
1463166815769;campuswifi;40:e3:d6:7a:ea:a1;-83
1463166815769;campuswifi;84:d4:7e:c0:60:21;-83
1463166815769;campuswifi;04:bd:88:b7:ca:01;-85
1463166815770;campuswifi;04:bd:88:b7:5d:e1;-89
1463166815770;campuswifi;04:bd:88:5f:65:e1;-90
1463166816562;eduroam;40:e3:d6:7a:eb:e0;-57
1463166816562;eduroam;04:bd:88:b7:a7:e0;-68
1463166816562;eduroam;04:bd:88:b7:5f:40;-69
1463166816563;eduroam;04:bd:88:b7:c7:c0;-69
1463166816563;eduroam;94:b4:0f:3a:8d:c0;-70
1463166816563;eduroam;40:e3:d6:7a:f2:c0;-72
1463166816564;eduroam;04:bd:88:b7:59:c0;-75
1463166816564;eduroam;40:e3:d6:7a:ec:40;-75
1463166816564;eduroam;40:e3:d6:7a:ea:a0;-81
1463166816564;eduroam;84:d4:7e:c0:61:e0;-83
1463166816565;eduroam;04:bd:88:b7:ca:00;-87
1463166816565;eduroam;04:bd:88:b7:49:a0;-93
1463166816565;campuswifi;40:e3:d6:7a:eb:e1;-57
1463166816565;eduroam mar;42:b8:37:df:ed:5f;-60
1463166816566;campuswifi;04:bd:88:b7:a7:e1;-68
1463166816566;campuswifi;04:bd:88:b7:5f:41;-68
1463166816566;campuswifi;04:bd:88:b7:c7:c1;-69
1463166816566;campuswifi;40:e3:d6:7a:f2:c1;-72
1463166816567;campuswifi;40:e3:d6:7a:ec:41;-74
1463166816567;campuswifi;40:e3:d6:7a:ea:a1;-81
1463166816567;campuswifi;84:d4:7e:c0:61:e1;-81
1463166816567;campuswifi;84:d4:7e:c0:60:21;-84
1463166816568;campuswifi;04:bd:88:b7:ca:01;-86
1463166816568;campuswifi;04:bd:88:b6:96:e1;-89
1463166816568;campuswifi;40:e3:d6:7a:d3:c1;-91
1463166816568;campuswifi;04:bd:88:b7:55:a1;-93
1463166817396;eduroam;40:e3:d6:7a:eb:e0;-58
1463166817396;eduroam;04:bd:88:b7:a7:e0;-69
1463166817396;eduroam;04:bd:88:b7:5f:40;-69
1463166817396;eduroam;04:bd:88:b7:c7:c0;-69
1463166817397;eduroam;94:b4:0f:3a:8d:c0;-70
1463166817397;eduroam;04:bd:88:b7:59:c0;-74
1463166817397;eduroam;40:e3:d6:7a:ec:40;-76
1463166817397;eduroam;84:d4:7e:c0:61:e0;-80
1463166817398;eduroam;84:d4:7e:c0:60:20;-81
1463166817398;eduroam;04:bd:88:b7:5d:e0;-85
1463166817398;eduroam;04:bd:88:b7:ca:00;-86
1463166817398;eduroam;40:e3:d6:7a:f2:60;-88
1463166817399;HUAWEI_Y560-L01_K13O;00:f8:1c:34:ce:3c;-94
1463166817399;campuswifi;40:e3:d6:7a:eb:e1;-57
1463166817399;eduroam mar;42:b8:37:df:ed:5f;-64
1463166817399;campuswifi;04:bd:88:b7:c7:c1;-68
1463166817400;campuswifi;04:bd:88:b7:5f:41;-69
1463166817400;campuswifi;04:bd:88:b7:a7:e1;-69
1463166817400;campuswifi;40:e3:d6:7a:f2:c1;-71
1463166817400;campuswifi;04:bd:88:b7:59:c1;-72
1463166817401;campuswifi;40:e3:d6:7a:ec:41;-76
1463166817401;campuswifi;40:e3:d6:7a:ea:a1;-79
1463166817401;campuswifi;84:d4:7e:c0:61:e1;-80
1463166817401;campuswifi;84:d4:7e:c0:60:21;-82
1463166817402;campuswifi;04:bd:88:5f:65:e1;-88
1463166817402;campuswifi;40:e3:d6:7a:f2:61;-88
1463166817402;campuswifi;04:bd:88:b6:96:e1;-90
1463166818186;eduroam;40:e3:d6:7a:eb:e0;-59
1463166818186;eduroam;04:bd:88:b7:a7:e0;-67
1463166818186;eduroam;40:e3:d6:7a:f2:c0;-70
1463166818186;eduroam;94:b4:0f:3a:8d:c0;-70
1463166818187;eduroam;04:bd:88:b7:c7:c0;-70
1463166818187;eduroam;04:bd:88:b7:59:c0;-71
1463166818187;eduroam;04:bd:88:b7:5f:40;-72
1463166818188;eduroam;40:e3:d6:7a:ec:40;-75
1463166818188;eduroam;40:e3:d6:7a:ea:a0;-79
1463166818188;eduroam;84:d4:7e:c0:61:e0;-83
1463166818188;eduroam;40:e3:d6:7a:f2:60;-86
1463166818189;eduroam;04:bd:88:b6:96:e0;-91
1463166818189;campuswifi;40:e3:d6:7a:eb:e1;-59
1463166818189;eduroam mar;42:b8:37:df:ed:5f;-64
1463166818189;campuswifi;04:bd:88:b7:a7:e1;-67
1463166818190;campuswifi;04:bd:88:b7:c7:c1;-70
1463166818190;campuswifi;40:e3:d6:7a:f2:c1;-71
1463166818190;campuswifi;04:bd:88:b7:59:c1;-71
1463166818190;campuswifi;04:bd:88:b7:5f:41;-72
1463166818191;campuswifi;40:e3:d6:7a:ec:41;-75
1463166818191;campuswifi;40:e3:d6:7a:ea:a1;-79
1463166818191;campuswifi;84:d4:7e:c0:61:e1;-80
1463166818191;campuswifi;04:bd:88:b6:96:e1;-91
1463166819114;eduroam;40:e3:d6:7a:eb:e0;-59
1463166819114;eduroam;04:bd:88:b7:a7:e0;-69
1463166819114;eduroam;04:bd:88:b7:c7:c0;-70
1463166819114;eduroam;94:b4:0f:3a:8d:c0;-70
1463166819115;eduroam;04:bd:88:b7:59:c0;-71
1463166819115;eduroam;04:bd:88:b7:5f:40;-71
1463166819115;eduroam;40:e3:d6:7a:f2:c0;-73
1463166819115;eduroam;40:e3:d6:7a:ec:40;-75
1463166819116;eduroam;40:e3:d6:7a:f2:60;-87
1463166819116;eduroam;04:bd:88:b7:d0:60;-88
1463166819116;eduroam;04:bd:88:b6:f5:e0;-89
1463166819116;campuswifi;40:e3:d6:7a:eb:e1;-58
1463166819117;eduroam mar;42:b8:37:df:ed:5f;-64
1463166819117;campuswifi;04:bd:88:b7:a7:e1;-68
1463166819117;campuswifi;04:bd:88:b7:c7:c1;-69
1463166819117;campuswifi;04:bd:88:b7:5f:41;-69
1463166819118;campuswifi;04:bd:88:b7:59:c1;-70
1463166819118;campuswifi;40:e3:d6:7a:f2:c1;-72
1463166819118;campuswifi;40:e3:d6:7a:ec:41;-75
1463166819118;campuswifi;40:e3:d6:7a:f2:61;-84
1463166819119;campuswifi;04:bd:88:b7:d0:61;-87
1463166819952;eduroam;40:e3:d6:7a:eb:e0;-58
1463166819952;eduroam;04:bd:88:b7:a7:e0;-67
1463166819952;eduroam;04:bd:88:b7:5f:40;-67
1463166819953;eduroam;94:b4:0f:3a:8d:c0;-70
1463166819954;eduroam;04:bd:88:b7:c7:c0;-70
1463166819954;eduroam;40:e3:d6:7a:f2:c0;-72
1463166819954;eduroam;04:bd:88:b7:59:c0;-77
1463166819955;eduroam;84:d4:7e:c0:60:20;-82
1463166819955;eduroam;04:bd:88:b7:5d:e0;-89
1463166819955;HUAWEI_Y560-L01_K13O;00:f8:1c:34:ce:3c;-90
1463166819955;campuswifi;40:e3:d6:7a:eb:e1;-58
1463166819956;campuswifi;04:bd:88:b7:5f:41;-66
1463166819956;eduroam mar;42:b8:37:df:ed:5f;-66
1463166819956;campuswifi;04:bd:88:b7:a7:e1;-67
1463166819956;campuswifi;04:bd:88:b7:c7:c1;-70
1463166819957;campuswifi;40:e3:d6:7a:f2:c1;-71
1463166819957;campuswifi;04:bd:88:b7:59:c1;-72
1463166819957;campuswifi;84:d4:7e:c0:60:21;-82
1463166819957;campuswifi;04:bd:88:5f:65:e1;-87
1463166819958;campuswifi;04:bd:88:b7:5d:e1;-88
1463166819958;campuswifi;40:e3:d6:7a:d3:c1;-91
1463166819958;campuswifi;04:bd:88:b7:55:a1;-93
1463166820716;eduroam;40:e3:d6:7a:eb:e0;-58
1463166820716;eduroam;04:bd:88:b7:a7:e0;-67
1463166820717;eduroam;04:bd:88:b7:5f:40;-68
1463166820717;eduroam;04:bd:88:b7:c7:c0;-70
1463166820717;eduroam;94:b4:0f:3a:8d:c0;-70
1463166820717;eduroam;04:bd:88:b7:59:c0;-74
1463166820718;eduroam;40:e3:d6:7a:ec:40;-76
1463166820718;eduroam;40:e3:d6:7a:ea:a0;-78
1463166820718;eduroam;04:bd:88:b7:d0:60;-87
1463166820718;eduroam;40:e3:d6:7a:f2:60;-88
1463166820719;campuswifi;40:e3:d6:7a:eb:e1;-58
1463166820719;campuswifi;04:bd:88:b7:5f:41;-67
1463166820719;campuswifi;04:bd:88:b7:a7:e1;-68
1463166820720;eduroam mar;42:b8:37:df:ed:5f;-69
1463166820720;campuswifi;04:bd:88:b7:c7:c1;-70
1463166820720;campuswifi;04:bd:88:b7:59:c1;-72
1463166820720;campuswifi;40:e3:d6:7a:ec:41;-75
1463166820721;campuswifi;40:e3:d6:7a:ea:a1;-80
1463166820743;campuswifi;04:bd:88:b7:ca:01;-86
1463166820744;campuswifi;40:e3:d6:7a:f2:61;-88
1463166820744;campuswifi;04:bd:88:b7:55:a1;-93
1463166821584;eduroam;40:e3:d6:7a:eb:e0;-58
1463166821584;eduroam;04:bd:88:b7:a7:e0;-67
1463166821584;eduroam;04:bd:88:b7:c7:c0;-67
1463166821585;eduroam;94:b4:0f:3a:8d:c0;-70
1463166821585;eduroam;04:bd:88:b7:59:c0;-73
1463166821585;eduroam;40:e3:d6:7a:f2:c0;-76
1463166821585;eduroam;84:d4:7e:c0:60:20;-82
1463166821586;eduroam;84:d4:7e:c0:61:e0;-82
1463166821586;eduroam;04:bd:88:b6:f5:e0;-90
1463166821586;HUAWEI_Y560-L01_K13O;00:f8:1c:34:ce:3c;-90
1463166821586;campuswifi;40:e3:d6:7a:eb:e1;-58
1463166821587;eduroam mar;42:b8:37:df:ed:5f;-64
1463166821587;campuswifi;04:bd:88:b7:5f:41;-67
1463166821587;campuswifi;04:bd:88:b7:a7:e1;-68
1463166821588;campuswifi;04:bd:88:b7:c7:c1;-69
1463166821588;campuswifi;40:e3:d6:7a:f2:c1;-71
1463166821588;campuswifi;04:bd:88:b7:59:c1;-75
1463166821588;campuswifi;40:e3:d6:7a:ec:41;-76
1463166821589;campuswifi;40:e3:d6:7a:ea:a1;-80
1463166821589;campuswifi;84:d4:7e:c0:61:e1;-82
1463166821589;campuswifi;04:bd:88:5f:65:e1;-87
1463166821589;campuswifi;04:bd:88:b7:5d:e1;-89
1463166822486;eduroam;40:e3:d6:7a:eb:e0;-59
1463166822486;eduroam;04:bd:88:b7:5f:40;-66
1463166822486;eduroam;04:bd:88:b7:a7:e0;-66
1463166822487;eduroam;04:bd:88:b7:c7:c0;-69
1463166822487;eduroam;94:b4:0f:3a:8d:c0;-70
1463166822487;eduroam;04:bd:88:b7:59:c0;-72
1463166822487;eduroam;40:e3:d6:7a:f2:c0;-75
1463166822488;eduroam;40:e3:d6:7a:ec:40;-76
1463166822488;eduroam;40:e3:d6:7a:ea:a0;-84
1463166822488;campuswifi;40:e3:d6:7a:eb:e1;-59
1463166822488;eduroam mar;42:b8:37:df:ed:5f;-62
1463166822489;campuswifi;04:bd:88:b7:5f:41;-67
1463166822489;campuswifi;04:bd:88:b7:a7:e1;-67
1463166822489;campuswifi;04:bd:88:b7:c7:c1;-69
1463166822489;campuswifi;04:bd:88:b7:59:c1;-72
1463166822490;campuswifi;40:e3:d6:7a:f2:c1;-75
1463166822490;campuswifi;40:e3:d6:7a:ec:41;-75
1463166822490;campuswifi;84:d4:7e:c0:61:e1;-78
1463166822490;campuswifi;84:d4:7e:c0:60:21;-82
1463166823216;eduroam;40:e3:d6:7a:eb:e0;-60
1463166823216;eduroam;04:bd:88:b7:a7:e0;-65
1463166823217;eduroam;40:e3:d6:7a:f2:c0;-66
1463166823217;eduroam;04:bd:88:b7:5f:40;-70
1463166823217;eduroam;94:b4:0f:3a:8d:c0;-70
1463166823217;eduroam;04:bd:88:b7:c7:c0;-76
1463166823218;eduroam;84:d4:7e:c0:61:e0;-78
1463166823218;eduroam;04:bd:88:b7:ca:00;-84
1463166823218;eduroam;04:bd:88:b6:f5:e0;-87
1463166823218;S6gendonid;58:98:35:ba:cf:5d;-89
1463166823219;eduroam;04:bd:88:5f:65:e0;-91
1463166823219;eduroam;04:bd:88:b7:49:a0;-91
1463166823219;campuswifi;40:e3:d6:7a:eb:e1;-60
1463166823219;eduroam mar;42:b8:37:df:ed:5f;-61
1463166823220;campuswifi;04:bd:88:b7:a7:e1;-65
1463166823220;campuswifi;04:bd:88:b7:5f:41;-65
1463166823220;campuswifi;04:bd:88:b7:59:c1;-66
1463166823220;campuswifi;04:bd:88:b7:c7:c1;-69
1463166823221;campuswifi;84:d4:7e:c0:61:e1;-78
1463166823221;campuswifi;40:e3:d6:7a:ea:a1;-79
1463166823221;campuswifi;84:d4:7e:c0:60:21;-81
1463166823221;campuswifi;04:bd:88:b7:ca:01;-83
1463166823222;campuswifi;04:bd:88:b7:49:a1;-91
1463166823222;campuswifi;04:bd:88:5f:65:e1;-91
1463166824036;eduroam;40:e3:d6:7a:eb:e0;-55
1463166824036;eduroam;04:bd:88:b7:a7:e0;-65
1463166824036;eduroam;94:b4:0f:3a:8d:c0;-70
1463166824036;eduroam;04:bd:88:b7:c7:c0;-73
1463166824037;eduroam;04:bd:88:b7:5f:40;-74
1463166824037;eduroam;40:e3:d6:7a:ec:40;-79
1463166824037;eduroam;84:d4:7e:c0:61:e0;-83
1463166824037;eduroam;04:bd:88:b7:d0:60;-84
1463166824038;eduroam mar;42:b8:37:df:ed:5f;-54
1463166824038;campuswifi;40:e3:d6:7a:eb:e1;-55
1463166824038;campuswifi;04:bd:88:b7:a7:e1;-65
1463166824038;campuswifi;04:bd:88:b7:59:c1;-66
1463166824039;campuswifi;04:bd:88:b7:5f:41;-73
1463166824039;campuswifi;04:bd:88:b7:c7:c1;-73
1463166824039;campuswifi;84:d4:7e:c0:61:e1;-78
1463166824039;campuswifi;40:e3:d6:7a:ec:41;-79
1463166824040;campuswifi;04:bd:88:b6:f5:e1;-82
1463166824040;campuswifi;04:bd:88:b6:96:e1;-88
1463166824040;campuswifi;40:e3:d6:7a:d3:c1;-95
1463166824785;eduroam;40:e3:d6:7a:eb:e0;-61
1463166824785;eduroam;04:bd:88:b7:59:c0;-64
1463166824785;eduroam;40:e3:d6:7a:f2:c0;-68
1463166824786;eduroam;94:b4:0f:3a:8d:c0;-70
1463166824786;eduroam;04:bd:88:b7:c7:c0;-71
1463166824786;eduroam;04:bd:88:b7:a7:e0;-72
1463166824786;eduroam;40:e3:d6:7a:ec:40;-76
1463166824787;eduroam;40:e3:d6:7a:ea:a0;-77
1463166824787;eduroam;84:d4:7e:c0:61:e0;-78
1463166824787;eduroam;40:e3:d6:7a:f2:60;-87
1463166824787;eduroam;04:bd:88:b6:96:e0;-87
1463166824788;eduroam;40:e3:d6:7a:f1:20;-90
1463166824788;eduroam;04:bd:88:b7:5d:e0;-91
1463166824788;eduroam;40:e3:d6:7a:d3:c0;-93
1463166824788;Elion-4332BF;00:22:07:43:32:be;-93
1463166824789;eduroam mar;42:b8:37:df:ed:5f;-53
1463166824789;campuswifi;40:e3:d6:7a:eb:e1;-61
1463166824789;campuswifi;04:bd:88:b7:59:c1;-64
1463166824789;campuswifi;40:e3:d6:7a:f2:c1;-68
1463166824790;campuswifi;04:bd:88:b7:c7:c1;-71
1463166824790;campuswifi;04:bd:88:b7:a7:e1;-72
1463166824790;campuswifi;84:d4:7e:c0:61:e1;-77
1463166824790;campuswifi;40:e3:d6:7a:ea:a1;-77
1463166824791;campuswifi;04:bd:88:b6:96:e1;-89
1463166824791;campuswifi;40:e3:d6:7a:f1:21;-89
1463166824791;campuswifi;04:bd:88:b7:5d:e1;-91
1463166824791;campuswifi;40:e3:d6:7a:d3:c1;-93
1463166825654;eduroam;40:e3:d6:7a:eb:e0;-61
1463166825655;eduroam;04:bd:88:b7:5f:40;-64
1463166825655;eduroam;04:bd:88:b7:a7:e0;-69
1463166825655;eduroam;40:e3:d6:7a:f2:c0;-69
1463166825655;eduroam;94:b4:0f:3a:8d:c0;-70
1463166825656;eduroam;04:bd:88:b7:59:c0;-72
1463166825656;eduroam;04:bd:88:b7:c7:c0;-72
1463166825656;eduroam;84:d4:7e:c0:60:20;-82
1463166825656;eduroam;40:e3:d6:7a:f2:60;-84
1463166825657;eduroam;04:bd:88:b7:5d:e0;-90
1463166825657;eduroam mar;42:b8:37:df:ed:5f;-57
1463166825657;campuswifi;40:e3:d6:7a:eb:e1;-60
1463166825657;campuswifi;04:bd:88:b7:5f:41;-65
1463166825658;campuswifi;40:e3:d6:7a:f2:c1;-66
1463166825658;campuswifi;04:bd:88:b7:a7:e1;-68
1463166825658;campuswifi;04:bd:88:b7:c7:c1;-71
1463166825658;campuswifi;04:bd:88:b7:59:c1;-72
1463166825659;campuswifi;84:d4:7e:c0:60:21;-82
1463166825659;campuswifi;40:e3:d6:7a:f2:61;-83
1463166826335;eduroam;04:bd:88:b7:a7:e0;-69
1463166826336;eduroam;94:b4:0f:3a:8d:c0;-70
1463166826336;eduroam;04:bd:88:b7:c7:c0;-71
1463166826336;eduroam;04:bd:88:b7:59:c0;-73
1463166826336;eduroam;84:d4:7e:c0:61:e0;-75
1463166826337;eduroam;40:e3:d6:7a:ec:40;-77
1463166826337;eduroam;40:e3:d6:7a:ea:a0;-80
1463166826337;eduroam;04:bd:88:b7:ca:00;-84
1463166826337;eduroam;04:bd:88:b7:49:a0;-91
1463166826338;eduroam mar;42:b8:37:df:ed:5f;-59
1463166826338;campuswifi;40:e3:d6:7a:eb:e1;-61
1463166826338;campuswifi;04:bd:88:b7:5f:41;-65
1463166826338;campuswifi;40:e3:d6:7a:f2:c1;-66
1463166826339;campuswifi;04:bd:88:b7:a7:e1;-69
1463166826339;campuswifi;04:bd:88:b7:c7:c1;-71
1463166826339;campuswifi;04:bd:88:b7:59:c1;-72
1463166826339;campuswifi;84:d4:7e:c0:61:e1;-75
1463166826340;campuswifi;40:e3:d6:7a:ec:41;-76
1463166826340;campuswifi;40:e3:d6:7a:ea:a1;-80
1463166826340;campuswifi;84:d4:7e:c0:60:21;-80
1463166826340;campuswifi;04:bd:88:b7:ca:01;-84
1463166826341;campuswifi;04:bd:88:b7:55:a1;-91
1463166826341;campuswifi;04:bd:88:b7:49:a1;-91
1463166826341;campuswifi;04:bd:88:b7:4c:c1;-94
1463166827107;eduroam;40:e3:d6:7a:eb:e0;-60
1463166827107;eduroam;04:bd:88:b7:5f:40;-67
1463166827107;eduroam;04:bd:88:b7:a7:e0;-68
1463166827107;eduroam;94:b4:0f:3a:8d:c0;-70
1463166827108;eduroam;40:e3:d6:7a:f2:c0;-70
1463166827108;eduroam;04:bd:88:b7:59:c0;-73
1463166827108;eduroam;40:e3:d6:7a:ec:40;-75
1463166827108;eduroam;84:d4:7e:c0:61:e0;-76
1463166827109;eduroam;84:d4:7e:c0:60:20;-79
1463166827109;eduroam;04:bd:88:b6:f5:e0;-85
1463166827109;eduroam;40:e3:d6:7a:f2:60;-85
1463166827109;eduroam;04:bd:88:b7:49:a0;-89
1463166827110;HUAWEI_Y560-L01_K13O;00:f8:1c:34:ce:3c;-89
1463166827110;eduroam;04:bd:88:b7:d0:60;-90
1463166827113;eduroam;04:bd:88:b7:55:a0;-93
1463166827114;campuswifi;40:e3:d6:7a:eb:e1;-59
1463166827114;eduroam mar;42:b8:37:df:ed:5f;-61
1463166827114;campuswifi;40:e3:d6:7a:f2:c1;-66
1463166827114;campuswifi;04:bd:88:b7:5f:41;-67
1463166827115;campuswifi;04:bd:88:b7:a7:e1;-67
1463166827115;campuswifi;04:bd:88:b7:c7:c1;-71
1463166827115;campuswifi;04:bd:88:b7:59:c1;-73
1463166827115;campuswifi;40:e3:d6:7a:ec:41;-75
1463166827116;campuswifi;84:d4:7e:c0:61:e1;-76
1463166827116;campuswifi;84:d4:7e:c0:60:21;-79
1463166827116;campuswifi;04:bd:88:b6:f5:e1;-85
1463166827116;campuswifi;40:e3:d6:7a:f2:61;-85
1463166827117;campuswifi;04:bd:88:b7:55:a1;-91
1463166827117;campuswifi;04:bd:88:b7:49:a1;-91
1463166827934;eduroam;40:e3:d6:7a:eb:e0;-60
1463166827934;eduroam;04:bd:88:b7:a7:e0;-66
1463166827935;eduroam;04:bd:88:b7:5f:40;-67
1463166827935;eduroam;94:b4:0f:3a:8d:c0;-70
1463166827935;eduroam;04:bd:88:b7:59:c0;-72
1463166827935;eduroam;04:bd:88:b7:c7:c0;-72
1463166827936;eduroam;40:e3:d6:7a:ec:40;-76
1463166827936;eduroam;84:d4:7e:c0:61:e0;-77
1463166827936;HUAWEI_Y560-L01_K13O;00:f8:1c:34:ce:3c;-88
1463166827936;eduroam;04:bd:88:b7:49:a0;-91
1463166827937;RistoKukk;14:cc:20:b2:e6:3e;-91
1463166827937;eduroam;40:e3:d6:7a:d3:c0;-93
1463166827937;eduroam mar;42:b8:37:df:ed:5f;-59
1463166827937;campuswifi;40:e3:d6:7a:eb:e1;-60
1463166827938;campuswifi;04:bd:88:b7:a7:e1;-66
1463166827938;campuswifi;04:bd:88:b7:5f:41;-67
1463166827938;campuswifi;40:e3:d6:7a:f2:c1;-68
1463166827938;campuswifi;04:bd:88:b7:c7:c1;-72
1463166827939;campuswifi;84:d4:7e:c0:61:e1;-76
1463166827939;campuswifi;40:e3:d6:7a:f2:61;-82
1463166827939;campuswifi;04:bd:88:b7:49:a1;-91
1463166828798;eduroam;40:e3:d6:7a:eb:e0;-60
1463166828799;eduroam;04:bd:88:b7:a7:e0;-67
1463166828799;eduroam;40:e3:d6:7a:f2:c0;-69
1463166828799;eduroam;04:bd:88:b7:5f:40;-69
1463166828799;eduroam;94:b4:0f:3a:8d:c0;-70
1463166828800;eduroam;04:bd:88:b7:c7:c0;-72
1463166828800;eduroam;40:e3:d6:7a:ea:a0;-80
1463166828800;eduroam;04:bd:88:b6:f5:e0;-86
1463166828800;eduroam;04:bd:88:b7:ca:00;-87
1463166828801;eduroam;04:bd:88:b7:d0:60;-93
1463166828801;eduroam mar;42:b8:37:df:ed:5f;-58
1463166828801;campuswifi;40:e3:d6:7a:eb:e1;-59
1463166828801;campuswifi;04:bd:88:b7:a7:e1;-67
1463166828802;campuswifi;40:e3:d6:7a:f2:c1;-68
1463166828802;campuswifi;04:bd:88:b7:59:c1;-68
1463166828802;campuswifi;04:bd:88:b7:5f:41;-69
1463166828802;campuswifi;04:bd:88:b7:c7:c1;-71
1463166828803;campuswifi;40:e3:d6:7a:ea:a1;-80
1463166828810;campuswifi;04:bd:88:b6:f5:e1;-85
1463166828813;campuswifi;04:bd:88:b7:ca:01;-86
1463166829635;eduroam;40:e3:d6:7a:eb:e0;-60
1463166829635;eduroam;04:bd:88:b7:a7:e0;-67
1463166829635;eduroam;04:bd:88:b7:5f:40;-67
1463166829636;eduroam;40:e3:d6:7a:f2:c0;-69
1463166829636;eduroam;94:b4:0f:3a:8d:c0;-70
1463166829636;eduroam;04:bd:88:b7:59:c0;-72
1463166829636;eduroam;04:bd:88:b7:c7:c0;-73
1463166829637;eduroam;84:d4:7e:c0:61:e0;-76
1463166829637;eduroam;84:d4:7e:c0:60:20;-79
1463166829637;eduroam;40:e3:d6:7a:f2:60;-84
1463166829637;eduroam;04:bd:88:b7:ca:00;-86
1463166829638;eduroam;04:bd:88:b7:49:a0;-87
1463166829638;eduroam;04:bd:88:b7:5d:e0;-92
1463166829638;eduroam;04:bd:88:b7:d0:60;-93
1463166829638;eduroam mar;42:b8:37:df:ed:5f;-58
1463166829639;campuswifi;40:e3:d6:7a:eb:e1;-59
1463166829639;campuswifi;04:bd:88:b7:a7:e1;-67
1463166829639;campuswifi;04:bd:88:b7:5f:41;-67
1463166829639;campuswifi;40:e3:d6:7a:f2:c1;-69
1463166829640;campuswifi;04:bd:88:b7:59:c1;-71
1463166829640;campuswifi;04:bd:88:b7:c7:c1;-71
1463166829640;campuswifi;84:d4:7e:c0:61:e1;-76
1463166829640;campuswifi;40:e3:d6:7a:ea:a1;-79
1463166829641;campuswifi;84:d4:7e:c0:60:21;-79
1463166829641;campuswifi;40:e3:d6:7a:f2:61;-82
1463166829641;campuswifi;04:bd:88:b7:49:a1;-88
1463166829641;campuswifi;04:bd:88:b7:5d:e1;-91
1463166830384;eduroam;40:e3:d6:7a:eb:e0;-60
1463166830385;eduroam;04:bd:88:b7:a7:e0;-67
1463166830385;eduroam;40:e3:d6:7a:f2:c0;-69
1463166830385;eduroam;94:b4:0f:3a:8d:c0;-70
1463166830385;eduroam;04:bd:88:b7:59:c0;-70
1463166830386;eduroam;04:bd:88:b7:5f:40;-70
1463166830386;eduroam;04:bd:88:b7:c7:c0;-73
1463166830386;eduroam;40:e3:d6:7a:ec:40;-75
1463166830386;eduroam;84:d4:7e:c0:61:e0;-78
1463166830387;eduroam;84:d4:7e:c0:60:20;-80
1463166830387;eduroam;40:e3:d6:7a:ea:a0;-80
1463166830389;eduroam;40:e3:d6:7a:f2:60;-84
1463166830389;HUAWEI_Y560-L01_K13O;00:f8:1c:34:ce:3c;-89
1463166830389;eduroam;04:bd:88:b7:d0:60;-89
1463166830390;eduroam mar;42:b8:37:df:ed:5f;-58
1463166830390;campuswifi;40:e3:d6:7a:eb:e1;-60
1463166830390;campuswifi;04:bd:88:b7:5f:41;-67
1463166830390;campuswifi;04:bd:88:b7:a7:e1;-67
1463166830391;campuswifi;40:e3:d6:7a:f2:c1;-69
1463166830391;campuswifi;04:bd:88:b7:59:c1;-70
1463166830391;campuswifi;04:bd:88:b7:c7:c1;-71
1463166830391;campuswifi;40:e3:d6:7a:ec:41;-74
1463166830392;campuswifi;84:d4:7e:c0:61:e1;-76
1463166830392;campuswifi;84:d4:7e:c0:60:21;-79
1463166830392;campuswifi;40:e3:d6:7a:ea:a1;-80
1463166830392;campuswifi;40:e3:d6:7a:f2:61;-84
1463166830393;campuswifi;04:bd:88:b7:d0:61;-89
1463166831216;eduroam;40:e3:d6:7a:eb:e0;-62
1463166831217;eduroam;04:bd:88:b7:a7:e0;-67
1463166831217;eduroam;04:bd:88:b7:59:c0;-67
1463166831217;eduroam;40:e3:d6:7a:f2:c0;-68
1463166831217;eduroam;94:b4:0f:3a:8d:c0;-70
1463166831218;eduroam;04:bd:88:b7:c7:c0;-72
1463166831218;eduroam;04:bd:88:b7:5f:40;-74
1463166831218;eduroam;40:e3:d6:7a:ec:40;-76
1463166831218;eduroam;40:e3:d6:7a:ea:a0;-77
1463166831219;eduroam;84:d4:7e:c0:61:e0;-78
1463166831219;eduroam;84:d4:7e:c0:60:20;-79
1463166831219;eduroam;04:bd:88:b7:ca:00;-87
1463166831219;HUAWEI_Y560-L01_K13O;00:f8:1c:34:ce:3c;-89
1463166831220;eduroam;04:bd:88:b7:5d:e0;-90
1463166831220;eduroam;04:bd:88:b6:96:e0;-90
1463166831220;eduroam;04:bd:88:b7:55:a0;-91
1463166831220;eduroam;40:e3:d6:7a:d3:c0;-91
1463166831221;RistoKukk;14:cc:20:b2:e6:3e;-91
1463166831221;eduroam mar;42:b8:37:df:ed:5f;-59
1463166831221;campuswifi;40:e3:d6:7a:eb:e1;-61
1463166831221;campuswifi;04:bd:88:b7:a7:e1;-66
1463166831222;campuswifi;04:bd:88:b7:59:c1;-69
1463166831222;campuswifi;04:bd:88:b7:c7:c1;-72
1463166831222;campuswifi;40:e3:d6:7a:ec:41;-76
1463166831222;campuswifi;40:e3:d6:7a:ea:a1;-77
1463166831223;campuswifi;84:d4:7e:c0:60:21;-78
1463166831243;campuswifi;84:d4:7e:c0:61:e1;-78
1463166831244;campuswifi;04:bd:88:b7:55:a1;-93
1463166832005;eduroam;40:e3:d6:7a:eb:e0;-60
1463166832006;eduroam;04:bd:88:b7:a7:e0;-66
1463166832007;eduroam;94:b4:0f:3a:8d:c0;-70
1463166832008;eduroam;04:bd:88:b7:5f:40;-70
1463166832009;eduroam;04:bd:88:b7:59:c0;-70
1463166832010;eduroam;04:bd:88:b7:c7:c0;-71
1463166832011;eduroam;84:d4:7e:c0:61:e0;-77
1463166832012;eduroam;84:d4:7e:c0:60:20;-79
1463166832040;eduroam;04:bd:88:b7:ca:00;-86
1463166832040;eduroam;04:bd:88:b6:f5:e0;-86
1463166832040;HUAWEI_Y560-L01_K13O;00:f8:1c:34:ce:3c;-89
1463166832040;eduroam;04:bd:88:b7:5d:e0;-91
1463166832041;eduroam;04:bd:88:b7:55:a0;-91
1463166832041;eduroam;04:bd:88:b7:49:a0;-93
1463166832041;eduroam;40:e3:d6:7a:d3:c0;-93
1463166832041;eduroam mar;42:b8:37:df:ed:5f;-59
1463166832042;campuswifi;40:e3:d6:7a:eb:e1;-60
1463166832042;campuswifi;04:bd:88:b7:a7:e1;-66
1463166832042;campuswifi;40:e3:d6:7a:f2:c1;-69
1463166832042;campuswifi;04:bd:88:b7:59:c1;-69
1463166832043;campuswifi;04:bd:88:b7:c7:c1;-71
1463166832043;campuswifi;40:e3:d6:7a:ea:a1;-77
1463166832043;campuswifi;84:d4:7e:c0:60:21;-78
1463166832044;campuswifi;40:e3:d6:7a:f2:61;-84
1463166832044;campuswifi;04:bd:88:b7:d0:61;-89
1463166832044;campuswifi;04:bd:88:b7:55:a1;-91
1463166832794;eduroam;40:e3:d6:7a:eb:e0;-60
1463166832794;eduroam;04:bd:88:b7:a7:e0;-66
1463166832794;eduroam;04:bd:88:b7:59:c0;-67
1463166832795;eduroam;94:b4:0f:3a:8d:c0;-70
1463166832795;eduroam;04:bd:88:b7:c7:c0;-72
1463166832795;eduroam;40:e3:d6:7a:ec:40;-76
1463166832795;eduroam;04:bd:88:b7:49:a0;-93
1463166832796;eduroam mar;42:b8:37:df:ed:5f;-59
1463166832796;campuswifi;40:e3:d6:7a:eb:e1;-60
1463166832796;campuswifi;04:bd:88:b7:a7:e1;-66
1463166832796;campuswifi;04:bd:88:b7:c7:c1;-72
1463166832797;campuswifi;40:e3:d6:7a:ec:41;-75
1463166832797;campuswifi;84:d4:7e:c0:61:e1;-76
1463166833551;eduroam;40:e3:d6:7a:eb:e0;-61
1463166833552;eduroam;04:bd:88:b7:5f:40;-66
1463166833552;eduroam;04:bd:88:b7:59:c0;-67
1463166833552;eduroam;04:bd:88:b7:a7:e0;-67
1463166833552;eduroam;40:e3:d6:7a:f2:c0;-69
1463166833553;eduroam;94:b4:0f:3a:8d:c0;-70
1463166833555;eduroam;04:bd:88:b7:c7:c0;-72
1463166833555;eduroam;40:e3:d6:7a:ec:40;-77
1463166833556;eduroam;84:d4:7e:c0:61:e0;-77
1463166833556;eduroam;84:d4:7e:c0:60:20;-80
1463166833557;eduroam;04:bd:88:b7:ca:00;-85
1463166833557;RistoKukk;14:cc:20:b2:e6:3e;-90
1463166833558;eduroam;04:bd:88:5f:65:e0;-91
1463166833559;Elion-4332BF;00:22:07:43:32:be;-96
1463166833559;eduroam mar;42:b8:37:df:ed:5f;-58
1463166833559;campuswifi;40:e3:d6:7a:eb:e1;-61
1463166833560;campuswifi;04:bd:88:b7:a7:e1;-67
1463166833560;campuswifi;04:bd:88:b7:59:c1;-68
1463166833560;campuswifi;04:bd:88:b7:5f:41;-68
1463166833579;campuswifi;40:e3:d6:7a:f2:c1;-68
1463166833580;campuswifi;04:bd:88:b7:c7:c1;-71
1463166833580;campuswifi;40:e3:d6:7a:ec:41;-75
1463166833580;campuswifi;84:d4:7e:c0:61:e1;-76
1463166833580;campuswifi;40:e3:d6:7a:ea:a1;-79
1463166833581;campuswifi;04:bd:88:b7:ca:01;-85
1463166833581;campuswifi;04:bd:88:b6:f5:e1;-86
1463166833581;campuswifi;04:bd:88:5f:65:e1;-90
1463166833582;campuswifi;40:e3:d6:7a:d3:c1;-92
