1459276410095;eduroam;f4:4e:05:79:c8:20;-61
1459276410096;eduroam;f4:4e:05:54:8b:80;-72
1459276410096;eduroam;f4:4e:05:79:cf:50;-81
1459276410096;eduroam;f4:4e:05:0d:e7:80;-82
1459276410097;TP-LINK_ADA1DC;10:fe:ed:ad:a1:dc;-89
1459276410097;SpeedTouch1234;00:90:d0:f3:c0:3a;-91
1459276410098;ut-public;f4:4e:05:79:c8:21;-60
1459276410098;ut-public;f4:4e:05:54:8b:81;-72
1459276410099;ut-public;f4:4e:05:0d:e7:81;-76
1459276410099;ut-public;f4:4e:05:79:cf:51;-81
1459276410100;linksys;00:21:29:a2:34:88;-90
1459276410764;eduroam;f4:4e:05:79:c8:20;-59
1459276410765;eduroam;f4:4e:05:54:8b:80;-72
1459276410765;eduroam;f4:4e:05:0d:e7:80;-78
1459276410766;eduroam;f4:4e:05:79:cf:50;-81
1459276410766;TP-LINK_ADA1DC;10:fe:ed:ad:a1:dc;-88
1459276410766;a;f8:1a:67:53:af:ae;-93
1459276410766;ut-public;f4:4e:05:79:c8:21;-60
1459276410767;ut-public;f4:4e:05:54:8b:81;-72
1459276410767;ut-public;f4:4e:05:0d:e7:81;-78
1459276410776;ut-public;f4:4e:05:79:cf:51;-81
1459276410776;linksys;00:21:29:a2:34:88;-90
1459276411450;eduroam;f4:4e:05:79:c8:20;-60
1459276411451;eduroam;f4:4e:05:54:8b:80;-73
1459276411451;eduroam;f4:4e:05:0d:e7:80;-77
1459276411452;eduroam;f4:4e:05:0d:e6:b0;-87
1459276411452;TP-LINK_ADA1DC;10:fe:ed:ad:a1:dc;-89
1459276411452;Filiae Patriae alumine korrus;00:e0:4b:ca:da:46;-92
1459276411452;SpeedTouch1234;00:90:d0:f3:c0:3a;-93
1459276411453;ut-public;f4:4e:05:79:c8:21;-60
1459276411453;ut-public;f4:4e:05:54:8b:81;-73
1459276411453;ut-public;f4:4e:05:0d:e7:81;-76
1459276411454;ut-public;f4:4e:05:79:cf:51;-81
1459276411454;ut-public;f4:4e:05:0d:e6:b1;-88
1459276411454;linksys;00:21:29:a2:34:88;-93
1459276412192;eduroam;f4:4e:05:79:c8:20;-61
1459276412192;eduroam;f4:4e:05:54:8b:80;-73
1459276412193;eduroam;f4:4e:05:0d:e7:80;-77
1459276412193;eduroam;f4:4e:05:79:cf:50;-81
1459276412193;Elion-4876FA;00:22:07:48:76:f9;-84
1459276412194;eduroam;f4:4e:05:0d:e6:b0;-88
1459276412194;SpeedTouch1234;00:90:d0:f3:c0:3a;-92
1459276412194;ut-public;f4:4e:05:79:c8:21;-61
1459276412194;ut-public;f4:4e:05:54:8b:81;-73
1459276412195;ut-public;f4:4e:05:0d:e7:81;-77
1459276412195;ut-public;f4:4e:05:79:cf:51;-80
1459276412195;ut-public;f4:4e:05:0d:e6:b1;-87
1459276412196;linksys;00:21:29:a2:34:88;-89
1459276412995;eduroam;f4:4e:05:79:c8:20;-60
1459276412996;eduroam;f4:4e:05:54:8b:80;-73
1459276412997;eduroam;f4:4e:05:0d:e7:80;-76
1459276413011;eduroam;f4:4e:05:79:cf:50;-80
1459276413012;eduroam;f4:4e:05:0d:e6:b0;-86
1459276413014;TP-LINK_ADA1DC;10:fe:ed:ad:a1:dc;-87
1459276413015;Trooja1;58:98:35:b6:82:d8;-93
1459276413016;a;f8:1a:67:53:af:ae;-93
1459276413016;SpeedTouch1234;00:90:d0:f3:c0:3a;-93
1459276413016;ut-public;f4:4e:05:79:c8:21;-60
1459276413017;ut-public;f4:4e:05:54:8b:81;-73
1459276413017;ut-public;f4:4e:05:0d:e7:81;-76
1459276413017;ut-public;f4:4e:05:79:cf:51;-80
1459276413021;ut-public;f4:4e:05:0d:e6:b1;-85
1459276413951;eduroam;f4:4e:05:79:c8:20;-59
1459276413951;eduroam;f4:4e:05:54:8b:80;-72
1459276413952;eduroam;f4:4e:05:0d:e7:80;-76
1459276413952;eduroam;f4:4e:05:79:cf:50;-80
1459276413952;Elion-4876FA;00:22:07:48:76:f9;-86
1459276413953;Trooja1;58:98:35:b6:82:d8;-86
1459276413953;eduroam;f4:4e:05:0d:e6:b0;-87
1459276413953;TP-LINK_ADA1DC;10:fe:ed:ad:a1:dc;-89
1459276413953;a;f8:1a:67:53:af:ae;-94
1459276413954;ut-public;f4:4e:05:79:c8:21;-59
1459276413954;ut-public;f4:4e:05:54:8b:81;-72
1459276413954;ut-public;f4:4e:05:0d:e7:81;-76
1459276413954;ut-public;f4:4e:05:79:cf:51;-80
1459276413955;ut-public;f4:4e:05:0d:e6:b1;-87
1459276414922;eduroam;f4:4e:05:79:c8:20;-60
1459276414923;eduroam;f4:4e:05:54:8b:80;-72
1459276414923;eduroam;f4:4e:05:0d:e7:80;-76
1459276414924;eduroam;f4:4e:05:79:cf:50;-80
1459276414924;eduroam;f4:4e:05:0d:e6:b0;-85
1459276414924;Orion Nebula;00:22:07:43:7b:89;-91
1459276414924;Elion-48733F;00:22:07:48:73:3e;-93
1459276414925;ut-public;f4:4e:05:79:c8:21;-60
1459276414925;ut-public;f4:4e:05:54:8b:81;-72
1459276414925;ut-public;f4:4e:05:0d:e7:81;-76
1459276414925;ut-public;f4:4e:05:79:cf:51;-80
1459276414926;ut-public;f4:4e:05:0d:e6:b1;-86
1459276414926;linksys;00:21:29:a2:34:88;-88
1459276415851;eduroam;f4:4e:05:79:c8:20;-60
1459276415852;eduroam;f4:4e:05:54:8b:80;-72
1459276415852;eduroam;f4:4e:05:0d:e7:80;-76
1459276415852;eduroam;f4:4e:05:79:cf:50;-80
1459276415853;eduroam;f4:4e:05:0d:e6:b0;-85
1459276415853;TP-LINK_ADA1DC;10:fe:ed:ad:a1:dc;-89
1459276415853;Orion Nebula;00:22:07:43:7b:89;-91
1459276415853;a;f8:1a:67:53:af:ae;-93
1459276415854;ut-public;f4:4e:05:79:c8:21;-60
1459276415868;ut-public;f4:4e:05:54:8b:81;-72
1459276415868;ut-public;f4:4e:05:0d:e7:81;-77
1459276415868;ut-public;f4:4e:05:0d:e6:b1;-85
1459276416813;eduroam;f4:4e:05:79:c8:20;-60
1459276416813;eduroam;f4:4e:05:54:8b:80;-72
1459276416813;eduroam;f4:4e:05:0d:e7:80;-76
1459276416813;eduroam;f4:4e:05:79:cf:50;-80
1459276416814;eduroam;f4:4e:05:0d:e6:b0;-86
1459276416814;Elion-4876FA;00:22:07:48:76:f9;-87
1459276416814;Orion Nebula;00:22:07:43:7b:89;-91
1459276416814;Trooja1;58:98:35:b6:82:d8;-93
1459276416815;ut-public;f4:4e:05:79:c8:21;-60
1459276416815;ut-public;f4:4e:05:54:8b:81;-72
1459276416815;ut-public;f4:4e:05:0d:e7:81;-76
1459276416816;ut-public;f4:4e:05:79:cf:51;-79
1459276416816;linksys;00:21:29:a2:34:88;-86
1459276416816;ut-public;f4:4e:05:0d:e6:b1;-86
1459276417631;eduroam;f4:4e:05:79:c8:20;-62
1459276417631;eduroam;f4:4e:05:54:8b:80;-73
1459276417631;eduroam;f4:4e:05:0d:e7:80;-77
1459276417632;eduroam;f4:4e:05:0d:e6:b0;-85
1459276417632;TP-LINK_ADA1DC;10:fe:ed:ad:a1:dc;-86
1459276417632;Elion-4876FA;00:22:07:48:76:f9;-87
1459276417634;Orion Nebula;00:22:07:43:7b:89;-91
1459276417634;a;f8:1a:67:53:af:ae;-93
1459276417635;ut-public;f4:4e:05:79:c8:21;-62
1459276417635;ut-public;f4:4e:05:54:8b:81;-73
1459276417635;ut-public;f4:4e:05:0d:e7:81;-77
1459276417635;ut-public;f4:4e:05:79:cf:51;-80
1459276417636;linksys;00:21:29:a2:34:88;-85
1459276417636;ut-public;f4:4e:05:0d:e6:b1;-86
1459276418561;eduroam;f4:4e:05:79:c8:20;-60
1459276418562;eduroam;f4:4e:05:54:8b:80;-73
1459276418562;eduroam;f4:4e:05:0d:e7:80;-77
1459276418562;eduroam;f4:4e:05:79:cf:50;-80
1459276418562;Elion-4876FA;00:22:07:48:76:f9;-85
1459276418563;TP-LINK_ADA1DC;10:fe:ed:ad:a1:dc;-87
1459276418563;Filiae Patriae alumine korrus;00:e0:4b:ca:da:46;-93
1459276418563;a;f8:1a:67:53:af:ae;-93
1459276418564;ut-public;f4:4e:05:79:c8:21;-59
1459276418564;ut-public;f4:4e:05:54:8b:81;-72
1459276418564;ut-public;f4:4e:05:0d:e7:81;-76
1459276418564;ut-public;f4:4e:05:79:cf:51;-82
1459276418565;linksys;00:21:29:a2:34:88;-85
1459276419450;eduroam;f4:4e:05:79:c8:20;-59
1459276419451;eduroam;f4:4e:05:54:8b:80;-74
1459276419451;eduroam;f4:4e:05:0d:e7:80;-77
1459276419451;eduroam;f4:4e:05:79:cf:50;-81
1459276419451;eduroam;f4:4e:05:0d:e6:b0;-85
1459276419452;TP-LINK_ADA1DC;10:fe:ed:ad:a1:dc;-86
1459276419452;ut-public;f4:4e:05:79:c8:21;-59
1459276419452;ut-public;f4:4e:05:54:8b:81;-73
1459276419453;ut-public;f4:4e:05:0d:e7:81;-77
1459276419453;ut-public;f4:4e:05:79:cf:51;-81
1459276419453;ut-public;f4:4e:05:0d:e6:b1;-85
1459276419453;linksys;00:21:29:a2:34:88;-86
1459276420310;eduroam;f4:4e:05:79:c8:20;-59
1459276420310;eduroam;f4:4e:05:54:8b:80;-74
1459276420310;eduroam;f4:4e:05:0d:e7:80;-78
1459276420310;eduroam;f4:4e:05:79:cf:50;-81
1459276420311;eduroam;f4:4e:05:0d:e6:b0;-85
1459276420311;Elion-4876FA;00:22:07:48:76:f9;-85
1459276420311;TP-LINK_ADA1DC;10:fe:ed:ad:a1:dc;-87
1459276420311;Orion Nebula;00:22:07:43:7b:89;-91
1459276420312;Trooja1;58:98:35:b6:82:d8;-93
1459276420312;SpeedTouch1234;00:90:d0:f3:c0:3a;-94
1459276420312;ut-public;f4:4e:05:79:c8:21;-59
1459276420326;ut-public;f4:4e:05:54:8b:81;-74
1459276420327;ut-public;f4:4e:05:0d:e7:81;-78
1459276420327;ut-public;f4:4e:05:79:cf:51;-81
1459276420329;ut-public;f4:4e:05:0d:e6:b1;-86
1459276420330;linksys;00:21:29:a2:34:88;-87
1459276421259;eduroam;f4:4e:05:79:c8:20;-60
1459276421259;eduroam;f4:4e:05:54:8b:80;-74
1459276421259;eduroam;f4:4e:05:0d:e7:80;-77
1459276421260;eduroam;f4:4e:05:79:cf:50;-81
1459276421260;Elion-4876FA;00:22:07:48:76:f9;-87
1459276421260;eduroam;f4:4e:05:0d:e6:b0;-87
1459276421260;TP-LINK_ADA1DC;10:fe:ed:ad:a1:dc;-88
1459276421261;Orion Nebula;00:22:07:43:7b:89;-91
1459276421261;Trooja1;58:98:35:b6:82:d8;-91
1459276421261;a;f8:1a:67:53:af:ae;-93
1459276421262;ut-public;f4:4e:05:79:c8:21;-60
1459276421262;ut-public;f4:4e:05:54:8b:81;-74
1459276421262;ut-public;f4:4e:05:0d:e7:81;-78
1459276421263;ut-public;f4:4e:05:79:cf:51;-81
1459276421263;linksys;00:21:29:a2:34:88;-84
1459276421263;ut-public;f4:4e:05:0d:e6:b1;-86
1459276422037;eduroam;f4:4e:05:79:c8:20;-62
1459276422038;eduroam;f4:4e:05:54:8b:80;-74
1459276422038;eduroam;f4:4e:05:0d:e7:80;-77
1459276422038;eduroam;f4:4e:05:0d:e6:b0;-85
1459276422038;TP-LINK_ADA1DC;10:fe:ed:ad:a1:dc;-86
1459276422039;Elion-4876FA;00:22:07:48:76:f9;-87
1459276422039;a;f8:1a:67:53:af:ae;-89
1459276422039;Orion Nebula;00:22:07:43:7b:89;-91
1459276422039;Elion-48733F;00:22:07:48:73:3e;-93
1459276422040;ut-public;f4:4e:05:79:c8:21;-62
1459276422040;ut-public;f4:4e:05:54:8b:81;-74
1459276422040;ut-public;f4:4e:05:0d:e7:81;-76
1459276422041;ut-public;f4:4e:05:79:cf:51;-79
1459276422041;linksys;00:21:29:a2:34:88;-84
1459276422772;eduroam;f4:4e:05:79:c8:20;-61
1459276422772;eduroam;f4:4e:05:54:8b:80;-72
1459276422773;eduroam;f4:4e:05:0d:e7:80;-77
1459276422773;eduroam;f4:4e:05:79:cf:50;-80
1459276422773;Elion-4876FA;00:22:07:48:76:f9;-86
1459276422774;eduroam;f4:4e:05:0d:e6:b0;-86
1459276422774;TP-LINK_ADA1DC;10:fe:ed:ad:a1:dc;-87
1459276422774;Orion Nebula;00:22:07:43:7b:89;-91
1459276422779;ut-public;f4:4e:05:79:c8:21;-61
1459276422780;ut-public;f4:4e:05:54:8b:81;-74
1459276422780;ut-public;f4:4e:05:0d:e7:81;-76
1459276422780;ut-public;f4:4e:05:79:cf:51;-80
1459276422780;linksys;00:21:29:a2:34:88;-84
1459276422781;ut-public;f4:4e:05:0d:e6:b1;-85
1459276423494;eduroam;f4:4e:05:79:c8:20;-61
1459276423494;eduroam;f4:4e:05:54:8b:80;-72
1459276423494;eduroam;f4:4e:05:0d:e7:80;-77
1459276423495;a;f8:1a:67:53:af:ae;-94
1459276423495;ut-public;f4:4e:05:79:c8:21;-61
1459276423495;ut-public;f4:4e:05:54:8b:81;-72
1459276423495;ut-public;f4:4e:05:0d:e7:81;-76
1459276423496;linksys;00:21:29:a2:34:88;-85
1459276424162;eduroam;f4:4e:05:79:c8:20;-61
1459276424162;eduroam;f4:4e:05:54:8b:80;-73
1459276424162;eduroam;f4:4e:05:0d:e7:80;-77
1459276424163;eduroam;f4:4e:05:79:cf:50;-80
1459276424163;eduroam;f4:4e:05:0d:e6:b0;-86
1459276424163;TP-LINK_ADA1DC;10:fe:ed:ad:a1:dc;-86
1459276424163;Elion-4876FA;00:22:07:48:76:f9;-86
1459276424164;Trooja1;58:98:35:b6:82:d8;-94
1459276424164;SpeedTouch1234;00:90:d0:f3:c0:3a;-95
1459276424164;Elion12E;00:22:07:3a:41:2d;-95
1459276424164;ut-public;f4:4e:05:79:c8:21;-61
1459276424165;ut-public;f4:4e:05:54:8b:81;-73
1459276424165;ut-public;f4:4e:05:0d:e7:81;-76
1459276424165;ut-public;f4:4e:05:79:cf:51;-79
1459276424165;ut-public;f4:4e:05:0d:e6:b1;-85
1459276424166;linksys;00:21:29:a2:34:88;-85
1459276424904;eduroam;f4:4e:05:79:c8:20;-62
1459276424905;eduroam;f4:4e:05:54:8b:80;-72
1459276424905;eduroam;f4:4e:05:0d:e7:80;-78
1459276424905;eduroam;f4:4e:05:79:cf:50;-80
1459276424906;eduroam;f4:4e:05:0d:e6:b0;-85
1459276424906;Elion-4876FA;00:22:07:48:76:f9;-87
1459276424906;TP-LINK_ADA1DC;10:fe:ed:ad:a1:dc;-88
1459276424906;Orion Nebula;00:22:07:43:7b:89;-91
1459276424907;a;f8:1a:67:53:af:ae;-93
1459276424907;ut-public;f4:4e:05:79:c8:21;-61
1459276424907;ut-public;f4:4e:05:54:8b:81;-72
1459276424909;ut-public;f4:4e:05:0d:e7:81;-77
1459276424909;ut-public;f4:4e:05:79:cf:51;-80
1459276424909;linksys;00:21:29:a2:34:88;-85
1459276425618;eduroam;f4:4e:05:79:c8:20;-61
1459276425618;eduroam;f4:4e:05:54:8b:80;-72
1459276425619;eduroam;f4:4e:05:0d:e7:80;-76
1459276425619;eduroam;f4:4e:05:79:cf:50;-80
1459276425619;eduroam;f4:4e:05:0d:e6:b0;-86
1459276425619;Orion Nebula;00:22:07:43:7b:89;-91
1459276425620;Elion-48733F;00:22:07:48:73:3e;-95
1459276425620;ut-public;f4:4e:05:79:c8:21;-62
1459276425620;ut-public;f4:4e:05:54:8b:81;-72
1459276425621;ut-public;f4:4e:05:79:cf:51;-80
1459276425633;linksys;00:21:29:a2:34:88;-84
1459276425633;ut-public;f4:4e:05:0d:e6:b1;-85
1459276426348;eduroam;f4:4e:05:79:c8:20;-62
1459276426349;eduroam;f4:4e:05:54:8b:80;-73
1459276426349;eduroam;f4:4e:05:0d:e7:80;-76
1459276426349;eduroam;f4:4e:05:79:cf:50;-80
1459276426349;eduroam;f4:4e:05:0d:e6:b0;-85
1459276426350;TP-LINK_ADA1DC;10:fe:ed:ad:a1:dc;-86
1459276426350;Orion Nebula;00:22:07:43:7b:89;-91
1459276426350;a;f8:1a:67:53:af:ae;-93
1459276426350;ut-public;f4:4e:05:79:c8:21;-62
1459276426351;ut-public;f4:4e:05:54:8b:81;-73
1459276426351;ut-public;f4:4e:05:0d:e7:81;-75
1459276426351;ut-public;f4:4e:05:79:cf:51;-80
1459276426351;linksys;00:21:29:a2:34:88;-83
1459276426352;ut-public;f4:4e:05:0d:e6:b1;-85
1459276427065;eduroam;f4:4e:05:79:c8:20;-63
1459276427065;eduroam;f4:4e:05:54:8b:80;-73
1459276427065;eduroam;f4:4e:05:0d:e7:80;-77
1459276427066;eduroam;f4:4e:05:79:cf:50;-81
1459276427066;eduroam;f4:4e:05:0d:e6:b0;-84
1459276427066;TP-LINK_ADA1DC;10:fe:ed:ad:a1:dc;-86
1459276427066;a;f8:1a:67:53:af:ae;-93
1459276427067;ut-public;f4:4e:05:79:c8:21;-63
1459276427067;ut-public;f4:4e:05:54:8b:81;-73
1459276427067;ut-public;f4:4e:05:0d:e7:81;-76
1459276427081;ut-public;f4:4e:05:79:cf:51;-81
1459276427081;linksys;00:21:29:a2:34:88;-84
1459276427082;ut-public;f4:4e:05:0d:e6:b1;-85
1459276427828;eduroam;f4:4e:05:79:c8:20;-62
1459276427828;eduroam;f4:4e:05:54:8b:80;-73
1459276427828;eduroam;f4:4e:05:0d:e7:80;-77
1459276427829;eduroam;f4:4e:05:79:cf:50;-80
1459276427829;eduroam;f4:4e:05:0d:e6:b0;-84
1459276427829;TP-LINK_ADA1DC;10:fe:ed:ad:a1:dc;-86
1459276427830;a;f8:1a:67:53:af:ae;-92
1459276427830;Elion-48733F;00:22:07:48:73:3e;-94
1459276427830;Filiae Patriae alumine korrus;00:e0:4b:ca:da:46;-95
1459276427830;ut-public;f4:4e:05:79:c8:21;-62
1459276427831;ut-public;f4:4e:05:54:8b:81;-73
1459276427831;ut-public;f4:4e:05:0d:e7:81;-77
1459276427831;ut-public;f4:4e:05:79:cf:51;-80
1459276427831;ut-public;f4:4e:05:0d:e6:b1;-84
1459276427832;linksys;00:21:29:a2:34:88;-85
1459276428611;eduroam;f4:4e:05:79:c8:20;-61
1459276428612;eduroam;f4:4e:05:54:8b:80;-72
1459276428612;eduroam;f4:4e:05:0d:e7:80;-77
1459276428612;eduroam;f4:4e:05:79:cf:50;-80
1459276428612;eduroam;f4:4e:05:0d:e6:b0;-85
1459276428613;TP-LINK_ADA1DC;10:fe:ed:ad:a1:dc;-87
1459276428613;Elion-4876FA;00:22:07:48:76:f9;-87
1459276428613;Trooja1;58:98:35:b6:82:d8;-91
1459276428613;a;f8:1a:67:53:af:ae;-93
1459276428614;ut-public;f4:4e:05:79:c8:21;-61
1459276428614;ut-public;f4:4e:05:54:8b:81;-73
1459276428616;ut-public;f4:4e:05:0d:e7:81;-77
1459276428617;ut-public;f4:4e:05:79:cf:51;-80
1459276428617;linksys;00:21:29:a2:34:88;-82
1459276428617;ut-public;f4:4e:05:0d:e6:b1;-85
1459276429340;eduroam;f4:4e:05:79:c8:20;-63
1459276429340;eduroam;f4:4e:05:54:8b:80;-72
1459276429340;eduroam;f4:4e:05:0d:e7:80;-77
1459276429340;eduroam;f4:4e:05:79:cf:50;-80
1459276429341;Elion-4876FA;00:22:07:48:76:f9;-85
1459276429341;eduroam;f4:4e:05:0d:e6:b0;-85
1459276429341;Orion Nebula;00:22:07:43:7b:89;-90
1459276429342;a;f8:1a:67:53:af:ae;-93
1459276429346;ut-public;f4:4e:05:79:c8:21;-63
1459276429346;ut-public;f4:4e:05:54:8b:81;-72
1459276429347;ut-public;f4:4e:05:0d:e7:81;-76
1459276429347;ut-public;f4:4e:05:79:cf:51;-80
1459276429347;linksys;00:21:29:a2:34:88;-84
1459276429347;ut-public;f4:4e:05:0d:e6:b1;-84
1459276430076;eduroam;f4:4e:05:79:c8:20;-63
1459276430077;eduroam;f4:4e:05:54:8b:80;-73
1459276430077;eduroam;f4:4e:05:0d:e7:80;-76
1459276430083;eduroam;f4:4e:05:79:cf:50;-80
1459276430084;eduroam;f4:4e:05:0d:e6:b0;-84
1459276430084;Elion-4876FA;00:22:07:48:76:f9;-86
1459276430085;TP-LINK_ADA1DC;10:fe:ed:ad:a1:dc;-87
1459276430085;Orion Nebula;00:22:07:43:7b:89;-90
1459276430085;Trooja1;58:98:35:b6:82:d8;-93
1459276430086;a;f8:1a:67:53:af:ae;-93
1459276430101;SpeedTouch1234;00:90:d0:f3:c0:3a;-94
1459276430101;ut-public;f4:4e:05:79:c8:21;-63
1459276430101;ut-public;f4:4e:05:54:8b:81;-73
1459276430101;ut-public;f4:4e:05:0d:e7:81;-76
1459276430102;ut-public;f4:4e:05:79:cf:51;-80
1459276430102;linksys;00:21:29:a2:34:88;-84
1459276430102;ut-public;f4:4e:05:0d:e6:b1;-84
1459276430847;eduroam;f4:4e:05:79:c8:20;-66
1459276430848;eduroam;f4:4e:05:54:8b:80;-73
1459276430848;eduroam;f4:4e:05:0d:e7:80;-76
1459276430848;eduroam;f4:4e:05:79:cf:50;-80
1459276430849;TP-LINK_ADA1DC;10:fe:ed:ad:a1:dc;-86
1459276430849;Trooja1;58:98:35:b6:82:d8;-89
1459276430849;a;f8:1a:67:53:af:ae;-91
1459276430849;Orion Nebula;00:22:07:43:7b:89;-91
1459276430850;Filiae Patriae alumine korrus;00:e0:4b:ca:da:46;-93
1459276430850;ut-public;f4:4e:05:79:c8:21;-63
1459276430850;ut-public;f4:4e:05:54:8b:81;-73
1459276430851;ut-public;f4:4e:05:0d:e7:81;-76
1459276430851;ut-public;f4:4e:05:79:cf:51;-80
1459276430851;linksys;00:21:29:a2:34:88;-84
1459276430851;ut-public;f4:4e:05:0d:e6:b1;-85
1459276431650;eduroam;f4:4e:05:79:c8:20;-63
1459276431651;eduroam;f4:4e:05:54:8b:80;-72
1459276431651;eduroam;f4:4e:05:0d:e7:80;-76
1459276431651;eduroam;f4:4e:05:79:cf:50;-80
1459276431652;Elion-4876FA;00:22:07:48:76:f9;-85
1459276431652;eduroam;f4:4e:05:0d:e6:b0;-85
1459276431676;TP-LINK_ADA1DC;10:fe:ed:ad:a1:dc;-86
1459276431676;Orion Nebula;00:22:07:43:7b:89;-91
1459276431676;SpeedTouch1234;00:90:d0:f3:c0:3a;-93
1459276431676;a;f8:1a:67:53:af:ae;-93
1459276431677;ut-public;f4:4e:05:79:c8:21;-63
1459276431677;ut-public;f4:4e:05:54:8b:81;-72
1459276431678;ut-public;f4:4e:05:0d:e7:81;-75
1459276431678;ut-public;f4:4e:05:79:cf:51;-80
1459276431678;linksys;00:21:29:a2:34:88;-84
1459276431678;ut-public;f4:4e:05:0d:e6:b1;-85
1459276432495;eduroam;f4:4e:05:79:c8:20;-64
1459276432495;eduroam;f4:4e:05:54:8b:80;-71
1459276432495;eduroam;f4:4e:05:0d:e7:80;-76
1459276432495;eduroam;f4:4e:05:79:cf:50;-80
1459276432496;TP-LINK_ADA1DC;10:fe:ed:ad:a1:dc;-88
1459276432499;Orion Nebula;00:22:07:43:7b:89;-91
1459276432500;a;f8:1a:67:53:af:ae;-93
1459276432500;ut-public;f4:4e:05:79:c8:21;-63
1459276432500;ut-public;f4:4e:05:54:8b:81;-72
1459276432500;ut-public;f4:4e:05:0d:e7:81;-76
1459276432501;ut-public;f4:4e:05:79:cf:51;-80
1459276432501;linksys;00:21:29:a2:34:88;-85
1459276432501;ut-public;f4:4e:05:0d:e6:b1;-85
1459276433221;eduroam;f4:4e:05:79:c8:20;-63
1459276433221;eduroam;f4:4e:05:54:8b:80;-72
1459276433221;eduroam;f4:4e:05:0d:e7:80;-76
1459276433222;eduroam;f4:4e:05:79:cf:50;-80
1459276433222;eduroam;f4:4e:05:0d:e6:b0;-85
1459276433233;TP-LINK_ADA1DC;10:fe:ed:ad:a1:dc;-86
1459276433234;Trooja1;58:98:35:b6:82:d8;-91
1459276433234;Filiae Patriae alumine korrus;00:e0:4b:ca:da:46;-92
1459276433234;a;f8:1a:67:53:af:ae;-93
1459276433235;ut-public;f4:4e:05:79:c8:21;-63
1459276433235;ut-public;f4:4e:05:54:8b:81;-72
1459276433235;ut-public;f4:4e:05:0d:e7:81;-76
1459276433235;ut-public;f4:4e:05:79:cf:51;-80
1459276433236;ut-public;f4:4e:05:0d:e6:b1;-84
1459276433236;linksys;00:21:29:a2:34:88;-85
1459276433978;eduroam;f4:4e:05:79:c8:20;-62
1459276433978;eduroam;f4:4e:05:54:8b:80;-72
1459276433979;eduroam;f4:4e:05:0d:e7:80;-77
1459276433979;eduroam;f4:4e:05:79:cf:50;-80
1459276433979;eduroam;f4:4e:05:0d:e6:b0;-85
1459276433979;Elion-4876FA;00:22:07:48:76:f9;-86
1459276433980;TP-LINK_ADA1DC;10:fe:ed:ad:a1:dc;-87
1459276433980;Trooja1;58:98:35:b6:82:d8;-90
1459276433980;a;f8:1a:67:53:af:ae;-93
1459276433980;ut-public;f4:4e:05:79:c8:21;-62
1459276433981;ut-public;f4:4e:05:54:8b:81;-72
1459276433981;ut-public;f4:4e:05:0d:e7:81;-76
1459276433981;ut-public;f4:4e:05:79:cf:51;-80
1459276433981;linksys;00:21:29:a2:34:88;-84
1459276433982;ut-public;f4:4e:05:0d:e6:b1;-85
1459276434829;eduroam;f4:4e:05:79:c8:20;-63
1459276434830;eduroam;f4:4e:05:54:8b:80;-73
1459276434830;eduroam;f4:4e:05:0d:e7:80;-75
1459276434830;eduroam;f4:4e:05:79:cf:50;-80
1459276434830;eduroam;f4:4e:05:0d:e6:b0;-85
1459276434831;TP-LINK_ADA1DC;10:fe:ed:ad:a1:dc;-87
1459276434831;Orion Nebula;00:22:07:43:7b:89;-90
1459276434831;a;f8:1a:67:53:af:ae;-93
1459276434831;ut-public;f4:4e:05:79:c8:21;-63
1459276434832;ut-public;f4:4e:05:54:8b:81;-73
1459276434832;ut-public;f4:4e:05:0d:e7:81;-75
1459276434832;ut-public;f4:4e:05:79:cf:51;-80
1459276434832;linksys;00:21:29:a2:34:88;-83
1459276435577;eduroam;f4:4e:05:79:c8:20;-62
1459276435577;eduroam;f4:4e:05:54:8b:80;-73
1459276435578;eduroam;f4:4e:05:0d:e7:80;-77
1459276435578;eduroam;f4:4e:05:79:cf:50;-80
1459276435578;eduroam;f4:4e:05:0d:e6:b0;-84
1459276435579;TP-LINK_ADA1DC;10:fe:ed:ad:a1:dc;-86
1459276435579;Trooja1;58:98:35:b6:82:d8;-90
1459276435579;SpeedTouch1234;00:90:d0:f3:c0:3a;-93
1459276435579;a;f8:1a:67:53:af:ae;-93
1459276435580;ut-public;f4:4e:05:79:c8:21;-62
1459276435580;ut-public;f4:4e:05:54:8b:81;-74
1459276435580;ut-public;f4:4e:05:0d:e7:81;-76
1459276435580;ut-public;f4:4e:05:79:cf:51;-80
1459276435581;linksys;00:21:29:a2:34:88;-84
1459276435581;ut-public;f4:4e:05:0d:e6:b1;-85
1459276436349;eduroam;f4:4e:05:79:c8:20;-62
1459276436349;eduroam;f4:4e:05:54:8b:80;-73
1459276436350;eduroam;f4:4e:05:0d:e7:80;-76
1459276436350;eduroam;f4:4e:05:79:cf:50;-80
1459276436350;TP-LINK_ADA1DC;10:fe:ed:ad:a1:dc;-86
1459276436351;a;f8:1a:67:53:af:ae;-92
1459276436351;ut-public;f4:4e:05:79:c8:21;-62
1459276436351;ut-public;f4:4e:05:54:8b:81;-73
1459276436351;ut-public;f4:4e:05:0d:e7:81;-76
1459276436352;ut-public;f4:4e:05:79:cf:51;-80
1459276436352;linksys;00:21:29:a2:34:88;-84
1459276437057;eduroam;f4:4e:05:79:c8:20;-63
1459276437057;eduroam;f4:4e:05:54:8b:80;-74
1459276437058;eduroam;f4:4e:05:0d:e7:80;-76
1459276437058;eduroam;f4:4e:05:79:cf:50;-81
1459276437058;eduroam;f4:4e:05:0d:e6:b0;-85
1459276437058;TP-LINK_ADA1DC;10:fe:ed:ad:a1:dc;-86
1459276437059;Elion-4876FA;00:22:07:48:76:f9;-86
1459276437059;Orion Nebula;00:22:07:43:7b:89;-92
1459276437059;a;f8:1a:67:53:af:ae;-93
1459276437060;Trooja1;58:98:35:b6:82:d8;-93
1459276437060;SpeedTouch1234;00:90:d0:f3:c0:3a;-94
1459276437060;ut-public;f4:4e:05:79:c8:21;-63
1459276437060;ut-public;f4:4e:05:54:8b:81;-74
1459276437061;ut-public;f4:4e:05:0d:e7:81;-76
1459276437061;ut-public;f4:4e:05:79:cf:51;-80
1459276437061;linksys;00:21:29:a2:34:88;-85
1459276437061;ut-public;f4:4e:05:0d:e6:b1;-85
1459276437802;eduroam;f4:4e:05:79:c8:20;-63
1459276437802;eduroam;f4:4e:05:54:8b:80;-74
1459276437802;eduroam;f4:4e:05:0d:e7:80;-77
1459276437803;eduroam;f4:4e:05:79:cf:50;-80
1459276437803;TP-LINK_ADA1DC;10:fe:ed:ad:a1:dc;-85
1459276437803;eduroam;f4:4e:05:0d:e6:b0;-85
1459276437808;Trooja1;58:98:35:b6:82:d8;-92
1459276437808;Orion Nebula;00:22:07:43:7b:89;-92
1459276437808;a;f8:1a:67:53:af:ae;-93
1459276437810;ut-public;f4:4e:05:79:c8:21;-63
1459276437811;ut-public;f4:4e:05:54:8b:81;-74
1459276437811;ut-public;f4:4e:05:0d:e7:81;-76
1459276437826;ut-public;f4:4e:05:79:cf:51;-81
1459276437827;linksys;00:21:29:a2:34:88;-84
1459276437827;ut-public;f4:4e:05:0d:e6:b1;-85
1459276438500;eduroam;f4:4e:05:79:c8:20;-62
1459276438500;eduroam;f4:4e:05:54:8b:80;-74
1459276438500;eduroam;f4:4e:05:0d:e7:80;-76
1459276438501;eduroam;f4:4e:05:79:cf:50;-81
1459276438501;TP-LINK_ADA1DC;10:fe:ed:ad:a1:dc;-85
1459276438501;ut-public;f4:4e:05:79:c8:21;-62
1459276438501;ut-public;f4:4e:05:54:8b:81;-74
1459276438502;ut-public;f4:4e:05:0d:e7:81;-76
1459276438502;ut-public;f4:4e:05:79:cf:51;-80
1459276438502;linksys;00:21:29:a2:34:88;-84
1459276439259;eduroam;f4:4e:05:79:c8:20;-61
1459276439260;eduroam;f4:4e:05:54:8b:80;-73
1459276439260;eduroam;f4:4e:05:0d:e7:80;-78
1459276439260;eduroam;f4:4e:05:79:cf:50;-80
1459276439260;eduroam;f4:4e:05:0d:e6:b0;-84
1459276439261;TP-LINK_ADA1DC;10:fe:ed:ad:a1:dc;-86
1459276439261;Orion Nebula;00:22:07:43:7b:89;-92
1459276439261;Trooja1;58:98:35:b6:82:d8;-93
1459276439261;ut-public;f4:4e:05:79:c8:21;-61
1459276439262;ut-public;f4:4e:05:54:8b:81;-73
1459276439262;ut-public;f4:4e:05:0d:e7:81;-76
1459276439262;ut-public;f4:4e:05:79:cf:51;-80
1459276439262;linksys;00:21:29:a2:34:88;-84
1459276439263;ut-public;f4:4e:05:0d:e6:b1;-85
1459276440021;eduroam;f4:4e:05:79:c8:20;-62
1459276440022;eduroam;f4:4e:05:54:8b:80;-73
1459276440022;eduroam;f4:4e:05:0d:e7:80;-77
1459276440022;eduroam;f4:4e:05:79:cf:50;-79
1459276440023;eduroam;f4:4e:05:0d:e6:b0;-85
1459276440023;TP-LINK_ADA1DC;10:fe:ed:ad:a1:dc;-87
1459276440023;Elion-4876FA;00:22:07:48:76:f9;-88
1459276440023;Orion Nebula;00:22:07:43:7b:89;-91
1459276440024;a;f8:1a:67:53:af:ae;-91
1459276440024;ut-public;f4:4e:05:79:c8:21;-62
1459276440024;ut-public;f4:4e:05:54:8b:81;-73
1459276440024;ut-public;f4:4e:05:0d:e7:81;-77
1459276440025;ut-public;f4:4e:05:79:cf:51;-80
1459276440025;ut-public;f4:4e:05:0d:e6:b1;-85
1459276440025;linksys;00:21:29:a2:34:88;-85
1459276440663;eduroam;f4:4e:05:79:c8:20;-63
1459276440663;eduroam;f4:4e:05:0d:e7:80;-76
1459276440663;eduroam;f4:4e:05:79:cf:50;-80
1459276440664;ut-public;f4:4e:05:79:c8:21;-63
1459276440664;ut-public;f4:4e:05:54:8b:81;-73
1459276440664;ut-public;f4:4e:05:0d:e7:81;-76
1459276440665;ut-public;f4:4e:05:79:cf:51;-80
1459276440665;linksys;00:21:29:a2:34:88;-83
1459276441357;eduroam;f4:4e:05:79:c8:20;-63
1459276441358;eduroam;f4:4e:05:54:8b:80;-73
1459276441358;eduroam;f4:4e:05:0d:e7:80;-76
1459276441358;eduroam;f4:4e:05:79:cf:50;-80
1459276441359;eduroam;f4:4e:05:0d:e6:b0;-84
1459276441359;TP-LINK_ADA1DC;10:fe:ed:ad:a1:dc;-86
1459276441359;ut-public;f4:4e:05:79:c8:21;-63
1459276441359;ut-public;f4:4e:05:54:8b:81;-74
1459276441360;ut-public;f4:4e:05:0d:e7:81;-76
1459276441360;ut-public;f4:4e:05:79:cf:51;-80
1459276441360;ut-public;f4:4e:05:0d:e6:b1;-84
1459276441373;linksys;00:21:29:a2:34:88;-85
1459276442081;eduroam;f4:4e:05:79:c8:20;-63
1459276442082;eduroam;f4:4e:05:54:8b:80;-73
1459276442082;eduroam;f4:4e:05:0d:e7:80;-78
1459276442083;eduroam;f4:4e:05:79:cf:50;-80
1459276442083;eduroam;f4:4e:05:0d:e6:b0;-85
1459276442083;TP-LINK_ADA1DC;10:fe:ed:ad:a1:dc;-86
1459276442084;Trooja1;58:98:35:b6:82:d8;-91
1459276442084;Orion Nebula;00:22:07:43:7b:89;-92
1459276442084;a;f8:1a:67:53:af:ae;-94
1459276442085;SpeedTouch1234;00:90:d0:f3:c0:3a;-94
1459276442085;ut-public;f4:4e:05:79:c8:21;-64
1459276442086;ut-public;f4:4e:05:54:8b:81;-73
1459276442086;ut-public;f4:4e:05:0d:e7:81;-76
1459276442086;ut-public;f4:4e:05:79:cf:51;-80
1459276442087;linksys;00:21:29:a2:34:88;-84
1459276442087;ut-public;f4:4e:05:0d:e6:b1;-85
1459276442788;eduroam;f4:4e:05:79:c8:20;-64
1459276442788;eduroam;f4:4e:05:54:8b:80;-73
1459276442789;eduroam;f4:4e:05:0d:e7:80;-77
1459276442789;eduroam;f4:4e:05:79:cf:50;-80
1459276442789;eduroam;f4:4e:05:0d:e6:b0;-85
1459276442789;TP-LINK_ADA1DC;10:fe:ed:ad:a1:dc;-86
1459276442790;Filiae Patriae alumine korrus;00:e0:4b:ca:da:46;-94
1459276442790;ut-public;f4:4e:05:79:c8:21;-63
1459276442790;ut-public;f4:4e:05:54:8b:81;-73
1459276442790;ut-public;f4:4e:05:0d:e7:81;-77
1459276442791;ut-public;f4:4e:05:79:cf:51;-80
1459276442791;linksys;00:21:29:a2:34:88;-85
1459276442791;ut-public;f4:4e:05:0d:e6:b1;-85
1459276443570;eduroam;f4:4e:05:79:c8:20;-62
1459276443570;eduroam;f4:4e:05:54:8b:80;-72
1459276443570;eduroam;f4:4e:05:0d:e7:80;-74
1459276443570;eduroam;f4:4e:05:79:cf:50;-80
1459276443571;TP-LINK_ADA1DC;10:fe:ed:ad:a1:dc;-87
1459276443571;Trooja1;58:98:35:b6:82:d8;-90
1459276443571;Orion Nebula;00:22:07:43:7b:89;-91
1459276443572;a;f8:1a:67:53:af:ae;-94
1459276443572;ut-public;f4:4e:05:79:c8:21;-63
1459276443572;ut-public;f4:4e:05:0d:e7:81;-74
1459276443572;ut-public;f4:4e:05:54:8b:81;-75
1459276443573;ut-public;f4:4e:05:79:cf:51;-80
1459276443573;linksys;00:21:29:a2:34:88;-85
1459276443573;ut-public;f4:4e:05:0d:e6:b1;-85
1459276444339;eduroam;f4:4e:05:79:c8:20;-63
1459276444339;eduroam;f4:4e:05:54:8b:80;-72
1459276444340;eduroam;f4:4e:05:0d:e7:80;-74
1459276444340;eduroam;f4:4e:05:79:cf:50;-80
1459276444340;eduroam;f4:4e:05:0d:e6:b0;-84
1459276444340;TP-LINK_ADA1DC;10:fe:ed:ad:a1:dc;-86
1459276444341;Elion-4876FA;00:22:07:48:76:f9;-86
1459276444341;Orion Nebula;00:22:07:43:7b:89;-91
1459276444341;SpeedTouch1234;00:90:d0:f3:c0:3a;-93
1459276444341;ut-public;f4:4e:05:79:c8:21;-62
1459276444342;ut-public;f4:4e:05:54:8b:81;-73
1459276444342;ut-public;f4:4e:05:0d:e7:81;-74
1459276444342;ut-public;f4:4e:05:79:cf:51;-80
1459276444343;linksys;00:21:29:a2:34:88;-84
1459276444343;ut-public;f4:4e:05:0d:e6:b1;-85
1459276445065;eduroam;f4:4e:05:79:c8:20;-63
1459276445065;eduroam;f4:4e:05:54:8b:80;-73
1459276445066;eduroam;f4:4e:05:0d:e7:80;-75
1459276445066;eduroam;f4:4e:05:79:cf:50;-80
1459276445066;TP-LINK_ADA1DC;10:fe:ed:ad:a1:dc;-85
1459276445067;eduroam;f4:4e:05:0d:e6:b0;-85
1459276445067;SpeedTouch1234;00:90:d0:f3:c0:3a;-94
1459276445067;ut-public;f4:4e:05:79:c8:21;-63
1459276445067;ut-public;f4:4e:05:54:8b:81;-73
1459276445068;ut-public;f4:4e:05:0d:e7:81;-75
1459276445068;ut-public;f4:4e:05:79:cf:51;-80
1459276445068;linksys;00:21:29:a2:34:88;-84
1459276445068;ut-public;f4:4e:05:0d:e6:b1;-85
1459276445815;eduroam;f4:4e:05:79:c8:20;-63
1459276445816;eduroam;f4:4e:05:54:8b:80;-74
1459276445816;eduroam;f4:4e:05:0d:e7:80;-75
1459276445816;eduroam;f4:4e:05:79:cf:50;-80
1459276445816;TP-LINK_ADA1DC;10:fe:ed:ad:a1:dc;-85
1459276445817;a;f8:1a:67:53:af:ae;-93
1459276445817;ut-public;f4:4e:05:79:c8:21;-63
1459276445817;ut-public;f4:4e:05:54:8b:81;-74
1459276445828;ut-public;f4:4e:05:0d:e7:81;-75
1459276445828;ut-public;f4:4e:05:79:cf:51;-81
1459276445828;linksys;00:21:29:a2:34:88;-84
1459276445829;ut-public;f4:4e:05:0d:e6:b1;-85
1459276446598;eduroam;f4:4e:05:79:c8:20;-63
1459276446598;eduroam;f4:4e:05:0d:e7:80;-74
1459276446599;eduroam;f4:4e:05:54:8b:80;-74
1459276446599;eduroam;f4:4e:05:79:cf:50;-79
1459276446599;TP-LINK_ADA1DC;10:fe:ed:ad:a1:dc;-84
1459276446599;eduroam;f4:4e:05:0d:e6:b0;-85
1459276446600;Elion-4876FA;00:22:07:48:76:f9;-89
1459276446600;a;f8:1a:67:53:af:ae;-91
1459276446600;Orion Nebula;00:22:07:43:7b:89;-91
1459276446601;ut-public;f4:4e:05:79:c8:21;-62
1459276446601;ut-public;f4:4e:05:54:8b:81;-74
1459276446601;ut-public;f4:4e:05:0d:e7:81;-74
1459276446601;ut-public;f4:4e:05:79:cf:51;-80
1459276446602;linksys;00:21:29:a2:34:88;-84
1459276446602;ut-public;f4:4e:05:0d:e6:b1;-84
1459276447402;eduroam;f4:4e:05:79:c8:20;-63
1459276447402;eduroam;f4:4e:05:0d:e7:80;-74
1459276447402;eduroam;f4:4e:05:54:8b:80;-74
1459276447403;eduroam;f4:4e:05:79:cf:50;-80
1459276447403;eduroam;f4:4e:05:0d:e6:b0;-84
1459276447403;TP-LINK_ADA1DC;10:fe:ed:ad:a1:dc;-85
1459276447403;a;f8:1a:67:53:af:ae;-93
1459276447404;ut-public;f4:4e:05:79:c8:21;-63
1459276447404;ut-public;f4:4e:05:54:8b:81;-74
1459276447404;ut-public;f4:4e:05:0d:e7:81;-75
1459276447404;ut-public;f4:4e:05:79:cf:51;-81
1459276447405;linksys;00:21:29:a2:34:88;-84
1459276447405;ut-public;f4:4e:05:0d:e6:b1;-86
1459276448128;eduroam;f4:4e:05:79:c8:20;-64
1459276448129;eduroam;f4:4e:05:0d:e7:80;-75
1459276448129;eduroam;f4:4e:05:54:8b:80;-75
1459276448129;eduroam;f4:4e:05:79:cf:50;-80
1459276448130;TP-LINK_ADA1DC;10:fe:ed:ad:a1:dc;-85
1459276448130;eduroam;f4:4e:05:0d:e6:b0;-85
1459276448130;Orion Nebula;00:22:07:43:7b:89;-91
1459276448131;SpeedTouch1234;00:90:d0:f3:c0:3a;-93
1459276448131;Elion-48733F;00:22:07:48:73:3e;-96
1459276448131;ut-public;f4:4e:05:79:c8:21;-64
1459276448132;ut-public;f4:4e:05:0d:e7:81;-75
1459276448132;ut-public;f4:4e:05:54:8b:81;-75
1459276448132;ut-public;f4:4e:05:79:cf:51;-81
1459276448133;ut-public;f4:4e:05:0d:e6:b1;-84
1459276448133;linksys;00:21:29:a2:34:88;-85
