1459276496179;eduroam;f4:4e:05:79:c8:20;-47
1459276496179;eduroam;f4:4e:05:54:8b:80;-74
1459276496180;Trooja1;58:98:35:b6:82:d8;-87
1459276496180;ut-public;f4:4e:05:79:c8:21;-47
1459276496180;ut-public;f4:4e:05:54:8b:81;-75
1459276496180;ut-public;f4:4e:05:0d:e7:81;-77
1459276496181;ut-public;f4:4e:05:79:cf:51;-83
1459276496181;linksys;00:21:29:a2:34:88;-91
1459276496926;eduroam;f4:4e:05:79:c8:20;-49
1459276496927;eduroam;f4:4e:05:54:8b:80;-74
1459276496927;eduroam;f4:4e:05:0d:e7:80;-77
1459276496927;eduroam;f4:4e:05:79:cf:50;-83
1459276496933;eduroam;f4:4e:05:0d:e6:b0;-84
1459276496933;SpeedTouch1234;00:90:d0:f3:c0:3a;-88
1459276496934;TP-LINK_ADA1DC;10:fe:ed:ad:a1:dc;-91
1459276496934;Vintsberg;08:76:ff:ca:2f:31;-91
1459276496934;a;f8:1a:67:53:af:ae;-93
1459276496935;ut-public;f4:4e:05:79:c8:21;-48
1459276496935;ut-public;f4:4e:05:54:8b:81;-74
1459276496935;ut-public;f4:4e:05:0d:e7:81;-77
1459276496935;ut-public;f4:4e:05:79:cf:51;-83
1459276496936;ut-public;f4:4e:05:0d:e6:b1;-84
1459276496936;ut-public;00:19:07:c5:33:81;-87
1459276497703;eduroam;f4:4e:05:79:c8:20;-48
1459276497704;eduroam;f4:4e:05:54:8b:80;-75
1459276497704;eduroam;f4:4e:05:0d:e7:80;-78
1459276497705;eduroam;f4:4e:05:0d:e6:b0;-82
1459276497705;eduroam;f4:4e:05:79:cf:50;-83
1459276497705;Trooja1;58:98:35:b6:82:d8;-89
1459276497705;a;f8:1a:67:53:af:ae;-91
1459276497706;Elion-4876FA;00:22:07:48:76:f9;-93
1459276497706;TP-LINK_ADA1DC;10:fe:ed:ad:a1:dc;-94
1459276497706;AndroidAP;20:64:32:8a:54:da;-95
1459276497706;ut-public;f4:4e:05:79:c8:21;-48
1459276497707;ut-public;f4:4e:05:54:8b:81;-75
1459276497707;ut-public;f4:4e:05:0d:e7:81;-78
1459276497721;ut-public;f4:4e:05:0d:e6:b1;-85
1459276497722;linksys;00:21:29:a2:34:88;-90
1459276498444;eduroam;f4:4e:05:79:c8:20;-48
1459276498445;eduroam;f4:4e:05:54:8b:80;-74
1459276498445;eduroam;f4:4e:05:0d:e7:80;-75
1459276498446;eduroam;f4:4e:05:79:cf:50;-82
1459276498446;eduroam;f4:4e:05:0d:e6:b0;-86
1459276498446;Trooja1;58:98:35:b6:82:d8;-87
1459276498447;Elion-48733F;00:22:07:48:73:3e;-89
1459276498447;SpeedTouch1234;00:90:d0:f3:c0:3a;-89
1459276498447;TP-LINK_ADA1DC;10:fe:ed:ad:a1:dc;-91
1459276498449;a;f8:1a:67:53:af:ae;-91
1459276498450;ut-public;f4:4e:05:79:c8:21;-47
1459276498451;ut-public;f4:4e:05:54:8b:81;-75
1459276498451;ut-public;f4:4e:05:0d:e7:81;-75
1459276498452;ut-public;f4:4e:05:79:cf:51;-81
1459276498452;ut-public;f4:4e:05:0d:e6:b1;-85
1459276498452;linksys;00:21:29:a2:34:88;-90
1459276499241;eduroam;f4:4e:05:79:c8:20;-48
1459276499242;eduroam;f4:4e:05:54:8b:80;-74
1459276499242;eduroam;f4:4e:05:0d:e7:80;-74
1459276499242;eduroam;f4:4e:05:79:cf:50;-81
1459276499243;eduroam;f4:4e:05:0d:e6:b0;-84
1459276499243;SpeedTouch1234;00:90:d0:f3:c0:3a;-89
1459276499244;ut-public;f4:4e:05:79:c8:21;-48
1459276499244;ut-public;f4:4e:05:0d:e7:81;-74
1459276499244;ut-public;f4:4e:05:54:8b:81;-74
1459276499244;ut-public;f4:4e:05:79:cf:51;-81
1459276499245;ut-public;f4:4e:05:0d:e6:b1;-84
1459276499245;linksys;00:21:29:a2:34:88;-89
1459276499900;eduroam;f4:4e:05:79:c8:20;-48
1459276499901;eduroam;f4:4e:05:54:8b:80;-74
1459276499901;eduroam;f4:4e:05:0d:e7:80;-74
1459276499901;eduroam;f4:4e:05:79:cf:50;-81
1459276499902;eduroam;f4:4e:05:0d:e6:b0;-83
1459276499902;SpeedTouch1234;00:90:d0:f3:c0:3a;-87
1459276499902;Trooja1;58:98:35:b6:82:d8;-88
1459276499903;Elion-4876FA;00:22:07:48:76:f9;-89
1459276499903;Elion-48733F;00:22:07:48:73:3e;-91
1459276499903;ut-public;f4:4e:05:79:c8:21;-48
1459276499903;ut-public;f4:4e:05:0d:e7:81;-73
1459276499904;ut-public;f4:4e:05:54:8b:81;-74
1459276499904;ut-public;f4:4e:05:79:cf:51;-81
1459276499904;ut-public;f4:4e:05:0d:e6:b1;-83
1459276500594;eduroam;f4:4e:05:79:c8:20;-49
1459276500595;eduroam;f4:4e:05:54:8b:80;-74
1459276500595;eduroam;f4:4e:05:0d:e7:80;-75
1459276500596;eduroam;f4:4e:05:79:cf:50;-81
1459276500596;eduroam;f4:4e:05:0d:e6:b0;-83
1459276500597;eduroam;00:19:07:c5:33:80;-85
1459276500597;Vintsberg;08:76:ff:ca:2f:31;-91
1459276500601;a;f8:1a:67:53:af:ae;-92
1459276500604;ut-public;f4:4e:05:79:c8:21;-48
1459276500605;ut-public;f4:4e:05:0d:e7:81;-74
1459276500608;ut-public;f4:4e:05:54:8b:81;-75
1459276500612;ut-public;f4:4e:05:79:cf:51;-82
1459276500612;ut-public;f4:4e:05:0d:e6:b1;-83
1459276501288;eduroam;f4:4e:05:79:c8:20;-49
1459276501288;eduroam;f4:4e:05:54:8b:80;-73
1459276501289;eduroam;f4:4e:05:79:cf:50;-81
1459276501289;eduroam;f4:4e:05:0d:e6:b0;-83
1459276501289;Trooja1;58:98:35:b6:82:d8;-86
1459276501290;ut-public;f4:4e:05:79:c8:21;-49
1459276501290;ut-public;f4:4e:05:0d:e7:81;-74
1459276501290;ut-public;f4:4e:05:54:8b:81;-74
1459276501290;ut-public;f4:4e:05:79:cf:51;-81
1459276501291;ut-public;f4:4e:05:0d:e6:b1;-84
1459276502041;eduroam;f4:4e:05:79:c8:20;-49
1459276502042;eduroam;f4:4e:05:54:8b:80;-72
1459276502042;eduroam;f4:4e:05:0d:e7:80;-73
1459276502042;eduroam;f4:4e:05:79:cf:50;-81
1459276502043;eduroam;f4:4e:05:0d:e6:b0;-82
1459276502043;Trooja1;58:98:35:b6:82:d8;-85
1459276502043;TP-LINK_ADA1DC;10:fe:ed:ad:a1:dc;-91
1459276502043;Elion-48733F;00:22:07:48:73:3e;-91
1459276502044;a;f8:1a:67:53:af:ae;-92
1459276502044;Thomson8F653B;58:98:35:8f:65:3b;-95
1459276502044;ut-public;f4:4e:05:79:c8:21;-49
1459276502044;ut-public;f4:4e:05:54:8b:81;-73
1459276502045;ut-public;f4:4e:05:0d:e7:81;-73
1459276502045;ut-public;f4:4e:05:79:cf:51;-80
1459276502045;ut-public;f4:4e:05:0d:e6:b1;-82
1459276502881;eduroam;f4:4e:05:79:c8:20;-49
1459276502882;eduroam;f4:4e:05:54:8b:80;-72
1459276502882;eduroam;f4:4e:05:0d:e7:80;-73
1459276502882;eduroam;f4:4e:05:79:cf:50;-81
1459276502882;eduroam;f4:4e:05:0d:e6:b0;-82
1459276502883;Trooja1;58:98:35:b6:82:d8;-85
1459276502883;SpeedTouch1234;00:90:d0:f3:c0:3a;-87
1459276502883;a;f8:1a:67:53:af:ae;-89
1459276502883;TP-LINK_ADA1DC;10:fe:ed:ad:a1:dc;-89
1459276502884;Elion-4876FA;00:22:07:48:76:f9;-90
1459276502884;Elion-48733F;00:22:07:48:73:3e;-95
1459276502884;ut-public;f4:4e:05:79:c8:21;-49
1459276502900;ut-public;f4:4e:05:54:8b:81;-72
1459276502901;ut-public;f4:4e:05:0d:e7:81;-73
1459276502901;ut-public;f4:4e:05:79:cf:51;-81
1459276502902;ut-public;f4:4e:05:0d:e6:b1;-82
1459276502902;linksys;00:21:29:a2:34:88;-91
1459276503569;eduroam;f4:4e:05:79:c8:20;-49
1459276503569;eduroam;f4:4e:05:54:8b:80;-72
1459276503570;eduroam;f4:4e:05:0d:e7:80;-74
1459276503570;eduroam;f4:4e:05:79:cf:50;-81
1459276503570;SpeedTouch1234;00:90:d0:f3:c0:3a;-87
1459276503571;Elion-4876FA;00:22:07:48:76:f9;-89
1459276503571;Thomson8F653B;58:98:35:8f:65:3b;-93
1459276503571;ut-public;f4:4e:05:79:c8:21;-49
1459276503571;ut-public;f4:4e:05:54:8b:81;-73
1459276503572;ut-public;f4:4e:05:0d:e7:81;-74
1459276503572;ut-public;f4:4e:05:79:cf:51;-81
1459276504345;eduroam;f4:4e:05:79:c8:20;-49
1459276504346;eduroam;f4:4e:05:54:8b:80;-73
1459276504346;eduroam;f4:4e:05:0d:e7:80;-74
1459276504346;eduroam;f4:4e:05:0d:e6:b0;-80
1459276504347;eduroam;f4:4e:05:79:cf:50;-81
1459276504347;Trooja1;58:98:35:b6:82:d8;-87
1459276504347;SpeedTouch1234;00:90:d0:f3:c0:3a;-88
1459276504351;Elion-4876FA;00:22:07:48:76:f9;-91
1459276504351;a;f8:1a:67:53:af:ae;-91
1459276504351;TP-LINK_ADA1DC;10:fe:ed:ad:a1:dc;-92
1459276504352;ut-public;f4:4e:05:79:c8:21;-49
1459276504352;ut-public;f4:4e:05:0d:e7:81;-74
1459276504352;ut-public;f4:4e:05:54:8b:81;-74
1459276504352;ut-public;f4:4e:05:79:cf:51;-81
1459276504353;linksys;00:21:29:a2:34:88;-88
1459276505079;eduroam;f4:4e:05:79:c8:20;-49
1459276505079;eduroam;f4:4e:05:54:8b:80;-73
1459276505079;eduroam;f4:4e:05:0d:e7:80;-74
1459276505079;eduroam;f4:4e:05:79:cf:50;-81
1459276505080;eduroam;f4:4e:05:0d:e6:b0;-83
1459276505080;Trooja1;58:98:35:b6:82:d8;-87
1459276505080;SpeedTouch1234;00:90:d0:f3:c0:3a;-89
1459276505081;a;f8:1a:67:53:af:ae;-91
1459276505082;Elion-48733F;00:22:07:48:73:3e;-91
1459276505082;TP-LINK_ADA1DC;10:fe:ed:ad:a1:dc;-93
1459276505082;Elion-4876FA;00:22:07:48:76:f9;-93
1459276505083;ut-public;f4:4e:05:79:c8:21;-48
1459276505083;ut-public;f4:4e:05:0d:e7:81;-73
1459276505083;ut-public;f4:4e:05:54:8b:81;-74
1459276505094;ut-public;f4:4e:05:79:cf:51;-81
1459276505095;ut-public;f4:4e:05:0d:e6:b1;-83
1459276505095;linksys;00:21:29:a2:34:88;-89
1459276505882;eduroam;f4:4e:05:79:c8:20;-49
1459276505882;eduroam;f4:4e:05:0d:e7:80;-74
1459276505883;eduroam;f4:4e:05:54:8b:80;-74
1459276505883;eduroam;f4:4e:05:0d:e6:b0;-82
1459276505884;eduroam;00:19:07:c5:33:80;-84
1459276505884;Trooja1;58:98:35:b6:82:d8;-86
1459276505884;SpeedTouch1234;00:90:d0:f3:c0:3a;-87
1459276505884;a;f8:1a:67:53:af:ae;-89
1459276505885;TP-LINK_ADA1DC;10:fe:ed:ad:a1:dc;-91
1459276505885;Vintsberg;08:76:ff:ca:2f:31;-91
1459276505885;Elion-48733F;00:22:07:48:73:3e;-91
1459276505885;ut-public;f4:4e:05:79:c8:21;-48
1459276505886;ut-public;f4:4e:05:54:8b:81;-74
1459276505886;ut-public;f4:4e:05:0d:e7:81;-74
1459276505886;ut-public;00:19:07:c5:33:81;-83
1459276505886;ut-public;f4:4e:05:0d:e6:b1;-83
1459276505901;linksys;00:21:29:a2:34:88;-89
1459276506738;eduroam;f4:4e:05:79:c8:20;-49
1459276506738;eduroam;f4:4e:05:54:8b:80;-73
1459276506739;eduroam;f4:4e:05:0d:e7:80;-74
1459276506739;eduroam;f4:4e:05:0d:e6:b0;-83
1459276506739;Trooja1;58:98:35:b6:82:d8;-87
1459276506739;SpeedTouch1234;00:90:d0:f3:c0:3a;-88
1459276506740;Elion-4876FA;00:22:07:48:76:f9;-90
1459276506740;a;f8:1a:67:53:af:ae;-92
1459276506740;Vintsberg;08:76:ff:ca:2f:31;-93
1459276506740;Thomson8F653B;58:98:35:8f:65:3b;-95
1459276506744;ut-public;f4:4e:05:79:c8:21;-48
1459276506744;ut-public;f4:4e:05:54:8b:81;-73
1459276506745;ut-public;f4:4e:05:0d:e7:81;-74
1459276506745;ut-public;f4:4e:05:79:cf:51;-81
1459276506745;ut-public;f4:4e:05:0d:e6:b1;-82
1459276506745;linksys;00:21:29:a2:34:88;-89
1459276507428;eduroam;f4:4e:05:79:c8:20;-49
1459276507429;eduroam;f4:4e:05:0d:e7:80;-73
1459276507429;eduroam;f4:4e:05:54:8b:80;-73
1459276507429;eduroam;f4:4e:05:79:cf:50;-81
1459276507429;eduroam;f4:4e:05:0d:e6:b0;-83
1459276507430;ut-public;f4:4e:05:79:c8:21;-48
1459276507430;ut-public;f4:4e:05:54:8b:81;-73
1459276507430;ut-public;f4:4e:05:0d:e7:81;-74
1459276507430;ut-public;f4:4e:05:79:cf:51;-81
1459276507431;ut-public;f4:4e:05:0d:e6:b1;-82
1459276508250;eduroam;f4:4e:05:79:c8:20;-48
1459276508250;eduroam;f4:4e:05:0d:e7:80;-74
1459276508251;eduroam;f4:4e:05:54:8b:80;-74
1459276508251;eduroam;f4:4e:05:79:cf:50;-81
1459276508251;eduroam;f4:4e:05:0d:e6:b0;-83
1459276508251;SpeedTouch1234;00:90:d0:f3:c0:3a;-87
1459276508252;Trooja1;58:98:35:b6:82:d8;-87
1459276508252;Elion-48733F;00:22:07:48:73:3e;-91
1459276508252;TP-LINK_ADA1DC;10:fe:ed:ad:a1:dc;-91
1459276508252;a;f8:1a:67:53:af:ae;-93
1459276508253;Filiae Patriae alumine korrus;00:e0:4b:ca:da:46;-93
1459276508253;ut-public;f4:4e:05:79:c8:21;-48
1459276508253;ut-public;f4:4e:05:54:8b:81;-73
1459276508253;ut-public;f4:4e:05:0d:e7:81;-74
1459276508280;ut-public;f4:4e:05:79:cf:51;-81
1459276508281;ut-public;f4:4e:05:0d:e6:b1;-82
1459276508971;eduroam;f4:4e:05:79:c8:20;-48
1459276508971;eduroam;f4:4e:05:54:8b:80;-73
1459276508972;eduroam;f4:4e:05:0d:e7:80;-74
1459276508972;eduroam;f4:4e:05:79:cf:50;-81
1459276508972;Trooja1;58:98:35:b6:82:d8;-87
1459276508972;Elion-4876FA;00:22:07:48:76:f9;-87
1459276508973;SpeedTouch1234;00:90:d0:f3:c0:3a;-89
1459276508973;a;f8:1a:67:53:af:ae;-91
1459276508973;ut-public;f4:4e:05:79:c8:21;-48
1459276508976;ut-public;f4:4e:05:54:8b:81;-72
1459276508976;ut-public;f4:4e:05:0d:e7:81;-74
1459276508976;ut-public;f4:4e:05:79:cf:51;-81
1459276508976;ut-public;00:19:07:c5:33:81;-85
1459276508977;linksys;00:21:29:a2:34:88;-89
1459276509683;eduroam;f4:4e:05:79:c8:20;-48
1459276509684;eduroam;f4:4e:05:54:8b:80;-72
1459276509684;eduroam;f4:4e:05:0d:e7:80;-74
1459276509684;eduroam;f4:4e:05:79:cf:50;-81
1459276509685;Elion-4876FA;00:22:07:48:76:f9;-87
1459276509685;Trooja1;58:98:35:b6:82:d8;-87
1459276509688;SpeedTouch1234;00:90:d0:f3:c0:3a;-89
1459276509688;Vintsberg;08:76:ff:ca:2f:31;-91
1459276509688;a;f8:1a:67:53:af:ae;-93
1459276509689;TP-LINK_ADA1DC;10:fe:ed:ad:a1:dc;-95
1459276509689;ut-public;f4:4e:05:79:c8:21;-48
1459276509689;ut-public;f4:4e:05:54:8b:81;-73
1459276509689;ut-public;f4:4e:05:0d:e7:81;-74
1459276509690;ut-public;f4:4e:05:79:cf:51;-81
1459276509690;linksys;00:21:29:a2:34:88;-89
1459276510451;eduroam;f4:4e:05:79:c8:20;-48
1459276510452;eduroam;f4:4e:05:54:8b:80;-73
1459276510452;eduroam;f4:4e:05:0d:e7:80;-74
1459276510452;eduroam;f4:4e:05:79:cf:50;-81
1459276510452;eduroam;f4:4e:05:0d:e6:b0;-83
1459276510453;Elion-48733F;00:22:07:48:73:3e;-91
1459276510453;Elion-4876FA;00:22:07:48:76:f9;-91
1459276510453;a;f8:1a:67:53:af:ae;-91
1459276510453;TP-LINK_ADA1DC;10:fe:ed:ad:a1:dc;-93
1459276510454;ut-public;f4:4e:05:79:c8:21;-48
1459276510454;ut-public;f4:4e:05:54:8b:81;-73
1459276510454;ut-public;f4:4e:05:0d:e7:81;-74
1459276510455;ut-public;f4:4e:05:79:cf:51;-81
1459276510455;ut-public;f4:4e:05:0d:e6:b1;-83
1459276511191;eduroam;f4:4e:05:79:c8:20;-48
1459276511191;eduroam;f4:4e:05:54:8b:80;-73
1459276511192;eduroam;f4:4e:05:0d:e7:80;-74
1459276511192;eduroam;f4:4e:05:79:cf:50;-80
1459276511192;eduroam;f4:4e:05:0d:e6:b0;-82
1459276511193;Trooja1;58:98:35:b6:82:d8;-88
1459276511194;SpeedTouch1234;00:90:d0:f3:c0:3a;-89
1459276511194;a;f8:1a:67:53:af:ae;-93
1459276511194;Thomson8F653B;58:98:35:8f:65:3b;-96
1459276511194;ut-public;f4:4e:05:79:c8:21;-48
1459276511195;ut-public;f4:4e:05:54:8b:81;-73
1459276511195;ut-public;f4:4e:05:0d:e7:81;-74
1459276511195;ut-public;f4:4e:05:79:cf:51;-81
1459276511195;ut-public;f4:4e:05:0d:e6:b1;-83
1459276511196;linksys;00:21:29:a2:34:88;-93
1459276511994;eduroam;f4:4e:05:79:c8:20;-48
1459276511994;eduroam;f4:4e:05:54:8b:80;-73
1459276511995;eduroam;f4:4e:05:0d:e7:80;-74
1459276511995;eduroam;f4:4e:05:79:cf:50;-81
1459276511995;eduroam;f4:4e:05:0d:e6:b0;-83
1459276511995;Elion-4876FA;00:22:07:48:76:f9;-87
1459276511996;SpeedTouch1234;00:90:d0:f3:c0:3a;-89
1459276511996;Trooja1;58:98:35:b6:82:d8;-90
1459276511996;Elion-48733F;00:22:07:48:73:3e;-91
1459276511996;Filiae Patriae alumine korrus;00:e0:4b:ca:da:46;-91
1459276511997;a;f8:1a:67:53:af:ae;-93
1459276511997;ut-public;f4:4e:05:79:c8:21;-48
1459276511997;ut-public;f4:4e:05:54:8b:81;-73
1459276511998;ut-public;f4:4e:05:0d:e7:81;-74
1459276511998;ut-public;f4:4e:05:79:cf:51;-81
1459276511999;ut-public;f4:4e:05:0d:e6:b1;-83
1459276512803;eduroam;f4:4e:05:79:c8:20;-48
1459276512803;eduroam;f4:4e:05:0d:e7:80;-74
1459276512803;eduroam;f4:4e:05:54:8b:80;-74
1459276512804;eduroam;f4:4e:05:79:cf:50;-81
1459276512804;eduroam;f4:4e:05:0d:e6:b0;-83
1459276512804;Elion-4876FA;00:22:07:48:76:f9;-86
1459276512805;eduroam;00:19:07:c5:33:80;-86
1459276512805;Trooja1;58:98:35:b6:82:d8;-90
1459276512806;a;f8:1a:67:53:af:ae;-94
1459276512806;ut-public;f4:4e:05:79:c8:21;-49
1459276512806;ut-public;f4:4e:05:54:8b:81;-73
1459276512807;ut-public;f4:4e:05:0d:e7:81;-74
1459276512807;ut-public;f4:4e:05:79:cf:51;-81
1459276512807;ut-public;f4:4e:05:0d:e6:b1;-83
1459276513560;eduroam;f4:4e:05:79:c8:20;-48
1459276513560;eduroam;f4:4e:05:0d:e7:80;-74
1459276513561;eduroam;f4:4e:05:54:8b:80;-74
1459276513561;eduroam;f4:4e:05:79:cf:50;-80
1459276513561;eduroam;f4:4e:05:0d:e6:b0;-83
1459276513561;Elion-4876FA;00:22:07:48:76:f9;-89
1459276513562;Elion-48733F;00:22:07:48:73:3e;-91
1459276513562;a;f8:1a:67:53:af:ae;-93
1459276513562;ut-public;f4:4e:05:79:c8:21;-48
1459276513562;ut-public;f4:4e:05:54:8b:81;-73
1459276513563;ut-public;f4:4e:05:0d:e7:81;-74
1459276513563;ut-public;f4:4e:05:79:cf:51;-80
1459276513563;ut-public;f4:4e:05:0d:e6:b1;-84
1459276513563;linksys;00:21:29:a2:34:88;-91
1459276514292;eduroam;f4:4e:05:79:c8:20;-48
1459276514293;eduroam;f4:4e:05:0d:e7:80;-74
1459276514293;eduroam;f4:4e:05:54:8b:80;-74
1459276514293;eduroam;f4:4e:05:79:cf:50;-80
1459276514293;eduroam;f4:4e:05:0d:e6:b0;-83
1459276514294;SpeedTouch1234;00:90:d0:f3:c0:3a;-87
1459276514294;Trooja1;58:98:35:b6:82:d8;-90
1459276514294;Elion-4876FA;00:22:07:48:76:f9;-90
1459276514295;Elion-48733F;00:22:07:48:73:3e;-91
1459276514295;a;f8:1a:67:53:af:ae;-94
1459276514295;ut-public;f4:4e:05:79:c8:21;-49
1459276514295;ut-public;f4:4e:05:54:8b:81;-73
1459276514296;ut-public;f4:4e:05:0d:e7:81;-74
1459276514296;ut-public;f4:4e:05:79:cf:51;-81
1459276514296;ut-public;f4:4e:05:0d:e6:b1;-83
1459276514982;eduroam;f4:4e:05:79:c8:20;-49
1459276514982;eduroam;f4:4e:05:54:8b:80;-72
1459276514982;eduroam;f4:4e:05:0d:e7:80;-74
1459276514982;eduroam;f4:4e:05:79:cf:50;-81
1459276514983;eduroam;f4:4e:05:0d:e6:b0;-83
1459276514983;Elion-4876FA;00:22:07:48:76:f9;-89
1459276514983;TP-LINK_ADA1DC;10:fe:ed:ad:a1:dc;-93
1459276514984;a;f8:1a:67:53:af:ae;-93
1459276514996;Thomson8F653B;58:98:35:8f:65:3b;-96
1459276514997;ut-public;f4:4e:05:79:c8:21;-49
1459276514997;ut-public;f4:4e:05:54:8b:81;-73
1459276514997;ut-public;f4:4e:05:0d:e7:81;-74
1459276514997;ut-public;f4:4e:05:79:cf:51;-80
1459276514998;ut-public;00:19:07:c5:33:81;-84
1459276514998;linksys;00:21:29:a2:34:88;-90
1459276515783;eduroam;f4:4e:05:79:c8:20;-48
1459276515784;eduroam;f4:4e:05:0d:e7:80;-74
1459276515784;eduroam;f4:4e:05:79:cf:50;-80
1459276515784;eduroam;f4:4e:05:0d:e6:b0;-84
1459276515784;Elion-4876FA;00:22:07:48:76:f9;-87
1459276515785;SpeedTouch1234;00:90:d0:f3:c0:3a;-89
1459276515785;Elion-48733F;00:22:07:48:73:3e;-91
1459276515785;a;f8:1a:67:53:af:ae;-93
1459276515785;ut-public;f4:4e:05:79:c8:21;-48
1459276515786;ut-public;f4:4e:05:0d:e7:81;-74
1459276515786;ut-public;f4:4e:05:79:cf:51;-80
1459276515786;ut-public;00:19:07:c5:33:81;-85
1459276515786;linksys;00:21:29:a2:34:88;-93
1459276516530;eduroam;f4:4e:05:79:c8:20;-49
1459276516530;eduroam;f4:4e:05:54:8b:80;-74
1459276516530;eduroam;f4:4e:05:0d:e7:80;-74
1459276516531;eduroam;f4:4e:05:79:cf:50;-80
1459276516531;eduroam;f4:4e:05:0d:e6:b0;-82
1459276516531;Elion-4876FA;00:22:07:48:76:f9;-85
1459276516531;a;f8:1a:67:53:af:ae;-93
1459276516532;Vintsberg;08:76:ff:ca:2f:31;-94
1459276516532;ut-public;f4:4e:05:79:c8:21;-49
1459276516532;ut-public;f4:4e:05:54:8b:81;-73
1459276516532;ut-public;f4:4e:05:0d:e7:81;-74
1459276516533;ut-public;f4:4e:05:79:cf:51;-78
1459276516533;ut-public;f4:4e:05:0d:e6:b1;-84
1459276516533;linksys;00:21:29:a2:34:88;-90
1459276517257;eduroam;f4:4e:05:79:c8:20;-48
1459276517272;eduroam;f4:4e:05:0d:e7:80;-74
1459276517272;eduroam;f4:4e:05:54:8b:80;-74
1459276517272;eduroam;f4:4e:05:79:cf:50;-81
1459276517272;eduroam;f4:4e:05:0d:e6:b0;-83
1459276517273;eduroam;00:19:07:c5:33:80;-86
1459276517273;SpeedTouch1234;00:90:d0:f3:c0:3a;-89
1459276517273;Trooja1;58:98:35:b6:82:d8;-89
1459276517273;Elion-4876FA;00:22:07:48:76:f9;-90
1459276517274;a;f8:1a:67:53:af:ae;-91
1459276517274;Elion-48733F;00:22:07:48:73:3e;-92
1459276517274;ut-public;f4:4e:05:79:c8:21;-48
1459276517275;ut-public;f4:4e:05:0d:e7:81;-74
1459276517275;ut-public;f4:4e:05:54:8b:81;-74
1459276517275;ut-public;f4:4e:05:79:cf:51;-81
1459276517275;ut-public;f4:4e:05:0d:e6:b1;-83
1459276518011;eduroam;f4:4e:05:79:c8:20;-49
1459276518012;eduroam;f4:4e:05:54:8b:80;-74
1459276518012;eduroam;f4:4e:05:0d:e7:80;-74
1459276518012;eduroam;f4:4e:05:79:cf:50;-80
1459276518012;eduroam;f4:4e:05:0d:e6:b0;-83
1459276518013;SpeedTouch1234;00:90:d0:f3:c0:3a;-89
1459276518013;Trooja1;58:98:35:b6:82:d8;-89
1459276518013;Elion-4876FA;00:22:07:48:76:f9;-90
1459276518013;a;f8:1a:67:53:af:ae;-93
1459276518014;ut-public;f4:4e:05:79:c8:21;-49
1459276518014;ut-public;f4:4e:05:54:8b:81;-73
1459276518014;ut-public;f4:4e:05:0d:e7:81;-74
1459276518014;ut-public;f4:4e:05:79:cf:51;-80
1459276518015;ut-public;00:19:07:c5:33:81;-85
1459276518015;linksys;00:21:29:a2:34:88;-95
1459276518790;eduroam;f4:4e:05:79:c8:20;-48
1459276518791;eduroam;f4:4e:05:54:8b:80;-73
1459276518791;eduroam;f4:4e:05:0d:e7:80;-74
1459276518791;eduroam;f4:4e:05:79:cf:50;-81
1459276518791;eduroam;f4:4e:05:0d:e6:b0;-84
1459276518792;SpeedTouch1234;00:90:d0:f3:c0:3a;-89
1459276518792;a;f8:1a:67:53:af:ae;-93
1459276518792;Elion-48733F;00:22:07:48:73:3e;-93
1459276518792;ut-public;f4:4e:05:79:c8:21;-48
1459276518793;ut-public;f4:4e:05:54:8b:81;-74
1459276518793;ut-public;f4:4e:05:0d:e7:81;-74
1459276518793;ut-public;f4:4e:05:79:cf:51;-80
1459276518793;ut-public;f4:4e:05:0d:e6:b1;-82
1459276518794;linksys;00:21:29:a2:34:88;-91
1459276519533;eduroam;f4:4e:05:79:c8:20;-49
1459276519533;eduroam;f4:4e:05:54:8b:80;-73
1459276519533;eduroam;f4:4e:05:0d:e7:80;-74
1459276519533;eduroam;f4:4e:05:79:cf:50;-82
1459276519534;eduroam;f4:4e:05:0d:e6:b0;-83
1459276519534;SpeedTouch1234;00:90:d0:f3:c0:3a;-88
1459276519534;Trooja1;58:98:35:b6:82:d8;-89
1459276519535;Elion-48733F;00:22:07:48:73:3e;-91
1459276519535;a;f8:1a:67:53:af:ae;-93
1459276519535;ut-public;f4:4e:05:79:c8:21;-48
1459276519535;ut-public;f4:4e:05:54:8b:81;-73
1459276519536;ut-public;f4:4e:05:0d:e7:81;-74
1459276519536;ut-public;f4:4e:05:79:cf:51;-82
1459276519536;ut-public;f4:4e:05:0d:e6:b1;-83
